,material_function,testing,testing_ref_name,make_ref,ref_name,ref_generated_by,notes,input_parameters,input1,input2,input3,input4,input5,input6,input7,input8,input9,input10,input11,input12
0,BHAir_v1,FALSE,,FALSE,,,Input unknown - BROKEN,,,,,,,,,,,,,
1,BHIron2_v1,FALSE,,FALSE,,,Input unknown - BROKEN,,,,,,,,,,,,,
2,CFUN_CpHeMass_v1,TRUE,CFUN_CpHeMass_v1,TRUE,CFUN_CpHeMass_v1,Tim Mulder,T,1,"np.geomspace(0.1,1000,100)",,,,,,,,,,,
3,CFUN_CvAg_v1,TRUE,CFUN_CvAg_v1,TRUE,CFUN_CvAg_v1,Tim Mulder,T,1,"np.geomspace(0.1,1000,100)",,,,,,,,,,,
4,CFUN_CvAl5083_v1,TRUE,CFUN_CvAl5083_v1,TRUE,CFUN_CvAl5083_v1,Tim Mulder,T,1,"np.geomspace(0.1,1000,100)",,,,,,,,,,,
5,CFUN_CvAlAlloy_v1,TRUE,CFUN_CvAlAlloy_v1,TRUE,CFUN_CvAlAlloy_v1,Tim Mulder,T,1,"np.geomspace(0.1,1000,100)",,,,,,,,,,,
6,CFUN_CvAl_v1,TRUE,CFUN_CvAl_v1,TRUE,CFUN_CvAl_v1,Tim Mulder,T,1,"np.geomspace(0.1,1000,100)",,,,,,,,,,,
7,CFUN_CvBSCCO2212_v1,TRUE,CFUN_CvBSCCO2212_v1,TRUE,CFUN_CvBSCCO2212_v1,Tim Mulder,T,1,"np.geomspace(0.1,1000,100)",,,,,,,,,,,
8,CFUN_CvBeCu_v1,TRUE,CFUN_CvBeCu_v1,TRUE,CFUN_CvBeCu_v1,Tim Mulder,T,1,"np.geomspace(0.1,1000,100)",,,,,,,,,,,
9,CFUN_CvBrass_v1,TRUE,CFUN_CvBrass_v1,TRUE,CFUN_CvBrass_v1,Tim Mulder,T,1,"np.geomspace(0.1,1000,100)",,,,,,,,,,,
10,CFUN_CvCu_CUDI_v1,TRUE,CFUN_CvCu_CUDI_v1,TRUE,CFUN_CvCu_CUDI_v1,Tim Mulder,T,1,"np.geomspace(0.1,1000,100)",,,,,,,,,,,
11,CFUN_CvCu_NIST_v1,TRUE,CFUN_CvCu_NIST_v1,TRUE,CFUN_CvCu_NIST_v1,Tim Mulder,T,1,"np.geomspace(0.1,1000,100)",,,,,,,,,,,
12,CFUN_CvCu_v1,TRUE,CFUN_CvCu_CUDI_v1,FALSE,,,T,1,,,,,,,,,,,,
13,CFUN_CvG10_v1,TRUE,CFUN_CvG10_v1,TRUE,CFUN_CvG10_v1,Tim Mulder,T,1,"np.geomspace(0.1,1000,100)",,,,,,,,,,,
14,CFUN_CvHast_v1,TRUE,CFUN_CvHast_v1,TRUE,CFUN_CvHast_v1,Tim Mulder,T needs cleaning,1,"np.geomspace(0.1,1000,100)",,,,,,,,,,,
15,CFUN_CvHeMass_v1,TRUE,CFUN_CvHeMass_v1,TRUE,CFUN_CvHeMass_v1,Tim Mulder,T,1,"np.geomspace(0.1,1000,100)",,,,,,,,,,,
16,CFUN_CvHe_CUDI_v1,TRUE,CFUN_CvHe_CUDI_v1,TRUE,CFUN_CvHe_CUDI_v1,Tim Mulder,T needs cleaning,1,"np.geomspace(0.1,1000,100)",,,,,,,,,,,
17,CFUN_CvHe_NIST_v1,TRUE,CFUN_CvHe_NIST_v1,TRUE,CFUN_CvHe_NIST_v1,Tim Mulder,T,1,"np.geomspace(0.1,1000,100)",,,,,,,,,,,
18,CFUN_CvHe_v1,TRUE,CFUN_CvHe_CUDI_v1,FALSE,,,T needs cleaning,1,,,,,,,,,,,,
19,CFUN_CvIn_v0,TRUE,CFUN_CvIn_v0,TRUE,CFUN_CvIn_v0,Tim Mulder,"T needs cleaning, why v0?, TINY T RANGE PLEASE FIX",1,"np.geomspace(15,300,100)",,,,,,,,,,,
20,CFUN_CvKapton_v1,TRUE,CFUN_CvKapton_v1,TRUE,CFUN_CvKapton_v1,Tim Mulder,T,1,"np.geomspace(0.1,1000,100)",,,,,,,,,,,
21,CFUN_CvNb3Sn_Arp_Knapp_v1,FALSE,,TRUE,CFUN_CvNb3Sn_Arp_Knapp_v1,Tim Mulder,"T, Tc, Tc0, Tcs, needs cleaning TESTING ALWAYS FAILS, RANDOM VALUES?",4,"np.geomspace(0.1,1000,100)","np.linspace(5,30,5)",[18.0],[10.0],,,,,,,,
22,CFUN_CvNb3Sn_v1,TRUE,CFUN_CvNb3Sn_v1,TRUE,CFUN_CvNb3Sn_v1,Tim Mulder,"T, B",2,"np.geomspace(0.1,1000,1000)","np.linspace(0.1,30,10)",,,,,,,,,,
23,CFUN_CvNb3Sn_v2,FALSE,CFUN_CvNb3Sn_v2,TRUE,CFUN_CvNb3Sn_v2,Tim Mulder,"T, B, Tc0, Bc20  TESTING ALWAYS FAILS, RANDOM VALUES?",4,"np.geomspace(0.1,1000,1000)","np.linspace(0.1,30,10)",[17.8],[27.012],,,,,,,,
24,CFUN_CvNbTi_CUDI_v1,TRUE,CFUN_CvNbTi_CUDI_v1,TRUE,CFUN_CvNbTi_CUDI_v1,Tim Mulder,"T, B",2,"np.geomspace(0.1,1000,1000)","np.linspace(0.1,30,10)",,,,,,,,,,
25,CFUN_CvNbTi_v1,FALSE,,FALSE,,,"T, B, I, C1, C2",5,,,,,,,,,,,,
26,CFUN_CvSS316_NIST_v1,TRUE,CFUN_CvSS316_NIST_v1,TRUE,CFUN_CvSS316_NIST_v1,Tim Mulder,T,1,"np.geomspace(0.1,1000,100)",,,,,,,,,,,
27,CFUN_CvSteel_v1,TRUE,CFUN_CvSteel_v1,TRUE,CFUN_CvSteel_v1,Tim Mulder,T needs cleaning,1,"np.geomspace(0.1,1000,100)",,,,,,,,,,,
28,CFUN_CvTi_v1,TRUE,CFUN_CvTi_v1,TRUE,CFUN_CvTi_v1,Tim Mulder,T,1,"np.geomspace(0.1,1000,100)",,,,,,,,,,,
29,CFUN_HTS_JcFit_Fujikura_v1,TRUE,CFUN_HTS_JcFit_Fujikura_v1,TRUE,CFUN_HTS_JcFit_Fujikura_v1,Tim Mulder,"T, B, deg",3,"np.geomspace(0.1,1000,100)","np.geomspace(0.1, 50, 50)","np.linspace(0, 90, 5)",,,,,,,,,
30,CFUN_HTS_JcFit_SUPERPOWER_v1,TRUE,CFUN_HTS_JcFit_SUPERPOWER_v1,TRUE,CFUN_HTS_JcFit_SUPERPOWER_v1,Tim Mulder,"T, B, deg",3,"np.geomspace(0.1,1000,100)","np.geomspace(0.1, 50, 50)","np.linspace(0, 90, 5)",,,,,,,,,
31,CFUN_HTS_JcFit_Succi_v2,TRUE,CFUN_HTS_JcFit_Succi_v2,TRUE,CFUN_HTS_JcFit_Succi_v2,Tim Mulder,"T, B",2,"np.geomspace(0.1,1000,100)","np.geomspace(0.1, 50, 50)",,,,,,,,,,
32,CFUN_HTS_JcFit_THEVA_v1,TRUE,CFUN_HTS_JcFit_THEVA_v1,TRUE,CFUN_HTS_JcFit_THEVA_v1,Tim Mulder,"T, B, deg",3,"np.geomspace(0.1,1000,100)","np.geomspace(0.1, 50, 50)","np.linspace(0, 90, 5)",,,,,,,,,
33,CFUN_HTS_JcFit_sunam_v1,TRUE,CFUN_HTS_JcFit_sunam_v1,TRUE,CFUN_HTS_JcFit_sunam_v1,Tim Mulder,"T, B, deg",3,"np.geomspace(0.1,1000,100)","np.geomspace(0.1, 50, 50)","np.linspace(0, 90, 5)",,,,,,,,,
34,CFUN_HTS_JcFit_v1,FALSE,,FALSE,,,,,,,,,,,,,,,,
35,CFUN_IcNb3Sn_HiLumi_v1,TRUE,CFUN_IcNb3Sn_HiLumi_v1,TRUE,CFUN_IcNb3Sn_HiLumi_v1,Tim Mulder,"T, B, Area",3,"np.geomspace(0.1,1000,100)","np.geomspace(0.1, 50, 50)",[1],,,,,,,,,
36,CFUN_IcNb3Sn_WithStress_v1,TRUE,CFUN_IcNb3Sn_WithStress_v1,TRUE,CFUN_IcNb3Sn_WithStress_v1,Tim Mulder,"T, B, Area, S, a, Smax",6,"np.geomspace(0.1,1000,100)","np.geomspace(0.1, 50, 50)",[1],[1],[1],[15],,,,,,
37,CFUN_IcNb3Sn_v1,TRUE,CFUN_IcNb3Sn_v1,TRUE,CFUN_IcNb3Sn_v1,Tim Mulder,"T, B, Area",3,"np.geomspace(0.1,1000,100)","np.geomspace(0.1, 50, 50)",[1],,,,,,,,,
38,CFUN_IcNbTi_v1,TRUE,CFUN_IcNbTi_v1,TRUE,CFUN_IcNbTi_v1,Tim Mulder,"T, B, Area",3,"np.geomspace(0.1,1000,100)","np.geomspace(0.1, 50, 50)",[1],,,,,,,,,
39,CFUN_JcNbTiLowCurrent_v1,TRUE,CFUN_JcNbTiLowCurrent_v1,TRUE,CFUN_JcNbTiLowCurrent_v1,Tim Mulder,"T, B",2,"np.geomspace(0.1,1000,100)","np.geomspace(0.1, 50, 50)",,,,,,,,,,
40,CFUN_Jc_Nb3Sn_Bordini_v1,TRUE,CFUN_Jc_Nb3Sn_Bordini_v1,TRUE,CFUN_Jc_Nb3Sn_Bordini_v1,Tim Mulder,"T, B, C0, Tc, Bc20, alpha",6,"np.geomspace(0.1,1000,100)","np.geomspace(0.1, 50, 50)",[227100000000.0],"[18.0, 19.0, 20.0]",[29.0],[1.01],,,,,,
41,CFUN_Jc_Nb3Sn_Bottura_v1,TRUE,CFUN_Jc_Nb3Sn_Bottura_v1,TRUE,CFUN_Jc_Nb3Sn_Bottura_v1,Tim Mulder,"T, B, Tc0, Bc20, CJ, p, q, diameter, Cu_noCu, check inputs",9,"np.geomspace(0.1,1000,100)","np.geomspace(0.1, 50, 50)",[18.0],[29.0],[1],[1],[1],[1],[1],,,
42,CFUN_Jc_Nb3Sn_Summers_v1,TRUE,CFUN_Jc_Nb3Sn_Summers_v1,TRUE,CFUN_Jc_Nb3Sn_Summers_v1,Tim Mulder,"T, B, Jc, Tc0, Bc20",5,"np.geomspace(0.1,1000,100)","np.geomspace(0.1, 50, 50)",[14.2196],[18.0],[29.0],,,,,,,
43,CFUN_Jc_NbTi_Bottura_v1,FALSE,,TRUE,CFUN_Jc_NbTi_Bottura_v1,Tim Mulder,"T, B, Tc0, Bc20, Jc_ref, C0, alpha, beta, gamma, diameter, Cu_noCU GIVES SEVERAL NANS FOR THE TEST INPUTS",11,"np.geomspace(0.1,1000,100)","np.geomspace(0.1, 15, 50)",[9.2],[14.5],[1],[27.04],[0.57],[0.9],[2.32],[0.001],[1.0],
44,CFUN_Jc_NbTi_Cudi_fit1_v1,TRUE,CFUN_Jc_NbTi_Cudi_fit1_v1,TRUE,CFUN_Jc_NbTi_Cudi_fit1_v1,Tim Mulder,"T, B, Tc0, Bc20, C1, C2, diameter, Cu_noCu",8,"np.geomspace(0.1,1000,100)","np.geomspace(0.1, 50, 50)",[9.2],[14.5],[34404.9],[2566.9],[0.001],[1.0],,,,
45,CFUN_Jc_NbTi_Cudi_v1,TRUE,CFUN_Jc_NbTi_Cudi_v1,TRUE,CFUN_Jc_NbTi_Cudi_v1,Tim Mulder,"T, B, Tc0, Bc20, c1, c2, c3, c4, c5, c6, diameter, Cu_noCu",12,"np.geomspace(0.1,1000,100)","np.geomspace(0.1, 50, 50)",[9.2],[14.5],[6581.9],[-453.3],[200.0],[50.0],[10.0],[500.0],[0.001],[1.0]
46,CFUN_Jc_T_B_BSCCO2212_Power_Gosh_v1,TRUE,CFUN_Jc_T_B_BSCCO2212_Power_Gosh_v1,TRUE,CFUN_Jc_T_B_BSCCO2212_Power_Gosh_v1,Tim Mulder,"T, B, f_scaling",3,"np.geomspace(0.1,1000,100)","np.geomspace(0.1, 50, 50)",[2.0],,,,,,,,,
47,CFUN_Jc_T_B_BSCCO2212_Power_Jiang_Wesche_v1,TRUE,CFUN_Jc_T_B_BSCCO2212_Power_Jiang_Wesche_v1,TRUE,CFUN_Jc_T_B_BSCCO2212_Power_Jiang_Wesche_v1,Tim Mulder,"T, B, f_scaling",3,"np.geomspace(0.1,1000,100)","np.geomspace(0.1, 50, 50)",[2.0],,,,,,,,,
48,CFUN_Jc_T_B_BSCCO2212_new_v1,TRUE,CFUN_Jc_T_B_BSCCO2212_new_v1,TRUE,CFUN_Jc_T_B_BSCCO2212_new_v1,Tim Mulder,"T, B, f_scaling",3,"np.geomspace(0.1,1000,100)","np.geomspace(0.1, 50, 50)",[2.0],,,,,,,,,
49,CFUN_Jc_T_B_BSCCO2212_v1,TRUE,CFUN_Jc_T_B_BSCCO2212_v1,TRUE,CFUN_Jc_T_B_BSCCO2212_v1,Tim Mulder,"T, B, f_scaling",3,"np.geomspace(0.1,1000,100)","np.geomspace(0.1, 50, 50)",[2.0],,,,,,,,,
50,CFUN_P2vsT2_cryocooler_SHI_SRDE_418D4_v2,TRUE,CFUN_P2vsT2_cryocooler_SHI_SRDE_418D4_v2,TRUE,CFUN_P2vsT2_cryocooler_SHI_SRDE_418D4_v2,Tim Mulder,T - ERIK CHECK HIGH TEMPERATURE COOLING POWER,1,"np.geomspace(0.1,1000,100)",,,,,,,,,,,
51,CFUN_PvsT_cryocooler_SHI_SRDE_418D4_v1,FALSE,,TRUE,CFUN_PvsT_cryocooler_SHI_SRDE_418D4_v1,Tim Mulder,T - BROKEN GIVES ONLY ZEROS,1,"np.geomspace(0.1,1000,100)",,,,,,,,,,,
52,CFUN_QHCircuit_v1,TRUE,CFUN_QHCircuit_v1,TRUE,CFUN_QHCircuit_v1,Tim Mulder,"t, t_on, T, U_0, C, R_warm, w_QH, h_QH, l_QH, mode",10,"np.linspace(0, 100, 200)",[10.0],[4.5],[900.0],[0.0047],[100.0],[12.0],[2],[1],[1],,
53,CFUN_QHCircuit_v2,TRUE,CFUN_QHCircuit_v2,TRUE,CFUN_QHCircuit_v2,Tim Mulder,"t, rho_ss, t_on, U_0, C, R_warm, w_QH, h_QH, l_QH, mode",10,"np.linspace(0, 100, 200)",[0.0001],[10.0],[900.0],[0.0047],[100.0],[12.0],[2],[1],[1],,
54,CFUN_TcsNbTi_v1,TRUE,CFUN_TcsNbTi_v1,TRUE,CFUN_TcsNbTi_v1,Tim Mulder,"B, I, C1, C2",4,"np.geomspace(0.1, 50, 100)",[50.0],[1.56],[1.0],,,,,,,,
55,CFUN_Tcs_Nb3Sn_v1,TRUE,CFUN_Tcs_Nb3Sn_v1,TRUE,CFUN_Tcs_Nb3Sn_v1,Tim Mulder,"J_sc, B, Jc0, Jc0, Tc0, Bc20",6,[0.5],"np.geomspace(0.1, 50, 50)",[1.0],[1.0],[18.0],[29.0],,,,,,
56,CFUN_densityHe_v1,TRUE,CFUN_densityHe_v1,TRUE,CFUN_densityHe_v1,Tim Mulder,T,1,"np.geomspace(0.1,1000,100)",,,,,,,,,,,
57,CFUN_fisc_I_Ic_n_rhom_Am_BSCCO2212_v1,TRUE,CFUN_fisc_I_Ic_n_rhom_Am_BSCCO2212_v1,TRUE,CFUN_fisc_I_Ic_n_rhom_Am_BSCCO2212_v1,Tim Mulder,"I, Ic, n, rho_m, A_matrix",5,"np.linspace(0, 20000, 21)","[10000, 20000, 30000]","[1, 5, 10, 15, 20]",[0.5e-9],[1.508e-5],,,,,,,
58,CFUN_hHe_v1,TRUE,CFUN_hHe_v1,TRUE,CFUN_hHe_v1,Tim Mulder,"T, The",2,"np.geomspace(0.1,1000,100)","[1.8, 2.3, 4.5]",,,,,,,,,,
59,CFUN_hN_v1,TRUE,CFUN_hN_v1,TRUE,CFUN_hN_v1,Erik Schnaubelt,T_diff,1,"np.geomspace(0.1,1000,100)",,,,,,,,,,,
60,CFUN_kAg_RRR30_v1,TRUE,CFUN_kAg_RRR30_v1,TRUE,CFUN_kAg_RRR30_v1,Tim Mulder,T,1,"np.geomspace(0.1,1000,100)",,,,,,,,,,,
61,CFUN_kAg_v1,TRUE,CFUN_kAg_v1,TRUE,CFUN_kAg_v1,Tim Mulder,T,1,"np.geomspace(0.1,1000,100)",,,,,,,,,,,
62,CFUN_kAl1350_v1,TRUE,CFUN_kAl1350_v1,TRUE,CFUN_kAl1350_v1,Tim Mulder,T,1,"np.geomspace(0.1,1000,100)",,,,,,,,,,,
63,CFUN_kAl5083_v1,TRUE,CFUN_kAl5083_v1,TRUE,CFUN_kAl5083_v1,Tim Mulder,T,1,"np.geomspace(0.1,1000,100)",,,,,,,,,,,
64,CFUN_kAl6061_v1,TRUE,CFUN_kAl6061_v1,TRUE,CFUN_kAl6061_v1,Tim Mulder,T,1,"np.geomspace(0.1,1000,100)",,,,,,,,,,,
65,CFUN_kAlAlloy_v1,TRUE,CFUN_kAlAlloy_v1,TRUE,CFUN_kAlAlloy_v1,Tim Mulder,"T, RRR, TINY T RANGE PLEASE FIX",2,"np.geomspace(0.1,300,100)","[10, 20, 40, 60, 80, 100]",,,,,,,,,,
66,CFUN_kBeCu_WiedemannFranz_v1,TRUE,CFUN_kBeCu_WiedemannFranz_v1,TRUE,CFUN_kBeCu_WiedemannFranz_v1,Tim Mulder,"T, rho, scaling, error seems wrong",3,"np.geomspace(0.1,1000,100)",[1e-8],[1],,,,,,,,,
67,CFUN_kBrass_v1,TRUE,CFUN_kBrass_v1,TRUE,CFUN_kBrass_v1,Tim Mulder,T,1,"np.geomspace(0.1,1000,100)",,,,,,,,,,,
68,CFUN_kCu_Wiedemann_v1,TRUE,CFUN_kCu_Wiedemann_v1,TRUE,CFUN_kCu_Wiedemann_v1,Tim Mulder,"T, rho",2,"np.geomspace(0.1,1000,100)","[1e-10, 1e-9, 1e-8]",,,,,,,,,,
69,CFUN_kCu_v1,TRUE,CFUN_kCu_v1,TRUE,CFUN_kCu_v1,Tim Mulder,"T, RRR, rho_B0, rho",4,"np.geomspace(0.1,1000,100)",[100],[1e-9],[1e-9],,,,,,,,
70,CFUN_kG10_v1,TRUE,CFUN_kG10_v1,TRUE,CFUN_kG10_v1,Tim Mulder,T,1,"np.geomspace(0.1,1000,100)",,,,,,,,,,,
71,CFUN_kG10_v2,TRUE,CFUN_kG10_v2,TRUE,CFUN_kG10_v2,Tim Mulder,T,1,"np.geomspace(0.1,1000,100)",,,,,,,,,,,
72,CFUN_kHast_v1,TRUE,CFUN_kHast_v1,TRUE,CFUN_kHast_v1,Tim Mulder,T,1,"np.geomspace(0.1,1000,100)",,,,,,,,,,,
73,CFUN_kHe_v1,FALSE,,FALSE,,,"T, Tref?? Legacy function, I don t think anybody uses it.",2,,,,,,,,,,,,
74,CFUN_kIn_v0,TRUE,CFUN_kIn_v0,TRUE,CFUN_kIn_v0,Tim Mulder,"T needs cleaning, why v0?, TINY T RANGE PLEASE FIX",1,"np.geomspace(15,300,100)",,,,,,,,,,,
75,CFUN_kKapton_v1,TRUE,CFUN_kKapton_v1,TRUE,CFUN_kKapton_v1,Tim Mulder,T,1,"np.geomspace(0.1,1000,10000)",,,,,,,,,,,
76,CFUN_kKapton_v2,TRUE,CFUN_kKapton_v2,TRUE,CFUN_kKapton_v2,Tim Mulder,T,1,"np.geomspace(0.1,1000,10000)",,,,,,,,,,,
77,CFUN_kSteel_v1,TRUE,CFUN_kSteel_v1,TRUE,CFUN_kSteel_v1,Tim Mulder,T,1,"np.geomspace(0.1,1000,100)",,,,,,,,,,,
78,CFUN_kSteel_v2,TRUE,CFUN_kSteel_v1,FALSE,,,T,1,,,,,,,,,,,,
79,CFUN_kStycast_v1,TRUE,CFUN_kStycast_v1,TRUE,CFUN_kStycast_v1,Tim Mulder,T,1,"np.geomspace(0.1,1000,100)",,,,,,,,,,,
80,CFUN_n_T_B_BSCCO2212_Jiang_Wesche_v1,TRUE,CFUN_n_T_B_BSCCO2212_Jiang_Wesche_v1,TRUE,CFUN_n_T_B_BSCCO2212_Jiang_Wesche_v1,Tim Mulder,"T, B, n0, needs cleaning",3,"np.geomspace(0.1,1000,100)","np.geomspace(0.1, 50, 50)",[1],,,,,,,,,
81,CFUN_quenchState_v1,TRUE,CFUN_quenchState_v1,TRUE,CFUN_quenchState_v1,Tim Mulder,"I, Ic ",2,"np.linspace(1,100,100)","[20,50,100,150]",,,,,,,,,,
82,CFUN_rhoAgMg_v1,TRUE,CFUN_rhoAgMg_v1,TRUE,CFUN_rhoAgMg_v1,Tim Mulder,"T, B",2,"np.geomspace(0.1,1000,100)","np.geomspace(0.1, 50, 50)",,,,,,,,,,
83,CFUN_rhoAg_v1,TRUE,CFUN_rhoAg_v1,TRUE,CFUN_rhoAg_v1,Tim Mulder,"T, B, RRR, Tref_RRR, should be updated to 3 inputs",4,"np.geomspace(0.1,1000,100)","np.geomspace(0.1, 50, 50)","[10,50,100,150,200]",[273],,,,,,,,
84,CFUN_rhoAl1350_v1,TRUE,CFUN_rhoAl1350_v1,TRUE,CFUN_rhoAl1350_v1,Tim Mulder,T,1,"np.geomspace(0.1,1000,100)",,,,,,,,,,,
85,CFUN_rhoAl5083_v1,TRUE,CFUN_rhoAl5083_v1,TRUE,CFUN_rhoAl5083_v1,Tim Mulder,T,1,"np.geomspace(0.1,1000,100)",,,,,,,,,,,
86,CFUN_rhoAl6061_v1,TRUE,CFUN_rhoAl6061_v1,TRUE,CFUN_rhoAl6061_v1,Tim Mulder,T,1,"np.geomspace(0.1,1000,100)",,,,,,,,,,,
87,CFUN_rhoAlAlloy_v1,TRUE,CFUN_rhoAlAlloy_v1,TRUE,CFUN_rhoAlAlloy_v1,Tim Mulder,"T, RRR This seems the good version",2,"np.geomspace(0.1,300,100)","[10, 20, 40, 60, 80, 100]",,,,,,,,,,
88,CFUN_rhoAl_v1,TRUE,CFUN_rhoAl_v1,TRUE,CFUN_rhoAl_v1,Tim Mulder,"T, what is this function?",1,"np.geomspace(0.1,1000,100)",,,,,,,,,,,
89,CFUN_rhoAl_v2,TRUE,CFUN_rhoAl_v2,TRUE,CFUN_rhoAl_v2,Tim Mulder,"T, what is this function?",1,"np.geomspace(0.1,1000,100)",,,,,,,,,,,
90,CFUN_rhoBeCu_v1,TRUE,CFUN_rhoBeCu_v1,TRUE,CFUN_rhoBeCu_v1,Tim Mulder,"T, scaling",2,"np.geomspace(0.1,1000,100)",[1],,,,,,,,,,
91,CFUN_rhoCu_CUDI_v1,TRUE,CFUN_rhoCu_CUDI_v1,TRUE,CFUN_rhoCu_CUDI_v1,Tim Mulder,"T, B, RRR, MR?",4,"np.geomspace(0.1,1000,100)","np.geomspace(0.1, 50, 50)",[140],[1],,,,,,,,
92,CFUN_rhoCu_NIST_v1,TRUE,CFUN_rhoCu_NIST_v1,TRUE,CFUN_rhoCu_NIST_v1,Tim Mulder,"T, B, RRR",3,"np.geomspace(0.1,1000,100)","np.geomspace(0.1, 50, 50)","[10,50,100,150,200]",,,,,,,,,
93,CFUN_rhoCu_NIST_v2,TRUE,CFUN_rhoCu_NIST_v2,TRUE,CFUN_rhoCu_NIST_v2,Tim Mulder,"T, B, RRR",3,"np.geomspace(0.1,1000,100)","np.geomspace(0.1, 50, 50)","[10,50,100,150,200]",,,,,,,,,
94,CFUN_rhoCu_v1,TRUE,CFUN_rhoCu_v1,TRUE,CFUN_rhoCu_v1,Tim Mulder,"T, B, RRR, Tref_RRR",4,"np.geomspace(0.1,1000,100)","np.geomspace(0.1, 50, 50)","[10,50,100,150,200]",[1],,,,,,,,
95,CFUN_rhoHast_v1,TRUE,CFUN_rhoHast_v1,TRUE,CFUN_rhoHast_v1,Tim Mulder,T,1,"np.geomspace(0.1,1000,100)",,,,,,,,,,,
96,CFUN_rhoHast_v2,TRUE,CFUN_rhoHast_v1,FALSE,,,T,1,,,,,,,,,,,,
97,CFUN_rhoIn_v0,TRUE,CFUN_rhoIn_v0,TRUE,CFUN_rhoIn_v0,Tim Mulder,"T, why v0?, TINY T RANGE",1,"np.geomspace(15,300,100)",,,,,,,,,,,
98,CFUN_rhoSS_v1,TRUE,CFUN_rhoSS_v1,TRUE,CFUN_rhoSS_v1,Tim Mulder,T,1,"np.geomspace(0.1,1000,100)",,,,,,,,,,,
99,CFUN_HTS_JcFit_Benchmark_v1,FALSE,,FALSE,,,"B, dev version without testing for now",1,,,,,,,,,,,,