<?xml version="1.0"?>
<!DOCTYPE svg PUBLIC '-//W3C//DTD SVG 1.0//EN'
          'http://www.w3.org/TR/2001/REC-SVG-20010904/DTD/svg10.dtd'>
<svg xmlns:xlink="http://www.w3.org/1999/xlink" style="fill-opacity:1; color-rendering:auto; color-interpolation:auto; text-rendering:auto; stroke:black; stroke-linecap:square; stroke-miterlimit:10; shape-rendering:auto; stroke-opacity:1; fill:black; stroke-dasharray:none; font-weight:normal; stroke-width:1; font-family:'Dialog'; font-style:normal; stroke-linejoin:miter; font-size:12px; stroke-dashoffset:0; image-rendering:auto;" width="700" height="525" xmlns="http://www.w3.org/2000/svg"
><!--Generated by the Batik Graphics2D SVG Generator--><defs id="genericDefs"
  /><g
  ><defs id="defs1"
    ><clipPath clipPathUnits="userSpaceOnUse" id="clipPath1"
      ><path d="M0 0 L700 0 L700 525 L0 525 L0 0 Z"
      /></clipPath
      ><font horiz-adv-x="75.0" id="font1"
      ><font-face ascent="100.53711" descent="21.972656" units-per-em="100" style="font-style:normal; font-family:SansSerif; font-weight:normal;"
        /><missing-glyph horiz-adv-x="75.0" d="M12.5 0 L12.5 62.5 L62.5 62.5 L62.5 0 L12.5 0 ZM14.0625 1.5625 L60.9375 1.5625 L60.9375 60.9375 L14.0625 60.9375 L14.0625 1.5625 Z"
        /><glyph unicode="0" horiz-adv-x="55.615234" d="M4.1562 35.2969 Q4.1562 48 6.7656 55.7422 Q9.375 63.4844 14.5234 67.6797 Q19.6719 71.875 27.4844 71.875 Q33.25 71.875 37.5938 69.5547 Q41.9375 67.2344 44.7734 62.8672 Q47.6094 58.5 49.2188 52.2266 Q50.8281 45.9531 50.8281 35.2969 Q50.8281 22.7031 48.2422 14.9688 Q45.6562 7.2344 40.5078 3.0078 Q35.3594 -1.2188 27.4844 -1.2188 Q17.1406 -1.2188 11.2344 6.2031 Q4.1562 15.1406 4.1562 35.2969 ZM13.1875 35.2969 Q13.1875 17.6719 17.3125 11.8359 Q21.4375 6 27.4844 6 Q33.5469 6 37.6719 11.8594 Q41.7969 17.7188 41.7969 35.2969 Q41.7969 52.9844 37.6719 58.7891 Q33.5469 64.5938 27.3906 64.5938 Q21.3438 64.5938 17.7188 59.4688 Q13.1875 52.9375 13.1875 35.2969 Z"
        /><glyph unicode="1" horiz-adv-x="55.615234" d="M37.25 0 L28.4688 0 L28.4688 56 Q25.2969 52.9844 20.1406 49.9531 Q14.9844 46.9219 10.8906 45.4062 L10.8906 53.9062 Q18.2656 57.375 23.7812 62.3047 Q29.2969 67.2344 31.5938 71.875 L37.25 71.875 L37.25 0 Z"
        /><glyph unicode="." horiz-adv-x="27.783203" d="M9.0781 0 L9.0781 10.0156 L19.0938 10.0156 L19.0938 0 L9.0781 0 Z"
        /><glyph unicode="2" horiz-adv-x="55.615234" d="M50.3438 8.4531 L50.3438 0 L3.0312 0 Q2.9375 3.1719 4.0469 6.1094 Q5.8594 10.9375 9.8359 15.625 Q13.8125 20.3125 21.3438 26.4688 Q33.0156 36.0312 37.1172 41.625 Q41.2188 47.2188 41.2188 52.2031 Q41.2188 57.4219 37.4766 61.0078 Q33.7344 64.5938 27.7344 64.5938 Q21.3906 64.5938 17.5781 60.7891 Q13.7656 56.9844 13.7188 50.25 L4.6875 51.1719 Q5.6094 61.2812 11.6641 66.5781 Q17.7188 71.875 27.9375 71.875 Q38.2344 71.875 44.2422 66.1641 Q50.25 60.4531 50.25 52 Q50.25 47.7031 48.4922 43.5547 Q46.7344 39.4062 42.6562 34.8125 Q38.5781 30.2188 29.1094 22.2188 Q21.1875 15.5781 18.9453 13.2109 Q16.7031 10.8438 15.2344 8.4531 L50.3438 8.4531 Z"
        /><glyph unicode="3" horiz-adv-x="55.615234" d="M4.2031 18.8906 L12.9844 20.0625 Q14.5 12.5938 18.1406 9.2969 Q21.7812 6 27 6 Q33.2031 6 37.4766 10.2969 Q41.75 14.5938 41.75 20.9531 Q41.75 27 37.7969 30.9297 Q33.8438 34.8594 27.7344 34.8594 Q25.25 34.8594 21.5312 33.8906 L22.5156 41.6094 Q23.3906 41.5 23.9219 41.5 Q29.5469 41.5 34.0391 44.4297 Q38.5312 47.3594 38.5312 53.4688 Q38.5312 58.2969 35.2578 61.4766 Q31.9844 64.6562 26.8125 64.6562 Q21.6875 64.6562 18.2656 61.4297 Q14.8438 58.2031 13.875 51.7656 L5.0781 53.3281 Q6.6875 62.1562 12.3984 67.0156 Q18.1094 71.875 26.6094 71.875 Q32.4688 71.875 37.3984 69.3594 Q42.3281 66.8438 44.9453 62.5 Q47.5625 58.1562 47.5625 53.2656 Q47.5625 48.6406 45.0703 44.8281 Q42.5781 41.0156 37.7031 38.7656 Q44.0469 37.3125 47.5625 32.6953 Q51.0781 28.0781 51.0781 21.1406 Q51.0781 11.7656 44.2422 5.25 Q37.4062 -1.2656 26.9531 -1.2656 Q17.5312 -1.2656 11.3047 4.3516 Q5.0781 9.9688 4.2031 18.8906 Z"
        /><glyph unicode="4" horiz-adv-x="55.615234" d="M32.3281 0 L32.3281 17.1406 L1.2656 17.1406 L1.2656 25.2031 L33.9375 71.5781 L41.1094 71.5781 L41.1094 25.2031 L50.7812 25.2031 L50.7812 17.1406 L41.1094 17.1406 L41.1094 0 L32.3281 0 ZM32.3281 25.2031 L32.3281 57.4688 L9.9062 25.2031 L32.3281 25.2031 Z"
        /><glyph unicode="5" horiz-adv-x="55.615234" d="M4.1562 18.75 L13.375 19.5312 Q14.4062 12.7969 18.1406 9.3984 Q21.875 6 27.1562 6 Q33.5 6 37.8906 10.7891 Q42.2812 15.5781 42.2812 23.4844 Q42.2812 31 38.0625 35.3516 Q33.8438 39.7031 27 39.7031 Q22.75 39.7031 19.3359 37.7734 Q15.9219 35.8438 13.9688 32.7656 L5.7188 33.8438 L12.6406 70.6094 L48.25 70.6094 L48.25 62.2031 L19.6719 62.2031 L15.8281 42.9688 Q22.2656 47.4688 29.3438 47.4688 Q38.7188 47.4688 45.1641 40.9688 Q51.6094 34.4688 51.6094 24.2656 Q51.6094 14.5469 45.9531 7.4688 Q39.0625 -1.2188 27.1562 -1.2188 Q17.3906 -1.2188 11.2109 4.25 Q5.0312 9.7188 4.1562 18.75 Z"
        /><glyph unicode="6" horiz-adv-x="55.615234" d="M49.75 54.0469 L41.0156 53.375 Q39.8438 58.5469 37.7031 60.8906 Q34.125 64.6562 28.9062 64.6562 Q24.7031 64.6562 21.5312 62.3125 Q17.3906 59.2812 14.9922 53.4688 Q12.5938 47.6562 12.5 36.9219 Q15.6719 41.75 20.2656 44.0938 Q24.8594 46.4375 29.8906 46.4375 Q38.6719 46.4375 44.8516 39.9688 Q51.0312 33.5 51.0312 23.25 Q51.0312 16.5 48.125 10.7188 Q45.2188 4.9375 40.1406 1.8594 Q35.0625 -1.2188 28.6094 -1.2188 Q17.625 -1.2188 10.6953 6.8594 Q3.7656 14.9375 3.7656 33.5 Q3.7656 54.25 11.4219 63.6719 Q18.1094 71.875 29.4375 71.875 Q37.8906 71.875 43.2891 67.1406 Q48.6875 62.4062 49.75 54.0469 ZM13.875 23.1875 Q13.875 18.6562 15.7969 14.5078 Q17.7188 10.3594 21.1875 8.1797 Q24.6562 6 28.4688 6 Q34.0312 6 38.0391 10.4922 Q42.0469 14.9844 42.0469 22.7031 Q42.0469 30.125 38.0859 34.3984 Q34.125 38.6719 28.125 38.6719 Q22.1719 38.6719 18.0234 34.3984 Q13.875 30.125 13.875 23.1875 Z"
        /><glyph unicode="7" horiz-adv-x="55.615234" d="M4.7344 62.2031 L4.7344 70.6562 L51.0781 70.6562 L51.0781 63.8125 Q44.2344 56.5469 37.5234 44.4844 Q30.8125 32.4219 27.1562 19.6719 Q24.5156 10.6875 23.7812 0 L14.75 0 Q14.8906 8.4531 18.0625 20.4141 Q21.2344 32.375 27.1719 43.4844 Q33.1094 54.5938 39.7969 62.2031 L4.7344 62.2031 Z"
        /><glyph unicode="8" horiz-adv-x="55.615234" d="M17.6719 38.8125 Q12.2031 40.8281 9.5703 44.5391 Q6.9375 48.25 6.9375 53.4219 Q6.9375 61.2344 12.5547 66.5547 Q18.1719 71.875 27.4844 71.875 Q36.8594 71.875 42.5781 66.4297 Q48.2969 60.9844 48.2969 53.1719 Q48.2969 48.1875 45.6797 44.5078 Q43.0625 40.8281 37.75 38.8125 Q44.3438 36.6719 47.7812 31.8828 Q51.2188 27.0938 51.2188 20.4531 Q51.2188 11.2812 44.7266 5.0312 Q38.2344 -1.2188 27.6406 -1.2188 Q17.0469 -1.2188 10.5469 5.0547 Q4.0469 11.3281 4.0469 20.7031 Q4.0469 27.6875 7.5938 32.3984 Q11.1406 37.1094 17.6719 38.8125 ZM15.9219 53.7188 Q15.9219 48.6406 19.1953 45.4141 Q22.4688 42.1875 27.6875 42.1875 Q32.7656 42.1875 36.0156 45.3828 Q39.2656 48.5781 39.2656 53.2188 Q39.2656 58.0625 35.9141 61.3594 Q32.5625 64.6562 27.5938 64.6562 Q22.5625 64.6562 19.2422 61.4297 Q15.9219 58.2031 15.9219 53.7188 ZM13.0938 20.6562 Q13.0938 16.8906 14.875 13.375 Q16.6562 9.8594 20.1719 7.9297 Q23.6875 6 27.7344 6 Q34.0312 6 38.1328 10.0547 Q42.2344 14.1094 42.2344 20.3594 Q42.2344 26.7031 38.0156 30.8594 Q33.7969 35.0156 27.4375 35.0156 Q21.2344 35.0156 17.1641 30.9141 Q13.0938 26.8125 13.0938 20.6562 Z"
        /><glyph unicode="9" horiz-adv-x="55.615234" d="M5.4688 16.5469 L13.9219 17.3281 Q14.9844 11.375 18.0156 8.6875 Q21.0469 6 25.7812 6 Q29.8281 6 32.8828 7.8594 Q35.9375 9.7188 37.8906 12.8203 Q39.8438 15.9219 41.1641 21.1953 Q42.4844 26.4688 42.4844 31.9375 Q42.4844 32.5156 42.4375 33.6875 Q39.7969 29.5 35.2344 26.8828 Q30.6719 24.2656 25.3438 24.2656 Q16.4531 24.2656 10.3047 30.7109 Q4.1562 37.1562 4.1562 47.7031 Q4.1562 58.5938 10.5781 65.2344 Q17 71.875 26.6562 71.875 Q33.6406 71.875 39.4297 68.1172 Q45.2188 64.3594 48.2188 57.3984 Q51.2188 50.4375 51.2188 37.25 Q51.2188 23.5312 48.2422 15.4062 Q45.2656 7.2812 39.3828 3.0312 Q33.5 -1.2188 25.5938 -1.2188 Q17.1875 -1.2188 11.8672 3.4453 Q6.5469 8.1094 5.4688 16.5469 ZM41.4531 48.1406 Q41.4531 55.7188 37.4297 60.1562 Q33.4062 64.5938 27.7344 64.5938 Q21.875 64.5938 17.5312 59.8125 Q13.1875 55.0312 13.1875 47.4062 Q13.1875 40.5781 17.3125 36.3047 Q21.4375 32.0312 27.4844 32.0312 Q33.5938 32.0312 37.5234 36.3047 Q41.4531 40.5781 41.4531 48.1406 Z"
        /><glyph unicode="e" horiz-adv-x="55.615234" d="M42.0938 16.7031 L51.1719 15.5781 Q49.0312 7.625 43.2188 3.2266 Q37.4062 -1.1719 28.375 -1.1719 Q17 -1.1719 10.3281 5.8359 Q3.6562 12.8438 3.6562 25.4844 Q3.6562 38.5781 10.3984 45.8047 Q17.1406 53.0312 27.875 53.0312 Q38.2812 53.0312 44.875 45.9531 Q51.4688 38.875 51.4688 26.0312 Q51.4688 25.25 51.4219 23.6875 L12.75 23.6875 Q13.2344 15.1406 17.5781 10.6016 Q21.9219 6.0625 28.4219 6.0625 Q33.25 6.0625 36.6719 8.6016 Q40.0938 11.1406 42.0938 16.7031 ZM13.2344 30.9062 L42.1875 30.9062 Q41.6094 37.4531 38.875 40.7188 Q34.6719 45.7969 27.9844 45.7969 Q21.9219 45.7969 17.7969 41.75 Q13.6719 37.7031 13.2344 30.9062 Z"
        /><glyph unicode="g" horiz-adv-x="55.615234" d="M4.9844 -4.2969 L13.5312 -5.5625 Q14.0625 -9.5156 16.5 -11.3281 Q19.7812 -13.7656 25.4375 -13.7656 Q31.5469 -13.7656 34.8672 -11.3281 Q38.1875 -8.8906 39.3594 -4.5 Q40.0469 -1.8125 39.9844 6.7812 Q34.2344 0 25.6406 0 Q14.9375 0 9.0781 7.7188 Q3.2188 15.4375 3.2188 26.2188 Q3.2188 33.6406 5.9062 39.9141 Q8.5938 46.1875 13.6953 49.6094 Q18.7969 53.0312 25.6875 53.0312 Q34.8594 53.0312 40.8281 45.6094 L40.8281 51.8594 L48.9219 51.8594 L48.9219 7.0312 Q48.9219 -5.0781 46.4609 -10.1328 Q44 -15.1875 38.6484 -18.1172 Q33.2969 -21.0469 25.4844 -21.0469 Q16.2188 -21.0469 10.5 -16.875 Q4.7812 -12.7031 4.9844 -4.2969 ZM12.25 26.8594 Q12.25 16.6562 16.3047 11.9688 Q20.3594 7.2812 26.4688 7.2812 Q32.5156 7.2812 36.6172 11.9453 Q40.7188 16.6094 40.7188 26.5625 Q40.7188 36.0781 36.5 40.9141 Q32.2812 45.75 26.3125 45.75 Q20.4531 45.75 16.3516 40.9922 Q12.25 36.2344 12.25 26.8594 Z"
        /><glyph unicode="a" horiz-adv-x="55.615234" d="M40.4375 6.3906 Q35.5469 2.25 31.0312 0.5391 Q26.5156 -1.1719 21.3438 -1.1719 Q12.7969 -1.1719 8.2031 3 Q3.6094 7.1719 3.6094 13.6719 Q3.6094 17.4844 5.3438 20.6328 Q7.0781 23.7812 9.8906 25.6875 Q12.7031 27.5938 16.2188 28.5625 Q18.7969 29.25 24.0312 29.8906 Q34.6719 31.1562 39.7031 32.9062 Q39.75 34.7188 39.75 35.2031 Q39.75 40.5781 37.25 42.7812 Q33.8906 45.75 27.25 45.75 Q21.0469 45.75 18.0938 43.5781 Q15.1406 41.4062 13.7188 35.8906 L5.125 37.0625 Q6.2969 42.5781 8.9844 45.9688 Q11.6719 49.3594 16.75 51.1953 Q21.8281 53.0312 28.5156 53.0312 Q35.1562 53.0312 39.3047 51.4688 Q43.4531 49.9062 45.4062 47.5391 Q47.3594 45.1719 48.1406 41.5469 Q48.5781 39.3125 48.5781 33.4531 L48.5781 21.7344 Q48.5781 9.4688 49.1406 6.2266 Q49.7031 2.9844 51.375 0 L42.1875 0 Q40.8281 2.7344 40.4375 6.3906 ZM39.7031 26.0312 Q34.9062 24.0781 25.3438 22.7031 Q19.9219 21.9219 17.6797 20.9453 Q15.4375 19.9688 14.2109 18.0938 Q12.9844 16.2188 12.9844 13.9219 Q12.9844 10.4062 15.6484 8.0625 Q18.3125 5.7188 23.4375 5.7188 Q28.5156 5.7188 32.4688 7.9375 Q36.4219 10.1562 38.2812 14.0156 Q39.7031 17 39.7031 22.7969 L39.7031 26.0312 Z"
        /><glyph unicode="R" horiz-adv-x="72.2168" d="M7.8594 0 L7.8594 71.5781 L39.5938 71.5781 Q49.1719 71.5781 54.1484 69.6484 Q59.125 67.7188 62.1094 62.8359 Q65.0938 57.9531 65.0938 52.0469 Q65.0938 44.4375 60.1562 39.2109 Q55.2188 33.9844 44.9219 32.5625 Q48.6875 30.7656 50.6406 29 Q54.7812 25.2031 58.5 19.4844 L70.9531 0 L59.0312 0 L49.5625 14.8906 Q45.4062 21.3438 42.7266 24.7578 Q40.0469 28.1719 37.9219 29.5391 Q35.7969 30.9062 33.5938 31.4531 Q31.9844 31.7812 28.3281 31.7812 L17.3281 31.7812 L17.3281 0 L7.8594 0 ZM17.3281 39.9844 L37.7031 39.9844 Q44.1875 39.9844 47.8516 41.3281 Q51.5156 42.6719 53.4219 45.625 Q55.3281 48.5781 55.3281 52.0469 Q55.3281 57.125 51.6406 60.3984 Q47.9531 63.6719 39.9844 63.6719 L17.3281 63.6719 L17.3281 39.9844 Z"
        /><glyph unicode=" " horiz-adv-x="27.783203" d=""
        /><glyph unicode="t" horiz-adv-x="27.783203" d="M25.7812 7.8594 L27.0469 0.0938 Q23.3438 -0.6875 20.4062 -0.6875 Q15.625 -0.6875 12.9922 0.8281 Q10.3594 2.3438 9.2812 4.8125 Q8.2031 7.2812 8.2031 15.1875 L8.2031 45.0156 L1.7656 45.0156 L1.7656 51.8594 L8.2031 51.8594 L8.2031 64.7031 L16.9375 69.9688 L16.9375 51.8594 L25.7812 51.8594 L25.7812 45.0156 L16.9375 45.0156 L16.9375 14.7031 Q16.9375 10.9375 17.4062 9.8672 Q17.875 8.7969 18.9219 8.1562 Q19.9688 7.5156 21.9219 7.5156 Q23.3906 7.5156 25.7812 7.8594 Z"
        /><glyph unicode="u" horiz-adv-x="55.615234" d="M40.5781 0 L40.5781 7.625 Q34.5156 -1.1719 24.125 -1.1719 Q19.5312 -1.1719 15.5547 0.5859 Q11.5781 2.3438 9.6484 5.0078 Q7.7188 7.6719 6.9375 11.5312 Q6.3906 14.1094 6.3906 19.7344 L6.3906 51.8594 L15.1875 51.8594 L15.1875 23.0938 Q15.1875 16.2188 15.7188 13.8125 Q16.5469 10.3594 19.2344 8.375 Q21.9219 6.3906 25.875 6.3906 Q29.8281 6.3906 33.2969 8.4219 Q36.7656 10.4531 38.2109 13.9453 Q39.6562 17.4375 39.6562 24.0781 L39.6562 51.8594 L48.4375 51.8594 L48.4375 0 L40.5781 0 Z"
        /><glyph unicode="p" horiz-adv-x="55.615234" d="M6.5938 -19.875 L6.5938 51.8594 L14.5938 51.8594 L14.5938 45.125 Q17.4375 49.0781 21 51.0547 Q24.5625 53.0312 29.6406 53.0312 Q36.2812 53.0312 41.3594 49.6094 Q46.4375 46.1875 49.0234 39.9609 Q51.6094 33.7344 51.6094 26.3125 Q51.6094 18.3594 48.7578 11.9844 Q45.9062 5.6094 40.4609 2.2188 Q35.0156 -1.1719 29 -1.1719 Q24.6094 -1.1719 21.1172 0.6875 Q17.625 2.5469 15.375 5.375 L15.375 -19.875 L6.5938 -19.875 ZM14.5469 25.6406 Q14.5469 15.625 18.6016 10.8438 Q22.6562 6.0625 28.4219 6.0625 Q34.2812 6.0625 38.4531 11.0156 Q42.625 15.9688 42.625 26.375 Q42.625 36.2812 38.5469 41.2109 Q34.4688 46.1406 28.8125 46.1406 Q23.1875 46.1406 18.8672 40.8906 Q14.5469 35.6406 14.5469 25.6406 Z"
        /><glyph unicode="n" horiz-adv-x="55.615234" d="M6.5938 0 L6.5938 51.8594 L14.5 51.8594 L14.5 44.4844 Q20.2188 53.0312 31 53.0312 Q35.6875 53.0312 39.625 51.3438 Q43.5625 49.6562 45.5156 46.9219 Q47.4688 44.1875 48.25 40.4375 Q48.7344 37.9844 48.7344 31.8906 L48.7344 0 L39.9375 0 L39.9375 31.5469 Q39.9375 36.9219 38.9141 39.5781 Q37.8906 42.2344 35.2812 43.8203 Q32.6719 45.4062 29.1562 45.4062 Q23.5312 45.4062 19.4531 41.8438 Q15.375 38.2812 15.375 28.3281 L15.375 0 L6.5938 0 Z"
        /><glyph unicode="I" horiz-adv-x="27.783203" d="M9.3281 0 L9.3281 71.5781 L18.7969 71.5781 L18.7969 0 L9.3281 0 Z"
        /><glyph unicode="i" horiz-adv-x="22.216797" d="M6.6406 61.4688 L6.6406 71.5781 L15.4375 71.5781 L15.4375 61.4688 L6.6406 61.4688 ZM6.6406 0 L6.6406 51.8594 L15.4375 51.8594 L15.4375 0 L6.6406 0 Z"
        /><glyph unicode="d" horiz-adv-x="55.615234" d="M40.2344 0 L40.2344 6.5469 Q35.2969 -1.1719 25.7344 -1.1719 Q19.5312 -1.1719 14.3281 2.25 Q9.125 5.6719 6.2734 11.7969 Q3.4219 17.9219 3.4219 25.875 Q3.4219 33.6406 6.0078 39.9688 Q8.5938 46.2969 13.7734 49.6641 Q18.9531 53.0312 25.3438 53.0312 Q30.0312 53.0312 33.6953 51.0547 Q37.3594 49.0781 39.6562 45.9062 L39.6562 71.5781 L48.3906 71.5781 L48.3906 0 L40.2344 0 ZM12.4531 25.875 Q12.4531 15.9219 16.6484 10.9922 Q20.8438 6.0625 26.5625 6.0625 Q32.3281 6.0625 36.3516 10.7734 Q40.375 15.4844 40.375 25.1406 Q40.375 35.7969 36.2734 40.7734 Q32.1719 45.75 26.1719 45.75 Q20.3125 45.75 16.3828 40.9688 Q12.4531 36.1875 12.4531 25.875 Z"
        /><glyph unicode="r" horiz-adv-x="33.30078" d="M6.5 0 L6.5 51.8594 L14.4062 51.8594 L14.4062 44 Q17.4375 49.5156 20 51.2734 Q22.5625 53.0312 25.6406 53.0312 Q30.0781 53.0312 34.6719 50.2031 L31.6406 42.0469 Q28.4219 43.9531 25.2031 43.9531 Q22.3125 43.9531 20.0156 42.2188 Q17.7188 40.4844 16.75 37.4062 Q15.2812 32.7188 15.2812 27.1562 L15.2812 0 L6.5 0 Z"
        /><glyph unicode="o" horiz-adv-x="55.615234" d="M3.3281 25.9219 Q3.3281 40.3281 11.3281 47.2656 Q18.0156 53.0312 27.6406 53.0312 Q38.3281 53.0312 45.1172 46.0234 Q51.9062 39.0156 51.9062 26.6562 Q51.9062 16.6562 48.9062 10.9141 Q45.9062 5.1719 40.1641 2 Q34.4219 -1.1719 27.6406 -1.1719 Q16.75 -1.1719 10.0391 5.8125 Q3.3281 12.7969 3.3281 25.9219 ZM12.3594 25.9219 Q12.3594 15.9688 16.7031 11.0156 Q21.0469 6.0625 27.6406 6.0625 Q34.1875 6.0625 38.5312 11.0391 Q42.875 16.0156 42.875 26.2188 Q42.875 35.8438 38.5 40.7969 Q34.125 45.75 27.6406 45.75 Q21.0469 45.75 16.7031 40.8203 Q12.3594 35.8906 12.3594 25.9219 Z"
        /><glyph unicode="B" horiz-adv-x="66.69922" d="M7.3281 0 L7.3281 71.5781 L34.1875 71.5781 Q42.3906 71.5781 47.3438 69.4062 Q52.2969 67.2344 55.1016 62.7188 Q57.9062 58.2031 57.9062 53.2656 Q57.9062 48.6875 55.4219 44.6328 Q52.9375 40.5781 47.9062 38.0938 Q54.3906 36.1875 57.8828 31.5938 Q61.375 27 61.375 20.75 Q61.375 15.7188 59.25 11.3984 Q57.125 7.0781 54 4.7344 Q50.875 2.3906 46.1641 1.1953 Q41.4531 0 34.625 0 L7.3281 0 ZM16.7969 41.5 L32.2812 41.5 Q38.5781 41.5 41.3125 42.3281 Q44.9219 43.4062 46.75 45.8984 Q48.5781 48.3906 48.5781 52.1562 Q48.5781 55.7188 46.875 58.4297 Q45.1719 61.1406 41.9922 62.1406 Q38.8125 63.1406 31.1094 63.1406 L16.7969 63.1406 L16.7969 41.5 ZM16.7969 8.4531 L34.625 8.4531 Q39.2031 8.4531 41.0625 8.7969 Q44.3438 9.375 46.5391 10.7422 Q48.7344 12.1094 50.1484 14.7188 Q51.5625 17.3281 51.5625 20.75 Q51.5625 24.75 49.5156 27.7109 Q47.4688 30.6719 43.8281 31.8672 Q40.1875 33.0625 33.3438 33.0625 L16.7969 33.0625 L16.7969 8.4531 Z"
        /><glyph unicode="S" horiz-adv-x="66.69922" d="M4.5 23 L13.4219 23.7812 Q14.0625 18.4062 16.3828 14.9688 Q18.7031 11.5312 23.5859 9.4062 Q28.4688 7.2812 34.5781 7.2812 Q39.9844 7.2812 44.1406 8.8906 Q48.2969 10.5 50.3203 13.3047 Q52.3438 16.1094 52.3438 19.4375 Q52.3438 22.7969 50.3906 25.3125 Q48.4375 27.8281 43.9531 29.5469 Q41.0625 30.6719 31.2031 33.0391 Q21.3438 35.4062 17.3906 37.5 Q12.25 40.1875 9.7422 44.1641 Q7.2344 48.1406 7.2344 53.0781 Q7.2344 58.5 10.3047 63.2109 Q13.375 67.9219 19.2891 70.3594 Q25.2031 72.7969 32.4219 72.7969 Q40.375 72.7969 46.4609 70.2344 Q52.5469 67.6719 55.8125 62.6953 Q59.0781 57.7188 59.3281 51.4219 L50.25 50.7344 Q49.5156 57.5156 45.2891 60.9844 Q41.0625 64.4531 32.8125 64.4531 Q24.2188 64.4531 20.2891 61.3047 Q16.3594 58.1562 16.3594 53.7188 Q16.3594 49.8594 19.1406 47.3594 Q21.875 44.875 33.4219 42.2656 Q44.9688 39.6562 49.2656 37.7031 Q55.5156 34.8125 58.4922 30.3984 Q61.4688 25.9844 61.4688 20.2188 Q61.4688 14.5 58.2031 9.4453 Q54.9375 4.3906 48.8047 1.5859 Q42.6719 -1.2188 35.0156 -1.2188 Q25.2969 -1.2188 18.7266 1.6094 Q12.1562 4.4375 8.4219 10.1328 Q4.6875 15.8281 4.5 23 Z"
        /><glyph unicode="b" horiz-adv-x="55.615234" d="M14.7031 0 L6.5469 0 L6.5469 71.5781 L15.3281 71.5781 L15.3281 46.0469 Q20.9062 53.0312 29.5469 53.0312 Q34.3281 53.0312 38.6016 51.1016 Q42.875 49.1719 45.6328 45.6797 Q48.3906 42.1875 49.9531 37.2578 Q51.5156 32.3281 51.5156 26.7031 Q51.5156 13.375 44.9219 6.1016 Q38.3281 -1.1719 29.1094 -1.1719 Q19.9219 -1.1719 14.7031 6.5 L14.7031 0 ZM14.5938 26.3125 Q14.5938 17 17.1406 12.8438 Q21.2969 6.0625 28.375 6.0625 Q34.125 6.0625 38.3281 11.0625 Q42.5312 16.0625 42.5312 25.9844 Q42.5312 36.1406 38.5 40.9688 Q34.4688 45.7969 28.7656 45.7969 Q23 45.7969 18.7969 40.7969 Q14.5938 35.7969 14.5938 26.3125 Z"
        /><glyph unicode="N" horiz-adv-x="72.2168" d="M7.625 0 L7.625 71.5781 L17.3281 71.5781 L54.9375 15.375 L54.9375 71.5781 L64.0156 71.5781 L64.0156 0 L54.2969 0 L16.7031 56.25 L16.7031 0 L7.625 0 Z"
        /><glyph unicode="s" horiz-adv-x="50.0" d="M3.0781 15.4844 L11.7656 16.8438 Q12.5 11.625 15.8438 8.8438 Q19.1875 6.0625 25.2031 6.0625 Q31.25 6.0625 34.1797 8.5234 Q37.1094 10.9844 37.1094 14.3125 Q37.1094 17.2812 34.5156 19 Q32.7188 20.1719 25.5312 21.9688 Q15.875 24.4219 12.1406 26.2031 Q8.4062 27.9844 6.4766 31.1328 Q4.5469 34.2812 4.5469 38.0938 Q4.5469 41.5469 6.1328 44.5078 Q7.7188 47.4688 10.4531 49.4219 Q12.5 50.9219 16.0391 51.9766 Q19.5781 53.0312 23.6406 53.0312 Q29.7344 53.0312 34.3516 51.2734 Q38.9688 49.5156 41.1641 46.5078 Q43.3594 43.5 44.1875 38.4844 L35.5938 37.3125 Q35.0156 41.3125 32.2031 43.5547 Q29.3906 45.7969 24.2656 45.7969 Q18.2188 45.7969 15.625 43.7969 Q13.0312 41.7969 13.0312 39.1094 Q13.0312 37.4062 14.1094 36.0312 Q15.1875 34.625 17.4844 33.6875 Q18.7969 33.2031 25.25 31.4531 Q34.5781 28.9531 38.2578 27.3672 Q41.9375 25.7812 44.0391 22.7578 Q46.1406 19.7344 46.1406 15.2344 Q46.1406 10.8438 43.5781 6.9609 Q41.0156 3.0781 36.1797 0.9531 Q31.3438 -1.1719 25.25 -1.1719 Q15.1406 -1.1719 9.8438 3.0312 Q4.5469 7.2344 3.0781 15.4844 Z"
        /><glyph unicode="_" horiz-adv-x="55.615234" d="M-1.5156 -19.875 L-1.5156 -13.5312 L56.7344 -13.5312 L56.7344 -19.875 L-1.5156 -19.875 Z"
        /><glyph unicode="c" horiz-adv-x="50.0" d="M40.4375 19 L49.0781 17.875 Q47.6562 8.9375 41.8203 3.8828 Q35.9844 -1.1719 27.4844 -1.1719 Q16.8438 -1.1719 10.375 5.7891 Q3.9062 12.75 3.9062 25.7344 Q3.9062 34.125 6.6875 40.4297 Q9.4688 46.7344 15.1562 49.8828 Q20.8438 53.0312 27.5469 53.0312 Q35.9844 53.0312 41.3594 48.7578 Q46.7344 44.4844 48.25 36.625 L39.7031 35.2969 Q38.4844 40.5312 35.3828 43.1641 Q32.2812 45.7969 27.875 45.7969 Q21.2344 45.7969 17.0859 41.0391 Q12.9375 36.2812 12.9375 25.9844 Q12.9375 15.5312 16.9453 10.7969 Q20.9531 6.0625 27.3906 6.0625 Q32.5625 6.0625 36.0312 9.2344 Q39.5 12.4062 40.4375 19 Z"
        /><glyph unicode="T" horiz-adv-x="61.083984" d="M25.9219 0 L25.9219 63.1406 L2.3438 63.1406 L2.3438 71.5781 L59.0781 71.5781 L59.0781 63.1406 L35.4062 63.1406 L35.4062 0 L25.9219 0 Z"
      /></font
      ><font horiz-adv-x="75.0" id="font2"
      ><font-face ascent="100.53711" descent="21.972656" units-per-em="100" style="font-style:normal; font-family:SansSerif; font-weight:bold;"
        /><missing-glyph horiz-adv-x="75.0" d="M12.5 0 L12.5 62.5 L62.5 62.5 L62.5 0 L12.5 0 ZM14.0625 1.5625 L60.9375 1.5625 L60.9375 60.9375 L14.0625 60.9375 L14.0625 1.5625 Z"
        /><glyph unicode="x" horiz-adv-x="55.615234" d="M0.5938 0 L19.2812 26.7031 L1.375 51.8594 L18.1094 51.8594 L27.2969 37.5938 L36.9688 51.8594 L53.0781 51.8594 L35.5 27.2969 L54.6875 0 L37.8438 0 L27.2969 16.0625 L16.6562 0 L0.5938 0 Z"
        /><glyph unicode="p" horiz-adv-x="61.083984" d="M6.7812 51.8594 L19.5781 51.8594 L19.5781 44.2344 Q22.0781 48.1406 26.3203 50.5859 Q30.5625 53.0312 35.75 53.0312 Q44.7812 53.0312 51.0781 45.9531 Q57.375 38.875 57.375 26.2188 Q57.375 13.2344 51.0234 6.0312 Q44.6719 -1.1719 35.6406 -1.1719 Q31.3438 -1.1719 27.8516 0.5391 Q24.3594 2.25 20.5156 6.3906 L20.5156 -19.7344 L6.7812 -19.7344 L6.7812 51.8594 ZM20.3594 26.8125 Q20.3594 18.0625 23.8281 13.8906 Q27.2969 9.7188 32.2812 9.7188 Q37.0625 9.7188 40.2344 13.5547 Q43.4062 17.3906 43.4062 26.125 Q43.4062 34.2812 40.1328 38.2344 Q36.8594 42.1875 32.0312 42.1875 Q27 42.1875 23.6797 38.3047 Q20.3594 34.4219 20.3594 26.8125 Z"
        /><glyph unicode="a" horiz-adv-x="55.615234" d="M17.4375 36.0312 L4.9844 38.2812 Q7.0781 45.7969 12.2031 49.4141 Q17.3281 53.0312 27.4375 53.0312 Q36.625 53.0312 41.1172 50.8594 Q45.6094 48.6875 47.4375 45.3438 Q49.2656 42 49.2656 33.0625 L49.125 17.0469 Q49.125 10.2031 49.7812 6.9609 Q50.4375 3.7188 52.25 0 L38.6719 0 Q38.1406 1.375 37.3594 4.0469 Q37.0156 5.2812 36.8594 5.6719 Q33.3438 2.25 29.3438 0.5391 Q25.3438 -1.1719 20.7969 -1.1719 Q12.7969 -1.1719 8.1797 3.1719 Q3.5625 7.5156 3.5625 14.1562 Q3.5625 18.5625 5.6641 22 Q7.7656 25.4375 11.5469 27.2734 Q15.3281 29.1094 22.4688 30.4688 Q32.0781 32.2812 35.7969 33.8438 L35.7969 35.2031 Q35.7969 39.1562 33.8438 40.8438 Q31.8906 42.5312 26.4688 42.5312 Q22.7969 42.5312 20.75 41.0938 Q18.7031 39.6562 17.4375 36.0312 ZM35.7969 24.9062 Q33.1562 24.0312 27.4453 22.8047 Q21.7344 21.5781 19.9688 20.4062 Q17.2812 18.5 17.2812 15.5781 Q17.2812 12.7031 19.4297 10.6016 Q21.5781 8.5 24.9062 8.5 Q28.6094 8.5 31.9844 10.9375 Q34.4688 12.7969 35.25 15.4844 Q35.7969 17.2344 35.7969 22.1719 L35.7969 24.9062 Z"
        /><glyph unicode=" " horiz-adv-x="27.783203" d=""
        /><glyph unicode="i" horiz-adv-x="27.783203" d="M7.1719 58.8906 L7.1719 71.5781 L20.9062 71.5781 L20.9062 58.8906 L7.1719 58.8906 ZM7.1719 0 L7.1719 51.8594 L20.9062 51.8594 L20.9062 0 L7.1719 0 Z"
        /><glyph unicode="d" horiz-adv-x="61.083984" d="M54.7344 0 L42 0 L42 7.625 Q38.8125 3.1719 34.4922 1 Q30.1719 -1.1719 25.7812 -1.1719 Q16.8438 -1.1719 10.4766 6.0312 Q4.1094 13.2344 4.1094 26.125 Q4.1094 39.3125 10.3047 46.1719 Q16.5 53.0312 25.9844 53.0312 Q34.6719 53.0312 41.0156 45.7969 L41.0156 71.5781 L54.7344 71.5781 L54.7344 0 ZM18.1094 27.0469 Q18.1094 18.75 20.4062 15.0469 Q23.7344 9.6719 29.6875 9.6719 Q34.4219 9.6719 37.7422 13.6953 Q41.0625 17.7188 41.0625 25.7344 Q41.0625 34.6719 37.8438 38.6016 Q34.625 42.5312 29.5938 42.5312 Q24.7031 42.5312 21.4062 38.6484 Q18.1094 34.7656 18.1094 27.0469 Z"
        /><glyph unicode="r" horiz-adv-x="38.916016" d="M20.3125 0 L6.5938 0 L6.5938 51.8594 L19.3438 51.8594 L19.3438 44.4844 Q22.6094 49.7031 25.2188 51.3672 Q27.8281 53.0312 31.1562 53.0312 Q35.8438 53.0312 40.1875 50.4375 L35.9375 38.4844 Q32.4688 40.7188 29.5 40.7188 Q26.6094 40.7188 24.6094 39.1328 Q22.6094 37.5469 21.4609 33.3984 Q20.3125 29.25 20.3125 16.0156 L20.3125 0 Z"
        /><glyph unicode="o" horiz-adv-x="61.083984" d="M4 26.6562 Q4 33.5 7.375 39.8984 Q10.75 46.2969 16.9219 49.6641 Q23.0938 53.0312 30.7188 53.0312 Q42.4844 53.0312 50 45.3906 Q57.5156 37.75 57.5156 26.0781 Q57.5156 14.3125 49.9219 6.5703 Q42.3281 -1.1719 30.8125 -1.1719 Q23.6875 -1.1719 17.2188 2.0547 Q10.75 5.2812 7.375 11.5 Q4 17.7188 4 26.6562 ZM18.0625 25.9219 Q18.0625 18.2188 21.7266 14.1172 Q25.3906 10.0156 30.7656 10.0156 Q36.1406 10.0156 39.7734 14.1172 Q43.4062 18.2188 43.4062 26.0312 Q43.4062 33.6406 39.7734 37.7422 Q36.1406 41.8438 30.7656 41.8438 Q25.3906 41.8438 21.7266 37.7422 Q18.0625 33.6406 18.0625 25.9219 Z"
        /><glyph unicode="B" horiz-adv-x="72.2168" d="M7.3281 71.5781 L35.9375 71.5781 Q44.4375 71.5781 48.6094 70.875 Q52.7812 70.1719 56.0781 67.9219 Q59.375 65.6719 61.5703 61.9375 Q63.7656 58.2031 63.7656 53.5625 Q63.7656 48.5312 61.0547 44.3359 Q58.3438 40.1406 53.7188 38.0312 Q60.25 36.1406 63.7656 31.5469 Q67.2812 26.9531 67.2812 20.75 Q67.2812 15.875 65.0156 11.2578 Q62.75 6.6406 58.8203 3.8828 Q54.8906 1.125 49.125 0.4844 Q45.5156 0.0938 31.6875 0 L7.3281 0 L7.3281 71.5781 ZM21.7812 59.6719 L21.7812 43.1094 L31.25 43.1094 Q39.7031 43.1094 41.75 43.3594 Q45.4531 43.7969 47.5781 45.9219 Q49.7031 48.0469 49.7031 51.5156 Q49.7031 54.8281 47.875 56.9062 Q46.0469 58.9844 42.4375 59.4219 Q40.2812 59.6719 30.0781 59.6719 L21.7812 59.6719 ZM21.7812 31.2031 L21.7812 12.0625 L35.1562 12.0625 Q42.9688 12.0625 45.0625 12.5 Q48.2969 13.0938 50.3203 15.3594 Q52.3438 17.625 52.3438 21.4375 Q52.3438 24.6562 50.7812 26.9062 Q49.2188 29.1562 46.2656 30.1797 Q43.3125 31.2031 33.4531 31.2031 L21.7812 31.2031 Z"
        /><glyph unicode="n" horiz-adv-x="61.083984" d="M54.3438 0 L40.625 0 L40.625 26.4688 Q40.625 34.8594 39.75 37.3281 Q38.875 39.7969 36.8906 41.1641 Q34.9062 42.5312 32.125 42.5312 Q28.5625 42.5312 25.7344 40.5781 Q22.9062 38.625 21.8516 35.3984 Q20.7969 32.1719 20.7969 23.4844 L20.7969 0 L7.0781 0 L7.0781 51.8594 L19.8281 51.8594 L19.8281 44.2344 Q26.6094 53.0312 36.9219 53.0312 Q41.4531 53.0312 45.2109 51.3906 Q48.9688 49.75 50.8984 47.2109 Q52.8281 44.6719 53.5859 41.4531 Q54.3438 38.2344 54.3438 32.2344 L54.3438 0 Z"
        /><glyph unicode="S" horiz-adv-x="66.69922" d="M3.6094 23.2969 L17.6719 24.6562 Q18.9531 17.5781 22.8281 14.2578 Q26.7031 10.9375 33.2969 10.9375 Q40.2812 10.9375 43.8203 13.8906 Q47.3594 16.8438 47.3594 20.7969 Q47.3594 23.3438 45.875 25.125 Q44.3906 26.9062 40.6719 28.2188 Q38.1406 29.1094 29.1094 31.3438 Q17.4844 34.2344 12.7969 38.4219 Q6.2031 44.3438 6.2031 52.8281 Q6.2031 58.2969 9.3047 63.0625 Q12.4062 67.8281 18.2422 70.3125 Q24.0781 72.7969 32.3281 72.7969 Q45.7969 72.7969 52.6094 66.8906 Q59.4219 60.9844 59.7656 51.125 L45.3125 50.4844 Q44.3906 56 41.3359 58.4219 Q38.2812 60.8438 32.1719 60.8438 Q25.875 60.8438 22.3125 58.25 Q20.0156 56.5938 20.0156 53.8125 Q20.0156 51.2656 22.1719 49.4688 Q24.9062 47.1719 35.4531 44.6797 Q46 42.1875 51.0547 39.5234 Q56.1094 36.8594 58.9609 32.25 Q61.8125 27.6406 61.8125 20.8438 Q61.8125 14.7031 58.3984 9.3281 Q54.9844 3.9531 48.7344 1.3438 Q42.4844 -1.2656 33.1562 -1.2656 Q19.5781 -1.2656 12.3047 5.0078 Q5.0312 11.2812 3.6094 23.2969 Z"
        /><glyph unicode="3" horiz-adv-x="55.615234" d="M3.7656 19 L17.0469 20.6094 Q17.6719 15.5312 20.4609 12.8438 Q23.25 10.1562 27.2031 10.1562 Q31.4531 10.1562 34.3516 13.3828 Q37.25 16.6094 37.25 22.0781 Q37.25 27.25 34.4688 30.2734 Q31.6875 33.2969 27.6875 33.2969 Q25.0469 33.2969 21.3906 32.2812 L22.9062 43.4531 Q28.4688 43.3125 31.3984 45.875 Q34.3281 48.4375 34.3281 52.6875 Q34.3281 56.2969 32.1797 58.4453 Q30.0312 60.5938 26.4688 60.5938 Q22.9531 60.5938 20.4609 58.1562 Q17.9688 55.7188 17.4375 51.0312 L4.7812 53.1719 Q6.1094 59.6719 8.7656 63.5547 Q11.4219 67.4375 16.1875 69.6562 Q20.9531 71.875 26.8594 71.875 Q36.9688 71.875 43.0625 65.4375 Q48.0938 60.1562 48.0938 53.5156 Q48.0938 44.0938 37.7969 38.4844 Q43.9531 37.1562 47.6328 32.5703 Q51.3125 27.9844 51.3125 21.4844 Q51.3125 12.0625 44.4297 5.4219 Q37.5469 -1.2188 27.2969 -1.2188 Q17.5781 -1.2188 11.1797 4.375 Q4.7812 9.9688 3.7656 19 Z"
        /><glyph unicode="b" horiz-adv-x="61.083984" d="M6.5938 0 L6.5938 71.5781 L20.3125 71.5781 L20.3125 45.7969 Q26.6562 53.0312 35.3594 53.0312 Q44.8281 53.0312 51.0312 46.1719 Q57.2344 39.3125 57.2344 26.4688 Q57.2344 13.1875 50.9062 6.0078 Q44.5781 -1.1719 35.5469 -1.1719 Q31.1094 -1.1719 26.7891 1.0469 Q22.4688 3.2656 19.3438 7.625 L19.3438 0 L6.5938 0 ZM20.2188 27.0469 Q20.2188 19 22.75 15.1406 Q26.3125 9.6719 32.2344 9.6719 Q36.7656 9.6719 39.9688 13.5547 Q43.1719 17.4375 43.1719 25.7812 Q43.1719 34.6719 39.9453 38.6016 Q36.7188 42.5312 31.6875 42.5312 Q26.7656 42.5312 23.4922 38.6953 Q20.2188 34.8594 20.2188 27.0469 Z"
        /><glyph unicode="N" horiz-adv-x="72.2168" d="M7.4219 0 L7.4219 71.5781 L21.4844 71.5781 L50.7812 23.7812 L50.7812 71.5781 L64.2031 71.5781 L64.2031 0 L49.7031 0 L20.8438 46.6875 L20.8438 0 L7.4219 0 Z"
        /><glyph unicode="s" horiz-adv-x="55.615234" d="M2.3438 14.7969 L16.1094 16.8906 Q17 12.8906 19.6797 10.8125 Q22.3594 8.7344 27.2031 8.7344 Q32.5156 8.7344 35.2031 10.6875 Q37.0156 12.0625 37.0156 14.3594 Q37.0156 15.9219 36.0312 16.9375 Q35.0156 17.9219 31.4531 18.75 Q14.8438 22.4062 10.4062 25.4375 Q4.25 29.6406 4.25 37.1094 Q4.25 43.8438 9.5703 48.4375 Q14.8906 53.0312 26.0781 53.0312 Q36.7188 53.0312 41.8984 49.5625 Q47.0781 46.0938 49.0312 39.3125 L36.0781 36.9219 Q35.25 39.9375 32.9297 41.5547 Q30.6094 43.1719 26.3125 43.1719 Q20.9062 43.1719 18.5625 41.6562 Q17 40.5781 17 38.875 Q17 37.4062 18.3594 36.375 Q20.2188 35.0156 31.1797 32.5234 Q42.1406 30.0312 46.4844 26.4219 Q50.7812 22.75 50.7812 16.2188 Q50.7812 9.0781 44.8281 3.9531 Q38.875 -1.1719 27.2031 -1.1719 Q16.6094 -1.1719 10.4297 3.125 Q4.25 7.4219 2.3438 14.7969 Z"
        /><glyph unicode="_" horiz-adv-x="55.615234" d="M-0.9219 -19.7812 L-0.9219 -10.8906 L56.1094 -10.8906 L56.1094 -19.7812 L-0.9219 -19.7812 Z"
        /><glyph unicode="c" horiz-adv-x="55.615234" d="M52.3906 36.5312 L38.875 34.0781 Q38.1875 38.1406 35.7656 40.1875 Q33.3438 42.2344 29.5 42.2344 Q24.3594 42.2344 21.3125 38.6953 Q18.2656 35.1562 18.2656 26.8594 Q18.2656 17.625 21.3672 13.8203 Q24.4688 10.0156 29.6875 10.0156 Q33.5938 10.0156 36.0859 12.2344 Q38.5781 14.4531 39.5938 19.875 L53.0781 17.5781 Q50.9844 8.2969 45.0234 3.5625 Q39.0625 -1.1719 29.0469 -1.1719 Q17.6719 -1.1719 10.9141 6.0078 Q4.1562 13.1875 4.1562 25.875 Q4.1562 38.7188 10.9375 45.875 Q17.7188 53.0312 29.2969 53.0312 Q38.7656 53.0312 44.3594 48.9531 Q49.9531 44.875 52.3906 36.5312 Z"
        /><glyph unicode="T" horiz-adv-x="61.083984" d="M23.3906 0 L23.3906 59.4688 L2.1562 59.4688 L2.1562 71.5781 L59.0312 71.5781 L59.0312 59.4688 L37.8438 59.4688 L37.8438 0 L23.3906 0 Z"
      /></font
    ></defs
    ><g style="fill:white; stroke:white;"
    ><rect x="0" y="0" width="700" style="clip-path:url(#clipPath1); stroke:none;" height="525"
    /></g
    ><g style="fill:white; text-rendering:optimizeSpeed; color-rendering:optimizeSpeed; image-rendering:optimizeSpeed; shape-rendering:crispEdges; stroke:white; color-interpolation:sRGB;"
    ><rect x="0" width="700" height="525" y="0" style="stroke:none;"
      /><path style="stroke:none;" d="M91 467 L634 467 L634 39 L91 39 Z"
    /></g
    ><g style="stroke-linecap:butt; fill-opacity:0.149; fill:rgb(38,38,38); text-rendering:geometricPrecision; image-rendering:optimizeQuality; color-rendering:optimizeQuality; stroke-linejoin:round; stroke:rgb(38,38,38); color-interpolation:linearRGB; stroke-width:0.8333; stroke-opacity:0.149;"
    ><line y2="39" style="fill:none;" x1="91" x2="91" y1="467"
      /><line y2="39" style="fill:none;" x1="145.3" x2="145.3" y1="467"
      /><line y2="39" style="fill:none;" x1="199.6" x2="199.6" y1="467"
      /><line y2="39" style="fill:none;" x1="253.9" x2="253.9" y1="467"
      /><line y2="39" style="fill:none;" x1="308.2" x2="308.2" y1="467"
      /><line y2="39" style="fill:none;" x1="362.5" x2="362.5" y1="467"
      /><line y2="39" style="fill:none;" x1="416.8" x2="416.8" y1="467"
      /><line y2="39" style="fill:none;" x1="471.1" x2="471.1" y1="467"
      /><line y2="39" style="fill:none;" x1="525.4" x2="525.4" y1="467"
      /><line y2="39" style="fill:none;" x1="579.7" x2="579.7" y1="467"
      /><line y2="39" style="fill:none;" x1="634" x2="634" y1="467"
      /><line y2="467" style="fill:none;" x1="634" x2="91" y1="467"
      /><line y2="424.2" style="fill:none;" x1="634" x2="91" y1="424.2"
      /><line y2="381.4" style="fill:none;" x1="634" x2="91" y1="381.4"
      /><line y2="338.6" style="fill:none;" x1="634" x2="91" y1="338.6"
      /><line y2="295.8" style="fill:none;" x1="634" x2="91" y1="295.8"
      /><line y2="253" style="fill:none;" x1="634" x2="91" y1="253"
      /><line y2="210.2" style="fill:none;" x1="634" x2="91" y1="210.2"
      /><line y2="167.4" style="fill:none;" x1="634" x2="91" y1="167.4"
      /><line y2="124.6" style="fill:none;" x1="634" x2="91" y1="124.6"
      /><line y2="81.8" style="fill:none;" x1="634" x2="91" y1="81.8"
      /><line y2="39" style="fill:none;" x1="634" x2="91" y1="39"
      /><line x1="91" x2="634" y1="467" style="stroke-linecap:square; fill-opacity:1; fill:none; stroke-opacity:1;" y2="467"
      /><line x1="91" x2="634" y1="39" style="stroke-linecap:square; fill-opacity:1; fill:none; stroke-opacity:1;" y2="39"
      /><line x1="91" x2="91" y1="467" style="stroke-linecap:square; fill-opacity:1; fill:none; stroke-opacity:1;" y2="461.57"
      /><line x1="145.3" x2="145.3" y1="467" style="stroke-linecap:square; fill-opacity:1; fill:none; stroke-opacity:1;" y2="461.57"
      /><line x1="199.6" x2="199.6" y1="467" style="stroke-linecap:square; fill-opacity:1; fill:none; stroke-opacity:1;" y2="461.57"
      /><line x1="253.9" x2="253.9" y1="467" style="stroke-linecap:square; fill-opacity:1; fill:none; stroke-opacity:1;" y2="461.57"
      /><line x1="308.2" x2="308.2" y1="467" style="stroke-linecap:square; fill-opacity:1; fill:none; stroke-opacity:1;" y2="461.57"
      /><line x1="362.5" x2="362.5" y1="467" style="stroke-linecap:square; fill-opacity:1; fill:none; stroke-opacity:1;" y2="461.57"
      /><line x1="416.8" x2="416.8" y1="467" style="stroke-linecap:square; fill-opacity:1; fill:none; stroke-opacity:1;" y2="461.57"
      /><line x1="471.1" x2="471.1" y1="467" style="stroke-linecap:square; fill-opacity:1; fill:none; stroke-opacity:1;" y2="461.57"
      /><line x1="525.4" x2="525.4" y1="467" style="stroke-linecap:square; fill-opacity:1; fill:none; stroke-opacity:1;" y2="461.57"
      /><line x1="579.7" x2="579.7" y1="467" style="stroke-linecap:square; fill-opacity:1; fill:none; stroke-opacity:1;" y2="461.57"
      /><line x1="634" x2="634" y1="467" style="stroke-linecap:square; fill-opacity:1; fill:none; stroke-opacity:1;" y2="461.57"
      /><line x1="91" x2="91" y1="39" style="stroke-linecap:square; fill-opacity:1; fill:none; stroke-opacity:1;" y2="44.43"
      /><line x1="145.3" x2="145.3" y1="39" style="stroke-linecap:square; fill-opacity:1; fill:none; stroke-opacity:1;" y2="44.43"
      /><line x1="199.6" x2="199.6" y1="39" style="stroke-linecap:square; fill-opacity:1; fill:none; stroke-opacity:1;" y2="44.43"
      /><line x1="253.9" x2="253.9" y1="39" style="stroke-linecap:square; fill-opacity:1; fill:none; stroke-opacity:1;" y2="44.43"
      /><line x1="308.2" x2="308.2" y1="39" style="stroke-linecap:square; fill-opacity:1; fill:none; stroke-opacity:1;" y2="44.43"
      /><line x1="362.5" x2="362.5" y1="39" style="stroke-linecap:square; fill-opacity:1; fill:none; stroke-opacity:1;" y2="44.43"
      /><line x1="416.8" x2="416.8" y1="39" style="stroke-linecap:square; fill-opacity:1; fill:none; stroke-opacity:1;" y2="44.43"
      /><line x1="471.1" x2="471.1" y1="39" style="stroke-linecap:square; fill-opacity:1; fill:none; stroke-opacity:1;" y2="44.43"
      /><line x1="525.4" x2="525.4" y1="39" style="stroke-linecap:square; fill-opacity:1; fill:none; stroke-opacity:1;" y2="44.43"
      /><line x1="579.7" x2="579.7" y1="39" style="stroke-linecap:square; fill-opacity:1; fill:none; stroke-opacity:1;" y2="44.43"
      /><line x1="634" x2="634" y1="39" style="stroke-linecap:square; fill-opacity:1; fill:none; stroke-opacity:1;" y2="44.43"
    /></g
    ><g transform="translate(91,473.6667)" style="font-size:16.6667px; fill:rgb(38,38,38); text-rendering:geometricPrecision; image-rendering:optimizeQuality; color-rendering:optimizeQuality; font-family:'SansSerif'; stroke:rgb(38,38,38); color-interpolation:linearRGB;"
    ><text x="-5" xml:space="preserve" y="17" style="stroke:none;"
      >0</text
    ></g
    ><g transform="translate(145.3,473.6667)" style="font-size:16.6667px; fill:rgb(38,38,38); text-rendering:geometricPrecision; image-rendering:optimizeQuality; color-rendering:optimizeQuality; font-family:'SansSerif'; stroke:rgb(38,38,38); color-interpolation:linearRGB;"
    ><text x="-12" xml:space="preserve" y="17" style="stroke:none;"
      >0.1</text
    ></g
    ><g transform="translate(199.6,473.6667)" style="font-size:16.6667px; fill:rgb(38,38,38); text-rendering:geometricPrecision; image-rendering:optimizeQuality; color-rendering:optimizeQuality; font-family:'SansSerif'; stroke:rgb(38,38,38); color-interpolation:linearRGB;"
    ><text x="-12" xml:space="preserve" y="17" style="stroke:none;"
      >0.2</text
    ></g
    ><g transform="translate(253.9,473.6667)" style="font-size:16.6667px; fill:rgb(38,38,38); text-rendering:geometricPrecision; image-rendering:optimizeQuality; color-rendering:optimizeQuality; font-family:'SansSerif'; stroke:rgb(38,38,38); color-interpolation:linearRGB;"
    ><text x="-12" xml:space="preserve" y="17" style="stroke:none;"
      >0.3</text
    ></g
    ><g transform="translate(308.2,473.6667)" style="font-size:16.6667px; fill:rgb(38,38,38); text-rendering:geometricPrecision; image-rendering:optimizeQuality; color-rendering:optimizeQuality; font-family:'SansSerif'; stroke:rgb(38,38,38); color-interpolation:linearRGB;"
    ><text x="-12" xml:space="preserve" y="17" style="stroke:none;"
      >0.4</text
    ></g
    ><g transform="translate(362.5,473.6667)" style="font-size:16.6667px; fill:rgb(38,38,38); text-rendering:geometricPrecision; image-rendering:optimizeQuality; color-rendering:optimizeQuality; font-family:'SansSerif'; stroke:rgb(38,38,38); color-interpolation:linearRGB;"
    ><text x="-12" xml:space="preserve" y="17" style="stroke:none;"
      >0.5</text
    ></g
    ><g transform="translate(416.8,473.6667)" style="font-size:16.6667px; fill:rgb(38,38,38); text-rendering:geometricPrecision; image-rendering:optimizeQuality; color-rendering:optimizeQuality; font-family:'SansSerif'; stroke:rgb(38,38,38); color-interpolation:linearRGB;"
    ><text x="-12" xml:space="preserve" y="17" style="stroke:none;"
      >0.6</text
    ></g
    ><g transform="translate(471.1,473.6667)" style="font-size:16.6667px; fill:rgb(38,38,38); text-rendering:geometricPrecision; image-rendering:optimizeQuality; color-rendering:optimizeQuality; font-family:'SansSerif'; stroke:rgb(38,38,38); color-interpolation:linearRGB;"
    ><text x="-12" xml:space="preserve" y="17" style="stroke:none;"
      >0.7</text
    ></g
    ><g transform="translate(525.4,473.6667)" style="font-size:16.6667px; fill:rgb(38,38,38); text-rendering:geometricPrecision; image-rendering:optimizeQuality; color-rendering:optimizeQuality; font-family:'SansSerif'; stroke:rgb(38,38,38); color-interpolation:linearRGB;"
    ><text x="-12" xml:space="preserve" y="17" style="stroke:none;"
      >0.8</text
    ></g
    ><g transform="translate(579.7,473.6667)" style="font-size:16.6667px; fill:rgb(38,38,38); text-rendering:geometricPrecision; image-rendering:optimizeQuality; color-rendering:optimizeQuality; font-family:'SansSerif'; stroke:rgb(38,38,38); color-interpolation:linearRGB;"
    ><text x="-12" xml:space="preserve" y="17" style="stroke:none;"
      >0.9</text
    ></g
    ><g transform="translate(634,473.6667)" style="font-size:16.6667px; fill:rgb(38,38,38); text-rendering:geometricPrecision; image-rendering:optimizeQuality; color-rendering:optimizeQuality; font-family:'SansSerif'; stroke:rgb(38,38,38); color-interpolation:linearRGB;"
    ><text x="-5" xml:space="preserve" y="17" style="stroke:none;"
      >1</text
    ></g
    ><g transform="translate(362.5002,496.3333)" style="font-size:18.3333px; fill:rgb(38,38,38); text-rendering:geometricPrecision; image-rendering:optimizeQuality; color-rendering:optimizeQuality; font-family:'SansSerif'; stroke:rgb(38,38,38); color-interpolation:linearRGB;"
    ><text x="-58" xml:space="preserve" y="19" style="stroke:none;"
      >Input Range 1</text
    ></g
    ><g style="fill:rgb(38,38,38); text-rendering:geometricPrecision; image-rendering:optimizeQuality; color-rendering:optimizeQuality; stroke-linejoin:round; stroke:rgb(38,38,38); color-interpolation:linearRGB; stroke-width:0.8333;"
    ><line y2="39" style="fill:none;" x1="91" x2="91" y1="467"
      /><line y2="39" style="fill:none;" x1="634" x2="634" y1="467"
      /><line y2="467" style="fill:none;" x1="91" x2="96.43" y1="467"
      /><line y2="424.2" style="fill:none;" x1="91" x2="96.43" y1="424.2"
      /><line y2="381.4" style="fill:none;" x1="91" x2="96.43" y1="381.4"
      /><line y2="338.6" style="fill:none;" x1="91" x2="96.43" y1="338.6"
      /><line y2="295.8" style="fill:none;" x1="91" x2="96.43" y1="295.8"
      /><line y2="253" style="fill:none;" x1="91" x2="96.43" y1="253"
      /><line y2="210.2" style="fill:none;" x1="91" x2="96.43" y1="210.2"
      /><line y2="167.4" style="fill:none;" x1="91" x2="96.43" y1="167.4"
      /><line y2="124.6" style="fill:none;" x1="91" x2="96.43" y1="124.6"
      /><line y2="81.8" style="fill:none;" x1="91" x2="96.43" y1="81.8"
      /><line y2="39" style="fill:none;" x1="91" x2="96.43" y1="39"
      /><line y2="467" style="fill:none;" x1="634" x2="628.57" y1="467"
      /><line y2="424.2" style="fill:none;" x1="634" x2="628.57" y1="424.2"
      /><line y2="381.4" style="fill:none;" x1="634" x2="628.57" y1="381.4"
      /><line y2="338.6" style="fill:none;" x1="634" x2="628.57" y1="338.6"
      /><line y2="295.8" style="fill:none;" x1="634" x2="628.57" y1="295.8"
      /><line y2="253" style="fill:none;" x1="634" x2="628.57" y1="253"
      /><line y2="210.2" style="fill:none;" x1="634" x2="628.57" y1="210.2"
      /><line y2="167.4" style="fill:none;" x1="634" x2="628.57" y1="167.4"
      /><line y2="124.6" style="fill:none;" x1="634" x2="628.57" y1="124.6"
      /><line y2="81.8" style="fill:none;" x1="634" x2="628.57" y1="81.8"
      /><line y2="39" style="fill:none;" x1="634" x2="628.57" y1="39"
    /></g
    ><g transform="translate(84.3333,467)" style="font-size:16.6667px; fill:rgb(38,38,38); text-rendering:geometricPrecision; image-rendering:optimizeQuality; color-rendering:optimizeQuality; font-family:'SansSerif'; stroke:rgb(38,38,38); color-interpolation:linearRGB;"
    ><text x="-10" xml:space="preserve" y="6.5" style="stroke:none;"
      >0</text
    ></g
    ><g transform="translate(84.3333,424.2)" style="font-size:16.6667px; fill:rgb(38,38,38); text-rendering:geometricPrecision; image-rendering:optimizeQuality; color-rendering:optimizeQuality; font-family:'SansSerif'; stroke:rgb(38,38,38); color-interpolation:linearRGB;"
    ><text x="-24" xml:space="preserve" y="6.5" style="stroke:none;"
      >0.1</text
    ></g
    ><g transform="translate(84.3333,381.4)" style="font-size:16.6667px; fill:rgb(38,38,38); text-rendering:geometricPrecision; image-rendering:optimizeQuality; color-rendering:optimizeQuality; font-family:'SansSerif'; stroke:rgb(38,38,38); color-interpolation:linearRGB;"
    ><text x="-24" xml:space="preserve" y="6.5" style="stroke:none;"
      >0.2</text
    ></g
    ><g transform="translate(84.3333,338.6)" style="font-size:16.6667px; fill:rgb(38,38,38); text-rendering:geometricPrecision; image-rendering:optimizeQuality; color-rendering:optimizeQuality; font-family:'SansSerif'; stroke:rgb(38,38,38); color-interpolation:linearRGB;"
    ><text x="-24" xml:space="preserve" y="6.5" style="stroke:none;"
      >0.3</text
    ></g
    ><g transform="translate(84.3333,295.8)" style="font-size:16.6667px; fill:rgb(38,38,38); text-rendering:geometricPrecision; image-rendering:optimizeQuality; color-rendering:optimizeQuality; font-family:'SansSerif'; stroke:rgb(38,38,38); color-interpolation:linearRGB;"
    ><text x="-24" xml:space="preserve" y="6.5" style="stroke:none;"
      >0.4</text
    ></g
    ><g transform="translate(84.3333,253)" style="font-size:16.6667px; fill:rgb(38,38,38); text-rendering:geometricPrecision; image-rendering:optimizeQuality; color-rendering:optimizeQuality; font-family:'SansSerif'; stroke:rgb(38,38,38); color-interpolation:linearRGB;"
    ><text x="-24" xml:space="preserve" y="6.5" style="stroke:none;"
      >0.5</text
    ></g
    ><g transform="translate(84.3333,210.2)" style="font-size:16.6667px; fill:rgb(38,38,38); text-rendering:geometricPrecision; image-rendering:optimizeQuality; color-rendering:optimizeQuality; font-family:'SansSerif'; stroke:rgb(38,38,38); color-interpolation:linearRGB;"
    ><text x="-24" xml:space="preserve" y="6.5" style="stroke:none;"
      >0.6</text
    ></g
    ><g transform="translate(84.3333,167.4)" style="font-size:16.6667px; fill:rgb(38,38,38); text-rendering:geometricPrecision; image-rendering:optimizeQuality; color-rendering:optimizeQuality; font-family:'SansSerif'; stroke:rgb(38,38,38); color-interpolation:linearRGB;"
    ><text x="-24" xml:space="preserve" y="6.5" style="stroke:none;"
      >0.7</text
    ></g
    ><g transform="translate(84.3333,124.6)" style="font-size:16.6667px; fill:rgb(38,38,38); text-rendering:geometricPrecision; image-rendering:optimizeQuality; color-rendering:optimizeQuality; font-family:'SansSerif'; stroke:rgb(38,38,38); color-interpolation:linearRGB;"
    ><text x="-24" xml:space="preserve" y="6.5" style="stroke:none;"
      >0.8</text
    ></g
    ><g transform="translate(84.3333,81.8)" style="font-size:16.6667px; fill:rgb(38,38,38); text-rendering:geometricPrecision; image-rendering:optimizeQuality; color-rendering:optimizeQuality; font-family:'SansSerif'; stroke:rgb(38,38,38); color-interpolation:linearRGB;"
    ><text x="-24" xml:space="preserve" y="6.5" style="stroke:none;"
      >0.9</text
    ></g
    ><g transform="translate(84.3333,39)" style="font-size:16.6667px; fill:rgb(38,38,38); text-rendering:geometricPrecision; image-rendering:optimizeQuality; color-rendering:optimizeQuality; font-family:'SansSerif'; stroke:rgb(38,38,38); color-interpolation:linearRGB;"
    ><text x="-10" xml:space="preserve" y="6.5" style="stroke:none;"
      >1</text
    ></g
    ><g transform="translate(50,350) rotate(-90)" style="font-size:18.3333px; fill:rgb(38,38,38); text-rendering:geometricPrecision; image-rendering:optimizeQuality; color-rendering:optimizeQuality; font-family:'SansSerif'; stroke:rgb(38,38,38); color-interpolation:linearRGB;"
    ><text x="0" xml:space="preserve" y="0" style="stroke:none;"
      >Tc_Tcs_Nb3Sn_Bordini</text
    ></g
    ><g transform="translate(100,31)" style="font-size:18.3333px; text-rendering:geometricPrecision; image-rendering:optimizeQuality; color-rendering:optimizeQuality; font-family:'SansSerif'; color-interpolation:linearRGB; font-weight:bold;"
    ><text x="0" xml:space="preserve" y="0" style="stroke:none;"
      >Tc_Tcs_Nb3Sn_Bordini and Tc_Tcs_Nb3Sn_Bordini_approx</text
    ></g
    ><g style="fill:white; text-rendering:optimizeSpeed; color-rendering:optimizeSpeed; image-rendering:optimizeSpeed; shape-rendering:crispEdges; stroke:white; color-interpolation:sRGB;"
    ><path style="stroke:none;" d="M617 71 L617 46 L515 46 L515 71 Z"
    /></g
    ><g style="stroke-linecap:butt; fill:rgb(38,38,38); text-rendering:geometricPrecision; color-rendering:optimizeQuality; image-rendering:optimizeQuality; stroke:rgb(38,38,38); color-interpolation:linearRGB; stroke-width:0.8333;"
    ><path d="M515 71 L515 46 L617 46 L617 71 Z" style="fill:none; fill-rule:evenodd;"
    /></g
  ></g
></svg
>
