<?xml version="1.0"?>
<!DOCTYPE svg PUBLIC '-//W3C//DTD SVG 1.0//EN'
          'http://www.w3.org/TR/2001/REC-SVG-20010904/DTD/svg10.dtd'>
<svg xmlns:xlink="http://www.w3.org/1999/xlink" style="fill-opacity:1; color-rendering:auto; color-interpolation:auto; text-rendering:auto; stroke:black; stroke-linecap:square; stroke-miterlimit:10; shape-rendering:auto; stroke-opacity:1; fill:black; stroke-dasharray:none; font-weight:normal; stroke-width:1; font-family:'Dialog'; font-style:normal; stroke-linejoin:miter; font-size:12px; stroke-dashoffset:0; image-rendering:auto;" width="560" height="420" xmlns="http://www.w3.org/2000/svg"
><!--Generated by the Batik Graphics2D SVG Generator--><defs id="genericDefs"
  /><g
  ><defs id="defs1"
    ><clipPath clipPathUnits="userSpaceOnUse" id="clipPath1"
      ><path d="M0 0 L560 0 L560 420 L0 420 L0 0 Z"
      /></clipPath
      ><font horiz-adv-x="75.0" id="font1"
      ><font-face ascent="100.53711" descent="21.972656" units-per-em="100" style="font-style:normal; font-family:SansSerif; font-weight:normal;"
        /><missing-glyph horiz-adv-x="75.0" d="M12.5 0 L12.5 62.5 L62.5 62.5 L62.5 0 L12.5 0 ZM14.0625 1.5625 L60.9375 1.5625 L60.9375 60.9375 L14.0625 60.9375 L14.0625 1.5625 Z"
        /><glyph unicode="0" horiz-adv-x="55.615234" d="M4.1562 35.2969 Q4.1562 48 6.7656 55.7422 Q9.375 63.4844 14.5234 67.6797 Q19.6719 71.875 27.4844 71.875 Q33.25 71.875 37.5938 69.5547 Q41.9375 67.2344 44.7734 62.8672 Q47.6094 58.5 49.2188 52.2266 Q50.8281 45.9531 50.8281 35.2969 Q50.8281 22.7031 48.2422 14.9688 Q45.6562 7.2344 40.5078 3.0078 Q35.3594 -1.2188 27.4844 -1.2188 Q17.1406 -1.2188 11.2344 6.2031 Q4.1562 15.1406 4.1562 35.2969 ZM13.1875 35.2969 Q13.1875 17.6719 17.3125 11.8359 Q21.4375 6 27.4844 6 Q33.5469 6 37.6719 11.8594 Q41.7969 17.7188 41.7969 35.2969 Q41.7969 52.9844 37.6719 58.7891 Q33.5469 64.5938 27.3906 64.5938 Q21.3438 64.5938 17.7188 59.4688 Q13.1875 52.9375 13.1875 35.2969 Z"
        /><glyph unicode="5" horiz-adv-x="55.615234" d="M4.1562 18.75 L13.375 19.5312 Q14.4062 12.7969 18.1406 9.3984 Q21.875 6 27.1562 6 Q33.5 6 37.8906 10.7891 Q42.2812 15.5781 42.2812 23.4844 Q42.2812 31 38.0625 35.3516 Q33.8438 39.7031 27 39.7031 Q22.75 39.7031 19.3359 37.7734 Q15.9219 35.8438 13.9688 32.7656 L5.7188 33.8438 L12.6406 70.6094 L48.25 70.6094 L48.25 62.2031 L19.6719 62.2031 L15.8281 42.9688 Q22.2656 47.4688 29.3438 47.4688 Q38.7188 47.4688 45.1641 40.9688 Q51.6094 34.4688 51.6094 24.2656 Q51.6094 14.5469 45.9531 7.4688 Q39.0625 -1.2188 27.1562 -1.2188 Q17.3906 -1.2188 11.2109 4.25 Q5.0312 9.7188 4.1562 18.75 Z"
        /><glyph unicode="1" horiz-adv-x="55.615234" d="M37.25 0 L28.4688 0 L28.4688 56 Q25.2969 52.9844 20.1406 49.9531 Q14.9844 46.9219 10.8906 45.4062 L10.8906 53.9062 Q18.2656 57.375 23.7812 62.3047 Q29.2969 67.2344 31.5938 71.875 L37.25 71.875 L37.25 0 Z"
        /><glyph unicode="2" horiz-adv-x="55.615234" d="M50.3438 8.4531 L50.3438 0 L3.0312 0 Q2.9375 3.1719 4.0469 6.1094 Q5.8594 10.9375 9.8359 15.625 Q13.8125 20.3125 21.3438 26.4688 Q33.0156 36.0312 37.1172 41.625 Q41.2188 47.2188 41.2188 52.2031 Q41.2188 57.4219 37.4766 61.0078 Q33.7344 64.5938 27.7344 64.5938 Q21.3906 64.5938 17.5781 60.7891 Q13.7656 56.9844 13.7188 50.25 L4.6875 51.1719 Q5.6094 61.2812 11.6641 66.5781 Q17.7188 71.875 27.9375 71.875 Q38.2344 71.875 44.2422 66.1641 Q50.25 60.4531 50.25 52 Q50.25 47.7031 48.4922 43.5547 Q46.7344 39.4062 42.6562 34.8125 Q38.5781 30.2188 29.1094 22.2188 Q21.1875 15.5781 18.9453 13.2109 Q16.7031 10.8438 15.2344 8.4531 L50.3438 8.4531 Z"
        /><glyph unicode="3" horiz-adv-x="55.615234" d="M4.2031 18.8906 L12.9844 20.0625 Q14.5 12.5938 18.1406 9.2969 Q21.7812 6 27 6 Q33.2031 6 37.4766 10.2969 Q41.75 14.5938 41.75 20.9531 Q41.75 27 37.7969 30.9297 Q33.8438 34.8594 27.7344 34.8594 Q25.25 34.8594 21.5312 33.8906 L22.5156 41.6094 Q23.3906 41.5 23.9219 41.5 Q29.5469 41.5 34.0391 44.4297 Q38.5312 47.3594 38.5312 53.4688 Q38.5312 58.2969 35.2578 61.4766 Q31.9844 64.6562 26.8125 64.6562 Q21.6875 64.6562 18.2656 61.4297 Q14.8438 58.2031 13.875 51.7656 L5.0781 53.3281 Q6.6875 62.1562 12.3984 67.0156 Q18.1094 71.875 26.6094 71.875 Q32.4688 71.875 37.3984 69.3594 Q42.3281 66.8438 44.9453 62.5 Q47.5625 58.1562 47.5625 53.2656 Q47.5625 48.6406 45.0703 44.8281 Q42.5781 41.0156 37.7031 38.7656 Q44.0469 37.3125 47.5625 32.6953 Q51.0781 28.0781 51.0781 21.1406 Q51.0781 11.7656 44.2422 5.25 Q37.4062 -1.2656 26.9531 -1.2656 Q17.5312 -1.2656 11.3047 4.3516 Q5.0781 9.9688 4.2031 18.8906 Z"
        /><glyph unicode="]" horiz-adv-x="27.783203" d="M21.2969 -19.875 L1.9062 -19.875 L1.9062 -12.5938 L12.5 -12.5938 L12.5 64.3125 L1.9062 64.3125 L1.9062 71.5781 L21.2969 71.5781 L21.2969 -19.875 Z"
        /><glyph unicode="K" horiz-adv-x="66.69922" d="M7.3281 0 L7.3281 71.5781 L16.7969 71.5781 L16.7969 36.0781 L52.3438 71.5781 L65.1875 71.5781 L35.1562 42.5781 L66.5 0 L54 0 L28.5156 36.2344 L16.7969 24.8125 L16.7969 0 L7.3281 0 Z"
        /><glyph unicode="[" horiz-adv-x="27.783203" d="M6.7812 -19.875 L6.7812 71.5781 L26.1719 71.5781 L26.1719 64.3125 L15.5781 64.3125 L15.5781 -12.5938 L26.1719 -12.5938 L26.1719 -19.875 L6.7812 -19.875 Z"
        /><glyph unicode=" " horiz-adv-x="27.783203" d=""
        /><glyph unicode="T" horiz-adv-x="61.083984" d="M25.9219 0 L25.9219 63.1406 L2.3438 63.1406 L2.3438 71.5781 L59.0781 71.5781 L59.0781 63.1406 L35.4062 63.1406 L35.4062 0 L25.9219 0 Z"
        /><glyph unicode="." horiz-adv-x="27.783203" d="M9.0781 0 L9.0781 10.0156 L19.0938 10.0156 L19.0938 0 L9.0781 0 Z"
        /><glyph unicode="4" horiz-adv-x="55.615234" d="M32.3281 0 L32.3281 17.1406 L1.2656 17.1406 L1.2656 25.2031 L33.9375 71.5781 L41.1094 71.5781 L41.1094 25.2031 L50.7812 25.2031 L50.7812 17.1406 L41.1094 17.1406 L41.1094 0 L32.3281 0 ZM32.3281 25.2031 L32.3281 57.4688 L9.9062 25.2031 L32.3281 25.2031 Z"
        /><glyph unicode="A" horiz-adv-x="66.69922" d="M-0.1406 0 L27.3438 71.5781 L37.5469 71.5781 L66.8438 0 L56.0625 0 L47.7031 21.6875 L17.7812 21.6875 L9.9062 0 L-0.1406 0 ZM20.5156 29.3906 L44.7812 29.3906 L37.3125 49.2188 Q33.8906 58.25 32.2344 64.0625 Q30.8594 57.1719 28.375 50.3906 L20.5156 29.3906 Z"
        /><glyph unicode="c" horiz-adv-x="50.0" d="M40.4375 19 L49.0781 17.875 Q47.6562 8.9375 41.8203 3.8828 Q35.9844 -1.1719 27.4844 -1.1719 Q16.8438 -1.1719 10.375 5.7891 Q3.9062 12.75 3.9062 25.7344 Q3.9062 34.125 6.6875 40.4297 Q9.4688 46.7344 15.1562 49.8828 Q20.8438 53.0312 27.5469 53.0312 Q35.9844 53.0312 41.3594 48.7578 Q46.7344 44.4844 48.25 36.625 L39.7031 35.2969 Q38.4844 40.5312 35.3828 43.1641 Q32.2812 45.7969 27.875 45.7969 Q21.2344 45.7969 17.0859 41.0391 Q12.9375 36.2812 12.9375 25.9844 Q12.9375 15.5312 16.9453 10.7969 Q20.9531 6.0625 27.3906 6.0625 Q32.5625 6.0625 36.0312 9.2344 Q39.5 12.4062 40.4375 19 Z"
        /><glyph unicode="I" horiz-adv-x="27.783203" d="M9.3281 0 L9.3281 71.5781 L18.7969 71.5781 L18.7969 0 L9.3281 0 Z"
        /><glyph unicode="9" horiz-adv-x="55.615234" d="M5.4688 16.5469 L13.9219 17.3281 Q14.9844 11.375 18.0156 8.6875 Q21.0469 6 25.7812 6 Q29.8281 6 32.8828 7.8594 Q35.9375 9.7188 37.8906 12.8203 Q39.8438 15.9219 41.1641 21.1953 Q42.4844 26.4688 42.4844 31.9375 Q42.4844 32.5156 42.4375 33.6875 Q39.7969 29.5 35.2344 26.8828 Q30.6719 24.2656 25.3438 24.2656 Q16.4531 24.2656 10.3047 30.7109 Q4.1562 37.1562 4.1562 47.7031 Q4.1562 58.5938 10.5781 65.2344 Q17 71.875 26.6562 71.875 Q33.6406 71.875 39.4297 68.1172 Q45.2188 64.3594 48.2188 57.3984 Q51.2188 50.4375 51.2188 37.25 Q51.2188 23.5312 48.2422 15.4062 Q45.2656 7.2812 39.3828 3.0312 Q33.5 -1.2188 25.5938 -1.2188 Q17.1875 -1.2188 11.8672 3.4453 Q6.5469 8.1094 5.4688 16.5469 ZM41.4531 48.1406 Q41.4531 55.7188 37.4297 60.1562 Q33.4062 64.5938 27.7344 64.5938 Q21.875 64.5938 17.5312 59.8125 Q13.1875 55.0312 13.1875 47.4062 Q13.1875 40.5781 17.3125 36.3047 Q21.4375 32.0312 27.4844 32.0312 Q33.5938 32.0312 37.5234 36.3047 Q41.4531 40.5781 41.4531 48.1406 Z"
      /></font
      ><font horiz-adv-x="75.0" id="font2"
      ><font-face ascent="65.42969" descent="22.558594" units-per-em="100" style="font-style:normal; font-family:mwb_cmsy10; font-weight:normal;"
        /><missing-glyph horiz-adv-x="75.0" d="M12.5 0 L12.5 62.5 L62.5 62.5 L62.5 0 L12.5 0 ZM60.8906 1.6094 L60.8906 60.8906 L14.1094 60.8906 L14.1094 1.6094 L60.8906 1.6094 Z"
        /><glyph unicode="#" horiz-adv-x="77.68555" d="M14.7031 2.875 Q14.7031 3.6562 15.1875 4.2969 L35.9844 25 L15.1875 45.7969 Q14.7031 46.2969 14.7031 47.125 Q14.7031 47.8594 15.2891 48.4922 Q15.875 49.125 16.7031 49.125 Q17.3906 49.125 18.2188 48.4844 L38.9219 27.7812 L59.5156 48.4844 Q60.3594 49.125 60.9844 49.125 Q61.8125 49.125 62.3984 48.5391 Q62.9844 47.9531 62.9844 47.125 Q62.9844 46.2969 62.5 45.7969 L41.7031 25 L62.5 4.2969 Q62.9844 3.6562 62.9844 2.875 Q62.9844 2.0469 62.3984 1.4609 Q61.8125 0.875 60.9844 0.875 Q60.25 0.875 59.5156 1.6094 L38.9219 22.2188 L18.2188 1.6094 Q17.4844 0.875 16.7031 0.875 Q15.875 0.875 15.2891 1.5156 Q14.7031 2.1562 14.7031 2.875 Z"
      /></font
      ><font horiz-adv-x="75.0" id="font3"
      ><font-face ascent="100.53711" descent="21.972656" units-per-em="100" style="font-style:normal; font-family:SansSerif; font-weight:bold;"
        /><missing-glyph horiz-adv-x="75.0" d="M12.5 0 L12.5 62.5 L62.5 62.5 L62.5 0 L12.5 0 ZM14.0625 1.5625 L60.9375 1.5625 L60.9375 60.9375 L14.0625 60.9375 L14.0625 1.5625 Z"
        /><glyph unicode="i" horiz-adv-x="27.783203" d="M7.1719 58.8906 L7.1719 71.5781 L20.9062 71.5781 L20.9062 58.8906 L7.1719 58.8906 ZM7.1719 0 L7.1719 51.8594 L20.9062 51.8594 L20.9062 0 L7.1719 0 Z"
        /><glyph unicode="T" horiz-adv-x="61.083984" d="M23.3906 0 L23.3906 59.4688 L2.1562 59.4688 L2.1562 71.5781 L59.0312 71.5781 L59.0312 59.4688 L37.8438 59.4688 L37.8438 0 L23.3906 0 Z"
        /><glyph unicode="N" horiz-adv-x="72.2168" d="M7.4219 0 L7.4219 71.5781 L21.4844 71.5781 L50.7812 23.7812 L50.7812 71.5781 L64.2031 71.5781 L64.2031 0 L49.7031 0 L20.8438 46.6875 L20.8438 0 L7.4219 0 Z"
        /><glyph unicode="c" horiz-adv-x="55.615234" d="M52.3906 36.5312 L38.875 34.0781 Q38.1875 38.1406 35.7656 40.1875 Q33.3438 42.2344 29.5 42.2344 Q24.3594 42.2344 21.3125 38.6953 Q18.2656 35.1562 18.2656 26.8594 Q18.2656 17.625 21.3672 13.8203 Q24.4688 10.0156 29.6875 10.0156 Q33.5938 10.0156 36.0859 12.2344 Q38.5781 14.4531 39.5938 19.875 L53.0781 17.5781 Q50.9844 8.2969 45.0234 3.5625 Q39.0625 -1.1719 29.0469 -1.1719 Q17.6719 -1.1719 10.9141 6.0078 Q4.1562 13.1875 4.1562 25.875 Q4.1562 38.7188 10.9375 45.875 Q17.7188 53.0312 29.2969 53.0312 Q38.7656 53.0312 44.3594 48.9531 Q49.9531 44.875 52.3906 36.5312 Z"
        /><glyph unicode="I" horiz-adv-x="27.783203" d="M6.8438 0 L6.8438 71.5781 L21.2969 71.5781 L21.2969 0 L6.8438 0 Z"
        /><glyph unicode="f" horiz-adv-x="33.30078" d="M1.1719 51.8594 L8.7969 51.8594 L8.7969 55.7656 Q8.7969 62.3125 10.1875 65.5312 Q11.5781 68.75 15.3125 70.7734 Q19.0469 72.7969 24.75 72.7969 Q30.6094 72.7969 36.2344 71.0469 L34.375 61.4688 Q31.1094 62.25 28.0781 62.25 Q25.0938 62.25 23.8047 60.8594 Q22.5156 59.4688 22.5156 55.5156 L22.5156 51.8594 L32.7656 51.8594 L32.7656 41.0625 L22.5156 41.0625 L22.5156 0 L8.7969 0 L8.7969 41.0625 L1.1719 41.0625 L1.1719 51.8594 Z"
        /><glyph unicode="o" horiz-adv-x="61.083984" d="M4 26.6562 Q4 33.5 7.375 39.8984 Q10.75 46.2969 16.9219 49.6641 Q23.0938 53.0312 30.7188 53.0312 Q42.4844 53.0312 50 45.3906 Q57.5156 37.75 57.5156 26.0781 Q57.5156 14.3125 49.9219 6.5703 Q42.3281 -1.1719 30.8125 -1.1719 Q23.6875 -1.1719 17.2188 2.0547 Q10.75 5.2812 7.375 11.5 Q4 17.7188 4 26.6562 ZM18.0625 25.9219 Q18.0625 18.2188 21.7266 14.1172 Q25.3906 10.0156 30.7656 10.0156 Q36.1406 10.0156 39.7734 14.1172 Q43.4062 18.2188 43.4062 26.0312 Q43.4062 33.6406 39.7734 37.7422 Q36.1406 41.8438 30.7656 41.8438 Q25.3906 41.8438 21.7266 37.7422 Q18.0625 33.6406 18.0625 25.9219 Z"
        /><glyph unicode="l" horiz-adv-x="27.783203" d="M7.1719 0 L7.1719 71.5781 L20.9062 71.5781 L20.9062 0 L7.1719 0 Z"
        /><glyph unicode="p" horiz-adv-x="61.083984" d="M6.7812 51.8594 L19.5781 51.8594 L19.5781 44.2344 Q22.0781 48.1406 26.3203 50.5859 Q30.5625 53.0312 35.75 53.0312 Q44.7812 53.0312 51.0781 45.9531 Q57.375 38.875 57.375 26.2188 Q57.375 13.2344 51.0234 6.0312 Q44.6719 -1.1719 35.6406 -1.1719 Q31.3438 -1.1719 27.8516 0.5391 Q24.3594 2.25 20.5156 6.3906 L20.5156 -19.7344 L6.7812 -19.7344 L6.7812 51.8594 ZM20.3594 26.8125 Q20.3594 18.0625 23.8281 13.8906 Q27.2969 9.7188 32.2812 9.7188 Q37.0625 9.7188 40.2344 13.5547 Q43.4062 17.3906 43.4062 26.125 Q43.4062 34.2812 40.1328 38.2344 Q36.8594 42.1875 32.0312 42.1875 Q27 42.1875 23.6797 38.3047 Q20.3594 34.4219 20.3594 26.8125 Z"
        /><glyph unicode=" " horiz-adv-x="27.783203" d=""
        /><glyph unicode="b" horiz-adv-x="61.083984" d="M6.5938 0 L6.5938 71.5781 L20.3125 71.5781 L20.3125 45.7969 Q26.6562 53.0312 35.3594 53.0312 Q44.8281 53.0312 51.0312 46.1719 Q57.2344 39.3125 57.2344 26.4688 Q57.2344 13.1875 50.9062 6.0078 Q44.5781 -1.1719 35.5469 -1.1719 Q31.1094 -1.1719 26.7891 1.0469 Q22.4688 3.2656 19.3438 7.625 L19.3438 0 L6.5938 0 ZM20.2188 27.0469 Q20.2188 19 22.75 15.1406 Q26.3125 9.6719 32.2344 9.6719 Q36.7656 9.6719 39.9688 13.5547 Q43.1719 17.4375 43.1719 25.7812 Q43.1719 34.6719 39.9453 38.6016 Q36.7188 42.5312 31.6875 42.5312 Q26.7656 42.5312 23.4922 38.6953 Q20.2188 34.8594 20.2188 27.0469 Z"
        /><glyph unicode="L" horiz-adv-x="61.083984" d="M7.6719 0 L7.6719 71 L22.125 71 L22.125 12.0625 L58.0625 12.0625 L58.0625 0 L7.6719 0 Z"
        /><glyph unicode="t" horiz-adv-x="33.30078" d="M30.9531 51.8594 L30.9531 40.9219 L21.5781 40.9219 L21.5781 20.0156 Q21.5781 13.6719 21.8516 12.625 Q22.125 11.5781 23.0781 10.8906 Q24.0312 10.2031 25.3906 10.2031 Q27.2969 10.2031 30.9062 11.5312 L32.0781 0.875 Q27.2969 -1.1719 21.2344 -1.1719 Q17.5312 -1.1719 14.5547 0.0703 Q11.5781 1.3125 10.1875 3.2969 Q8.7969 5.2812 8.25 8.6406 Q7.8125 11.0312 7.8125 18.3125 L7.8125 40.9219 L1.5156 40.9219 L1.5156 51.8594 L7.8125 51.8594 L7.8125 62.1562 L21.5781 70.1719 L21.5781 51.8594 L30.9531 51.8594 Z"
        /><glyph unicode="a" horiz-adv-x="55.615234" d="M17.4375 36.0312 L4.9844 38.2812 Q7.0781 45.7969 12.2031 49.4141 Q17.3281 53.0312 27.4375 53.0312 Q36.625 53.0312 41.1172 50.8594 Q45.6094 48.6875 47.4375 45.3438 Q49.2656 42 49.2656 33.0625 L49.125 17.0469 Q49.125 10.2031 49.7812 6.9609 Q50.4375 3.7188 52.25 0 L38.6719 0 Q38.1406 1.375 37.3594 4.0469 Q37.0156 5.2812 36.8594 5.6719 Q33.3438 2.25 29.3438 0.5391 Q25.3438 -1.1719 20.7969 -1.1719 Q12.7969 -1.1719 8.1797 3.1719 Q3.5625 7.5156 3.5625 14.1562 Q3.5625 18.5625 5.6641 22 Q7.7656 25.4375 11.5469 27.2734 Q15.3281 29.1094 22.4688 30.4688 Q32.0781 32.2812 35.7969 33.8438 L35.7969 35.2031 Q35.7969 39.1562 33.8438 40.8438 Q31.8906 42.5312 26.4688 42.5312 Q22.7969 42.5312 20.75 41.0938 Q18.7031 39.6562 17.4375 36.0312 ZM35.7969 24.9062 Q33.1562 24.0312 27.4453 22.8047 Q21.7344 21.5781 19.9688 20.4062 Q17.2812 18.5 17.2812 15.5781 Q17.2812 12.7031 19.4297 10.6016 Q21.5781 8.5 24.9062 8.5 Q28.6094 8.5 31.9844 10.9375 Q34.4688 12.7969 35.25 15.4844 Q35.7969 17.2344 35.7969 22.1719 L35.7969 24.9062 Z"
        /><glyph unicode="M" horiz-adv-x="83.30078" d="M7.0781 0 L7.0781 71.5781 L28.7188 71.5781 L41.7031 22.75 L54.5469 71.5781 L76.2188 71.5781 L76.2188 0 L62.7969 0 L62.7969 56.3438 L48.5781 0 L34.6719 0 L20.5156 56.3438 L20.5156 0 L7.0781 0 Z"
      /></font
    ></defs
    ><g style="fill:white; stroke:white;"
    ><rect x="0" y="0" width="560" style="clip-path:url(#clipPath1); stroke:none;" height="420"
    /></g
    ><g style="fill:white; text-rendering:optimizeSpeed; color-rendering:optimizeSpeed; image-rendering:optimizeSpeed; shape-rendering:crispEdges; stroke:white; color-interpolation:sRGB;"
    ><rect x="0" width="560" height="420" y="0" style="stroke:none;"
      /><path style="stroke:none;" d="M73 374 L507 374 L507 31 L73 31 Z"
    /></g
    ><g style="fill:rgb(38,38,38); text-rendering:geometricPrecision; image-rendering:optimizeQuality; color-rendering:optimizeQuality; stroke-linejoin:round; stroke:rgb(38,38,38); color-interpolation:linearRGB; stroke-width:0.6667;"
    ><line y2="374" style="fill:none;" x1="73" x2="507" y1="374"
      /><line y2="31" style="fill:none;" x1="73" x2="507" y1="31"
      /><line y2="369.66" style="fill:none;" x1="73" x2="73" y1="374"
      /><line y2="369.66" style="fill:none;" x1="145.3333" x2="145.3333" y1="374"
      /><line y2="369.66" style="fill:none;" x1="217.6667" x2="217.6667" y1="374"
      /><line y2="369.66" style="fill:none;" x1="290" x2="290" y1="374"
      /><line y2="369.66" style="fill:none;" x1="362.3333" x2="362.3333" y1="374"
      /><line y2="369.66" style="fill:none;" x1="434.6667" x2="434.6667" y1="374"
      /><line y2="369.66" style="fill:none;" x1="507" x2="507" y1="374"
      /><line y2="35.34" style="fill:none;" x1="73" x2="73" y1="31"
      /><line y2="35.34" style="fill:none;" x1="145.3333" x2="145.3333" y1="31"
      /><line y2="35.34" style="fill:none;" x1="217.6667" x2="217.6667" y1="31"
      /><line y2="35.34" style="fill:none;" x1="290" x2="290" y1="31"
      /><line y2="35.34" style="fill:none;" x1="362.3333" x2="362.3333" y1="31"
      /><line y2="35.34" style="fill:none;" x1="434.6667" x2="434.6667" y1="31"
      /><line y2="35.34" style="fill:none;" x1="507" x2="507" y1="31"
    /></g
    ><g transform="translate(73,379.3333)" style="font-size:13.3333px; fill:rgb(38,38,38); text-rendering:geometricPrecision; image-rendering:optimizeQuality; color-rendering:optimizeQuality; font-family:'SansSerif'; stroke:rgb(38,38,38); color-interpolation:linearRGB;"
    ><text x="-4" xml:space="preserve" y="14" style="stroke:none;"
      >0</text
    ></g
    ><g transform="translate(145.3333,379.3333)" style="font-size:13.3333px; fill:rgb(38,38,38); text-rendering:geometricPrecision; image-rendering:optimizeQuality; color-rendering:optimizeQuality; font-family:'SansSerif'; stroke:rgb(38,38,38); color-interpolation:linearRGB;"
    ><text x="-7.5" xml:space="preserve" y="14" style="stroke:none;"
      >50</text
    ></g
    ><g transform="translate(217.6667,379.3333)" style="font-size:13.3333px; fill:rgb(38,38,38); text-rendering:geometricPrecision; image-rendering:optimizeQuality; color-rendering:optimizeQuality; font-family:'SansSerif'; stroke:rgb(38,38,38); color-interpolation:linearRGB;"
    ><text x="-11.5" xml:space="preserve" y="14" style="stroke:none;"
      >100</text
    ></g
    ><g transform="translate(290,379.3333)" style="font-size:13.3333px; fill:rgb(38,38,38); text-rendering:geometricPrecision; image-rendering:optimizeQuality; color-rendering:optimizeQuality; font-family:'SansSerif'; stroke:rgb(38,38,38); color-interpolation:linearRGB;"
    ><text x="-11.5" xml:space="preserve" y="14" style="stroke:none;"
      >150</text
    ></g
    ><g transform="translate(362.3333,379.3333)" style="font-size:13.3333px; fill:rgb(38,38,38); text-rendering:geometricPrecision; image-rendering:optimizeQuality; color-rendering:optimizeQuality; font-family:'SansSerif'; stroke:rgb(38,38,38); color-interpolation:linearRGB;"
    ><text x="-11.5" xml:space="preserve" y="14" style="stroke:none;"
      >200</text
    ></g
    ><g transform="translate(434.6667,379.3333)" style="font-size:13.3333px; fill:rgb(38,38,38); text-rendering:geometricPrecision; image-rendering:optimizeQuality; color-rendering:optimizeQuality; font-family:'SansSerif'; stroke:rgb(38,38,38); color-interpolation:linearRGB;"
    ><text x="-11.5" xml:space="preserve" y="14" style="stroke:none;"
      >250</text
    ></g
    ><g transform="translate(507,379.3333)" style="font-size:13.3333px; fill:rgb(38,38,38); text-rendering:geometricPrecision; image-rendering:optimizeQuality; color-rendering:optimizeQuality; font-family:'SansSerif'; stroke:rgb(38,38,38); color-interpolation:linearRGB;"
    ><text x="-11.5" xml:space="preserve" y="14" style="stroke:none;"
      >300</text
    ></g
    ><g transform="translate(290.0002,397.6667)" style="font-size:14.6667px; fill:rgb(38,38,38); text-rendering:geometricPrecision; image-rendering:optimizeQuality; color-rendering:optimizeQuality; font-family:'SansSerif'; stroke:rgb(38,38,38); color-interpolation:linearRGB;"
    ><text x="-15.5" xml:space="preserve" y="15" style="stroke:none;"
      >T [K]</text
    ></g
    ><g style="fill:rgb(38,38,38); text-rendering:geometricPrecision; image-rendering:optimizeQuality; color-rendering:optimizeQuality; stroke-linejoin:round; stroke:rgb(38,38,38); color-interpolation:linearRGB; stroke-width:0.6667;"
    ><line y2="31" style="fill:none;" x1="73" x2="73" y1="374"
      /><line y2="31" style="fill:none;" x1="507" x2="507" y1="374"
      /><line y2="374" style="fill:none;" x1="73" x2="77.34" y1="374"
      /><line y2="331.125" style="fill:none;" x1="73" x2="77.34" y1="331.125"
      /><line y2="288.25" style="fill:none;" x1="73" x2="77.34" y1="288.25"
      /><line y2="245.375" style="fill:none;" x1="73" x2="77.34" y1="245.375"
      /><line y2="202.5" style="fill:none;" x1="73" x2="77.34" y1="202.5"
      /><line y2="159.625" style="fill:none;" x1="73" x2="77.34" y1="159.625"
      /><line y2="116.75" style="fill:none;" x1="73" x2="77.34" y1="116.75"
      /><line y2="73.875" style="fill:none;" x1="73" x2="77.34" y1="73.875"
      /><line y2="31" style="fill:none;" x1="73" x2="77.34" y1="31"
      /><line y2="374" style="fill:none;" x1="507" x2="502.66" y1="374"
      /><line y2="331.125" style="fill:none;" x1="507" x2="502.66" y1="331.125"
      /><line y2="288.25" style="fill:none;" x1="507" x2="502.66" y1="288.25"
      /><line y2="245.375" style="fill:none;" x1="507" x2="502.66" y1="245.375"
      /><line y2="202.5" style="fill:none;" x1="507" x2="502.66" y1="202.5"
      /><line y2="159.625" style="fill:none;" x1="507" x2="502.66" y1="159.625"
      /><line y2="116.75" style="fill:none;" x1="507" x2="502.66" y1="116.75"
      /><line y2="73.875" style="fill:none;" x1="507" x2="502.66" y1="73.875"
      /><line y2="31" style="fill:none;" x1="507" x2="502.66" y1="31"
    /></g
    ><g transform="translate(67.6667,374)" style="font-size:13.3333px; fill:rgb(38,38,38); text-rendering:geometricPrecision; image-rendering:optimizeQuality; color-rendering:optimizeQuality; font-family:'SansSerif'; stroke:rgb(38,38,38); color-interpolation:linearRGB;"
    ><text x="-8" xml:space="preserve" y="5.5" style="stroke:none;"
      >0</text
    ></g
    ><g transform="translate(67.6667,331.125)" style="font-size:13.3333px; fill:rgb(38,38,38); text-rendering:geometricPrecision; image-rendering:optimizeQuality; color-rendering:optimizeQuality; font-family:'SansSerif'; stroke:rgb(38,38,38); color-interpolation:linearRGB;"
    ><text x="-19" xml:space="preserve" y="5.5" style="stroke:none;"
      >0.5</text
    ></g
    ><g transform="translate(67.6667,288.25)" style="font-size:13.3333px; fill:rgb(38,38,38); text-rendering:geometricPrecision; image-rendering:optimizeQuality; color-rendering:optimizeQuality; font-family:'SansSerif'; stroke:rgb(38,38,38); color-interpolation:linearRGB;"
    ><text x="-8" xml:space="preserve" y="5.5" style="stroke:none;"
      >1</text
    ></g
    ><g transform="translate(67.6667,245.375)" style="font-size:13.3333px; fill:rgb(38,38,38); text-rendering:geometricPrecision; image-rendering:optimizeQuality; color-rendering:optimizeQuality; font-family:'SansSerif'; stroke:rgb(38,38,38); color-interpolation:linearRGB;"
    ><text x="-19" xml:space="preserve" y="5.5" style="stroke:none;"
      >1.5</text
    ></g
    ><g transform="translate(67.6667,202.5)" style="font-size:13.3333px; fill:rgb(38,38,38); text-rendering:geometricPrecision; image-rendering:optimizeQuality; color-rendering:optimizeQuality; font-family:'SansSerif'; stroke:rgb(38,38,38); color-interpolation:linearRGB;"
    ><text x="-8" xml:space="preserve" y="5.5" style="stroke:none;"
      >2</text
    ></g
    ><g transform="translate(67.6667,159.625)" style="font-size:13.3333px; fill:rgb(38,38,38); text-rendering:geometricPrecision; image-rendering:optimizeQuality; color-rendering:optimizeQuality; font-family:'SansSerif'; stroke:rgb(38,38,38); color-interpolation:linearRGB;"
    ><text x="-19" xml:space="preserve" y="5.5" style="stroke:none;"
      >2.5</text
    ></g
    ><g transform="translate(67.6667,116.75)" style="font-size:13.3333px; fill:rgb(38,38,38); text-rendering:geometricPrecision; image-rendering:optimizeQuality; color-rendering:optimizeQuality; font-family:'SansSerif'; stroke:rgb(38,38,38); color-interpolation:linearRGB;"
    ><text x="-8" xml:space="preserve" y="5.5" style="stroke:none;"
      >3</text
    ></g
    ><g transform="translate(67.6667,73.875)" style="font-size:13.3333px; fill:rgb(38,38,38); text-rendering:geometricPrecision; image-rendering:optimizeQuality; color-rendering:optimizeQuality; font-family:'SansSerif'; stroke:rgb(38,38,38); color-interpolation:linearRGB;"
    ><text x="-19" xml:space="preserve" y="5.5" style="stroke:none;"
      >3.5</text
    ></g
    ><g transform="translate(67.6667,31)" style="font-size:13.3333px; fill:rgb(38,38,38); text-rendering:geometricPrecision; image-rendering:optimizeQuality; color-rendering:optimizeQuality; font-family:'SansSerif'; stroke:rgb(38,38,38); color-interpolation:linearRGB;"
    ><text x="-8" xml:space="preserve" y="5.5" style="stroke:none;"
      >4</text
    ></g
    ><g transform="translate(44.6667,202.4998) rotate(-90)" style="font-size:14.6667px; fill:rgb(38,38,38); text-rendering:geometricPrecision; image-rendering:optimizeQuality; color-rendering:optimizeQuality; font-family:'SansSerif'; stroke:rgb(38,38,38); color-interpolation:linearRGB;"
    ><text x="-17" xml:space="preserve" y="-4" style="stroke:none;"
      >Ic [A]</text
    ></g
    ><g transform="translate(73,28)" style="font-size:13.3333px; fill:rgb(38,38,38); text-rendering:geometricPrecision; image-rendering:optimizeQuality; color-rendering:optimizeQuality; font-family:'mwb_cmsy10'; stroke:rgb(38,38,38); color-interpolation:linearRGB;"
    ><text x="0" xml:space="preserve" y="0" style="stroke:none;"
      >#</text
    ></g
    ><g transform="translate(84,28)" style="font-size:13.3333px; fill:rgb(38,38,38); text-rendering:geometricPrecision; image-rendering:optimizeQuality; color-rendering:optimizeQuality; font-family:'SansSerif'; stroke:rgb(38,38,38); color-interpolation:linearRGB;"
    ><text x="0" xml:space="preserve" y="0" style="stroke:none;"
      >10</text
    ></g
    ><g transform="translate(99,22)" style="font-size:10.6667px; fill:rgb(38,38,38); text-rendering:geometricPrecision; image-rendering:optimizeQuality; color-rendering:optimizeQuality; font-family:'SansSerif'; stroke:rgb(38,38,38); color-interpolation:linearRGB;"
    ><text x="0" xml:space="preserve" y="0" style="stroke:none;"
      >9</text
    ></g
    ><g transform="translate(290.0003,28.25)" style="font-size:14.6667px; text-rendering:geometricPrecision; image-rendering:optimizeQuality; color-rendering:optimizeQuality; font-family:'SansSerif'; color-interpolation:linearRGB; font-weight:bold;"
    ><text x="-74.5" xml:space="preserve" y="-4" style="stroke:none;"
      >MatLab plot of IcNbTi</text
    ></g
    ><g style="stroke-linecap:butt; fill:rgb(0,114,189); text-rendering:geometricPrecision; image-rendering:optimizeQuality; color-rendering:optimizeQuality; stroke-linejoin:round; stroke:rgb(0,114,189); color-interpolation:linearRGB; stroke-width:0.6667;"
    ><path d="M73 72.1307 L73.4344 74.1245 L73.8689 78.5895 L74.3033 84.9428 L74.7377 92.9089 L75.1722 102.2926 L75.6066 112.9343 L76.041 124.6931 L76.4755 137.439 L76.9099 151.0478 L77.3443 165.3987 L77.7788 180.3719 L78.2132 195.8479 L78.6476 211.7061 L79.0821 227.8239 L79.5165 244.076 L79.951 260.3342 L80.3854 276.4663 L80.8198 292.3362 L81.2543 307.8037 L81.6887 322.7256 L82.1231 336.9596 L82.5576 350.378 L82.992 362.9272 L83.4264 374 L83.8609 374 L84.2953 374 L84.7297 374 L85.1642 374 L85.5986 374 L86.033 374 L86.4675 374 L86.9019 374 L87.3363 374 L87.7708 374 L88.2052 374 L88.6396 374 L89.0741 374 L89.5085 374 L89.9429 374 L90.3774 374 L90.8118 374 L91.2462 374 L91.6807 374 L92.1151 374 L92.5496 374 L92.984 374 L93.4184 374 L93.8529 374 L94.2873 374 L94.7217 374 L95.1562 374 L95.5906 374 L96.025 374 L96.4595 374 L96.8939 374 L97.3283 374 L97.7628 374 L98.1972 374 L98.6316 374 L99.0661 374 L99.5005 374 L99.9349 374 L100.3694 374 L100.8038 374 L101.2382 374 L101.6727 374 L102.1071 374 L102.5415 374 L102.976 374 L103.4104 374 L103.8448 374 L104.2793 374 L104.7137 374 L105.1481 374 L105.5826 374 L106.017 374 L106.4515 374 L106.8859 374 L107.3203 374 L107.7548 374 L108.1892 374 L108.6236 374 L109.0581 374 L109.4925 374 L109.9269 374 L110.3614 374 L110.7958 374 L111.2302 374 L111.6647 374 L112.0991 374 L112.5335 374 L112.968 374 L113.4024 374 L113.8368 374 L114.2713 374 L114.7057 374 L115.1401 374 L115.5746 374 L116.009 374 L116.4434 374 L116.8779 374 L117.3123 374 L117.7467 374 L118.1812 374 L118.6156 374 L119.05 374 L119.4845 374 L119.9189 374 L120.3534 374 L120.7878 374 L121.2222 374 L121.6567 374 L122.0911 374 L122.5255 374 L122.96 374 L123.3944 374 L123.8288 374 L124.2633 374 L124.6977 374 L125.1321 374 L125.5666 374 L126.001 374 L126.4354 374 L126.8699 374 L127.3043 374 L127.7387 374 L128.1732 374 L128.6076 374 L129.042 374 L129.4765 374 L129.9109 374 L130.3453 374 L130.7798 374 L131.2142 374 L131.6487 374 L132.0831 374 L132.5175 374 L132.952 374 L133.3864 374 L133.8208 374 L134.2553 374 L134.6897 374 L135.1241 374 L135.5586 374 L135.993 374 L136.4274 374 L136.8619 374 L137.2963 374 L137.7307 374 L138.1652 374 L138.5996 374 L139.034 374 L139.4685 374 L139.9029 374 L140.3373 374 L140.7718 374 L141.2062 374 L141.6406 374 L142.0751 374 L142.5095 374 L142.9439 374 L143.3784 374 L143.8128 374 L144.2473 374 L144.6817 374 L145.1161 374 L145.5506 374 L145.985 374 L146.4194 374 L146.8539 374 L147.2883 374 L147.7227 374 L148.1572 374 L148.5916 374 L149.026 374 L149.4605 374 L149.8949 374 L150.3293 374 L150.7638 374 L151.1982 374 L151.6326 374 L152.0671 374 L152.5015 374 L152.9359 374 L153.3704 374 L153.8048 374 L154.2392 374 L154.6737 374 L155.1081 374 L155.5425 374 L155.977 374 L156.4114 374 L156.8458 374 L157.2803 374 L157.7147 374 L158.1492 374 L158.5836 374 L159.018 374 L159.4525 374 L159.8869 374 L160.3213 374 L160.7558 374 L161.1902 374 L161.6246 374 L162.0591 374 L162.4935 374 L162.9279 374 L163.3624 374 L163.7968 374 L164.2312 374 L164.6657 374 L165.1001 374 L165.5345 374 L165.969 374 L166.4034 374 L166.8378 374 L167.2723 374 L167.7067 374 L168.1411 374 L168.5756 374 L169.01 374 L169.4444 374 L169.8789 374 L170.3133 374 L170.7477 374 L171.1822 374 L171.6166 374 L172.0511 374 L172.4855 374 L172.9199 374 L173.3544 374 L173.7888 374 L174.2232 374 L174.6577 374 L175.0921 374 L175.5265 374 L175.961 374 L176.3954 374 L176.8298 374 L177.2643 374 L177.6987 374 L178.1331 374 L178.5676 374 L179.002 374 L179.4364 374 L179.8709 374 L180.3053 374 L180.7397 374 L181.1742 374 L181.6086 374 L182.043 374 L182.4775 374 L182.9119 374 L183.3463 374 L183.7808 374 L184.2152 374 L184.6496 374 L185.0841 374 L185.5185 374 L185.953 374 L186.3874 374 L186.8218 374 L187.2563 374 L187.6907 374 L188.1251 374 L188.5596 374 L188.994 374 L189.4284 374 L189.8629 374 L190.2973 374 L190.7317 374 L191.1662 374 L191.6006 374 L192.035 374 L192.4695 374 L192.9039 374 L193.3383 374 L193.7728 374 L194.2072 374 L194.6416 374 L195.0761 374 L195.5105 374 L195.9449 374 L196.3794 374 L196.8138 374 L197.2482 374 L197.6827 374 L198.1171 374 L198.5516 374 L198.986 374 L199.4204 374 L199.8549 374 L200.2893 374 L200.7237 374 L201.1582 374 L201.5926 374 L202.027 374 L202.4615 374 L202.8959 374 L203.3303 374 L203.7648 374 L204.1992 374 L204.6336 374 L205.0681 374 L205.5025 374 L205.9369 374 L206.3714 374 L206.8058 374 L207.2402 374 L207.6747 374 L208.1091 374 L208.5435 374 L208.978 374 L209.4124 374 L209.8468 374 L210.2813 374 L210.7157 374 L211.1501 374 L211.5846 374 L212.019 374 L212.4534 374 L212.8879 374 L213.3223 374 L213.7567 374 L214.1912 374 L214.6256 374 L215.0601 374 L215.4945 374 L215.9289 374 L216.3634 374 L216.7978 374 L217.2322 374 L217.6667 374 L218.1011 374 L218.5355 374 L218.97 374 L219.4044 374 L219.8388 374 L220.2733 374 L220.7077 374 L221.1422 374 L221.5766 374 L222.011 374 L222.4454 374 L222.8799 374 L223.3143 374 L223.7487 374 L224.1832 374 L224.6176 374 L225.052 374 L225.4865 374 L225.9209 374 L226.3554 374 L226.7898 374 L227.2242 374 L227.6587 374 L228.0931 374 L228.5275 374 L228.962 374 L229.3964 374 L229.8308 374 L230.2653 374 L230.6997 374 L231.1341 374 L231.5686 374 L232.003 374 L232.4374 374 L232.8719 374 L233.3063 374 L233.7407 374 L234.1752 374 L234.6096 374 L235.044 374 L235.4785 374 L235.9129 374 L236.3474 374 L236.7818 374 L237.2162 374 L237.6507 374 L238.0851 374 L238.5195 374 L238.954 374 L239.3884 374 L239.8228 374 L240.2573 374 L240.6917 374 L241.1261 374 L241.5606 374 L241.995 374 L242.4294 374 L242.8639 374 L243.2983 374 L243.7327 374 L244.1672 374 L244.6016 374 L245.036 374 L245.4705 374 L245.9049 374 L246.3393 374 L246.7738 374 L247.2082 374 L247.6426 374 L248.0771 374 L248.5115 374 L248.9459 374 L249.3804 374 L249.8148 374 L250.2493 374 L250.6837 374 L251.1181 374 L251.5526 374 L251.987 374 L252.4214 374 L252.8559 374 L253.2903 374 L253.7247 374 L254.1591 374 L254.5936 374 L255.028 374 L255.4625 374 L255.8969 374 L256.3313 374 L256.7657 374 L257.2002 374 L257.6346 374 L258.0691 374 L258.5035 374 L258.938 374 L259.3724 374 L259.8068 374 L260.2412 374 L260.6757 374 L261.1101 374 L261.5446 374 L261.979 374 L262.4134 374 L262.8478 374 L263.2823 374 L263.7167 374 L264.1512 374 L264.5856 374 L265.02 374 L265.4545 374 L265.8889 374 L266.3233 374 L266.7578 374 L267.1922 374 L267.6266 374 L268.0611 374 L268.4955 374 L268.9299 374 L269.3643 374 L269.7988 374 L270.2332 374 L270.6677 374 L271.1021 374 L271.5365 374 L271.971 374 L272.4054 374 L272.8398 374 L273.2743 374 L273.7087 374 L274.1431 374 L274.5776 374 L275.012 374 L275.4464 374 L275.8809 374 L276.3153 374 L276.7498 374 L277.1842 374 L277.6186 374 L278.053 374 L278.4875 374 L278.9219 374 L279.3564 374 L279.7908 374 L280.2252 374 L280.6597 374 L281.0941 374 L281.5285 374 L281.963 374 L282.3974 374 L282.8318 374 L283.2663 374 L283.7007 374 L284.1351 374 L284.5696 374 L285.004 374 L285.4384 374 L285.8729 374 L286.3073 374 L286.7417 374 L287.1762 374 L287.6106 374 L288.045 374 L288.4795 374 L288.9139 374 L289.3484 374 L289.7828 374 L290.2172 374 L290.6516 374 L291.0861 374 L291.5205 374 L291.955 374 L292.3894 374 L292.8238 374 L293.2583 374 L293.6927 374 L294.1271 374 L294.5616 374 L294.996 374 L295.4304 374 L295.8649 374 L296.2993 374 L296.7337 374 L297.1682 374 L297.6026 374 L298.037 374 L298.4715 374 L298.9059 374 L299.3403 374 L299.7748 374 L300.2092 374 L300.6436 374 L301.0781 374 L301.5125 374 L301.9469 374 L302.3814 374 L302.8158 374 L303.2502 374 L303.6847 374 L304.1191 374 L304.5536 374 L304.988 374 L305.4224 374 L305.8568 374 L306.2913 374 L306.7257 374 L307.1602 374 L307.5946 374 L308.029 374 L308.4634 374 L308.8979 374 L309.3323 374 L309.7668 374 L310.2012 374 L310.6356 374 L311.0701 374 L311.5045 374 L311.939 374 L312.3734 374 L312.8078 374 L313.2422 374 L313.6767 374 L314.1111 374 L314.5456 374 L314.98 374 L315.4144 374 L315.8488 374 L316.2833 374 L316.7177 374 L317.1522 374 L317.5866 374 L318.021 374 L318.4555 374 L318.8899 374 L319.3243 374 L319.7588 374 L320.1932 374 L320.6276 374 L321.0621 374 L321.4965 374 L321.9309 374 L322.3654 374 L322.7998 374 L323.2343 374 L323.6687 374 L324.1031 374 L324.5375 374 L324.972 374 L325.4064 374 L325.8409 374 L326.2753 374 L326.7097 374 L327.1441 374 L327.5786 374 L328.013 374 L328.4474 374 L328.8819 374 L329.3163 374 L329.7508 374 L330.1852 374 L330.6196 374 L331.054 374 L331.4885 374 L331.9229 374 L332.3574 374 L332.7918 374 L333.2262 374 L333.6607 374 L334.0951 374 L334.5295 374 L334.964 374 L335.3984 374 L335.8328 374 L336.2673 374 L336.7017 374 L337.1361 374 L337.5706 374 L338.005 374 L338.4394 374 L338.8739 374 L339.3083 374 L339.7427 374 L340.1772 374 L340.6116 374 L341.0461 374 L341.4805 374 L341.9149 374 L342.3493 374 L342.7838 374 L343.2182 374 L343.6526 374 L344.0871 374 L344.5215 374 L344.956 374 L345.3904 374 L345.8248 374 L346.2592 374 L346.6937 374 L347.1281 374 L347.5626 374 L347.997 374 L348.4314 374 L348.8658 374 L349.3003 374 L349.7347 374 L350.1692 374 L350.6036 374 L351.038 374 L351.4725 374 L351.9069 374 L352.3413 374 L352.7758 374 L353.2102 374 L353.6446 374 L354.0791 374 L354.5135 374 L354.9479 374 L355.3824 374 L355.8168 374 L356.2513 374 L356.6857 374 L357.1201 374 L357.5546 374 L357.989 374 L358.4234 374 L358.8579 374 L359.2923 374 L359.7267 374 L360.1612 374 L360.5956 374 L361.03 374 L361.4645 374 L361.8989 374 L362.3333 374 L362.7678 374 L363.2022 374 L363.6367 374 L364.0711 374 L364.5055 374 L364.9399 374 L365.3744 374 L365.8088 374 L366.2433 374 L366.6777 374 L367.1121 374 L367.5465 374 L367.981 374 L368.4154 374 L368.8499 374 L369.2843 374 L369.7187 374 L370.1532 374 L370.5876 374 L371.022 374 L371.4565 374 L371.8909 374 L372.3253 374 L372.7598 374 L373.1942 374 L373.6286 374 L374.0631 374 L374.4975 374 L374.9319 374 L375.3664 374 L375.8008 374 L376.2352 374 L376.6697 374 L377.1041 374 L377.5385 374 L377.973 374 L378.4074 374 L378.8418 374 L379.2763 374 L379.7107 374 L380.1451 374 L380.5796 374 L381.014 374 L381.4485 374 L381.8829 374 L382.3173 374 L382.7517 374 L383.1862 374 L383.6206 374 L384.0551 374 L384.4895 374 L384.9239 374 L385.3584 374 L385.7928 374 L386.2272 374 L386.6617 374 L387.0961 374 L387.5305 374 L387.965 374 L388.3994 374 L388.8338 374 L389.2682 374 L389.7027 374 L390.1371 374 L390.5716 374 L391.006 374 L391.4404 374 L391.8749 374 L392.3093 374 L392.7437 374 L393.1782 374 L393.6126 374 L394.047 374 L394.4815 374 L394.9159 374 L395.3503 374 L395.7848 374 L396.2192 374 L396.6537 374 L397.0881 374 L397.5225 374 L397.9569 374 L398.3914 374 L398.8258 374 L399.2603 374 L399.6947 374 L400.1292 374 L400.5636 374 L400.998 374 L401.4324 374 L401.8669 374 L402.3013 374 L402.7357 374 L403.1702 374 L403.6046 374 L404.0391 374 L404.4735 374 L404.9079 374 L405.3423 374 L405.7768 374 L406.2112 374 L406.6457 374 L407.0801 374 L407.5145 374 L407.9489 374 L408.3834 374 L408.8178 374 L409.2523 374 L409.6867 374 L410.1211 374 L410.5556 374 L410.99 374 L411.4244 374 L411.8589 374 L412.2933 374 L412.7277 374 L413.1622 374 L413.5966 374 L414.031 374 L414.4655 374 L414.8999 374 L415.3344 374 L415.7688 374 L416.2032 374 L416.6376 374 L417.0721 374 L417.5065 374 L417.9409 374 L418.3754 374 L418.8098 374 L419.2442 374 L419.6787 374 L420.1131 374 L420.5475 374 L420.982 374 L421.4164 374 L421.8509 374 L422.2853 374 L422.7197 374 L423.1541 374 L423.5886 374 L424.023 374 L424.4575 374 L424.8919 374 L425.3263 374 L425.7607 374 L426.1952 374 L426.6296 374 L427.0641 374 L427.4985 374 L427.9329 374 L428.3674 374 L428.8018 374 L429.2362 374 L429.6707 374 L430.1051 374 L430.5395 374 L430.974 374 L431.4084 374 L431.8428 374 L432.2773 374 L432.7117 374 L433.1461 374 L433.5806 374 L434.015 374 L434.4494 374 L434.8839 374 L435.3183 374 L435.7527 374 L436.1872 374 L436.6216 374 L437.0561 374 L437.4905 374 L437.9249 374 L438.3593 374 L438.7938 374 L439.2282 374 L439.6627 374 L440.0971 374 L440.5315 374 L440.9659 374 L441.4004 374 L441.8348 374 L442.2693 374 L442.7037 374 L443.1382 374 L443.5726 374 L444.007 374 L444.4415 374 L444.8759 374 L445.3103 374 L445.7448 374 L446.1792 374 L446.6136 374 L447.0481 374 L447.4825 374 L447.9169 374 L448.3513 374 L448.7858 374 L449.2202 374 L449.6547 374 L450.0891 374 L450.5235 374 L450.958 374 L451.3924 374 L451.8268 374 L452.2613 374 L452.6957 374 L453.1301 374 L453.5646 374 L453.999 374 L454.4334 374 L454.8679 374 L455.3023 374 L455.7368 374 L456.1712 374 L456.6056 374 L457.04 374 L457.4745 374 L457.9089 374 L458.3434 374 L458.7778 374 L459.2122 374 L459.6466 374 L460.0811 374 L460.5155 374 L460.95 374 L461.3844 374 L461.8188 374 L462.2533 374 L462.6877 374 L463.1221 374 L463.5565 374 L463.991 374 L464.4254 374 L464.8599 374 L465.2943 374 L465.7287 374 L466.1631 374 L466.5976 374 L467.032 374 L467.4665 374 L467.9009 374 L468.3353 374 L468.7698 374 L469.2042 374 L469.6386 374 L470.0731 374 L470.5075 374 L470.9419 374 L471.3764 374 L471.8108 374 L472.2452 374 L472.6797 374 L473.1141 374 L473.5486 374 L473.983 374 L474.4174 374 L474.8518 374 L475.2863 374 L475.7207 374 L476.1552 374 L476.5896 374 L477.024 374 L477.4584 374 L477.8929 374 L478.3273 374 L478.7617 374 L479.1962 374 L479.6306 374 L480.0651 374 L480.4995 374 L480.9339 374 L481.3683 374 L481.8028 374 L482.2372 374 L482.6717 374 L483.1061 374 L483.5405 374 L483.975 374 L484.4094 374 L484.8438 374 L485.2783 374 L485.7127 374 L486.1472 374 L486.5816 374 L487.016 374 L487.4505 374 L487.8849 374 L488.3193 374 L488.7538 374 L489.1882 374 L489.6226 374 L490.0571 374 L490.4915 374 L490.9259 374 L491.3604 374 L491.7948 374 L492.2292 374 L492.6637 374 L493.0981 374 L493.5325 374 L493.967 374 L494.4014 374 L494.8358 374 L495.2703 374 L495.7047 374 L496.1392 374 L496.5736 374 L497.008 374 L497.4424 374 L497.8769 374 L498.3113 374 L498.7458 374 L499.1802 374 L499.6146 374 L500.049 374 L500.4835 374 L500.9179 374 L501.3524 374 L501.7868 374 L502.2212 374 L502.6557 374 L503.0901 374 L503.5245 374 L503.959 374 L504.3934 374 L504.8278 374 L505.2623 374 L505.6967 374 L506.1311 374 L506.5656 374 L507 374" style="fill:none; fill-rule:evenodd;"
    /></g
  ></g
></svg
>
