<?xml version="1.0"?>
<!DOCTYPE svg PUBLIC '-//W3C//DTD SVG 1.0//EN'
          'http://www.w3.org/TR/2001/REC-SVG-20010904/DTD/svg10.dtd'>
<svg xmlns:xlink="http://www.w3.org/1999/xlink" style="fill-opacity:1; color-rendering:auto; color-interpolation:auto; text-rendering:auto; stroke:black; stroke-linecap:square; stroke-miterlimit:10; shape-rendering:auto; stroke-opacity:1; fill:black; stroke-dasharray:none; font-weight:normal; stroke-width:1; font-family:'Dialog'; font-style:normal; stroke-linejoin:miter; font-size:12px; stroke-dashoffset:0; image-rendering:auto;" width="560" height="420" xmlns="http://www.w3.org/2000/svg"
><!--Generated by the Batik Graphics2D SVG Generator--><defs id="genericDefs"
  /><g
  ><defs id="defs1"
    ><clipPath clipPathUnits="userSpaceOnUse" id="clipPath1"
      ><path d="M0 0 L560 0 L560 420 L0 420 L0 0 Z"
      /></clipPath
      ><font horiz-adv-x="75.0" id="font1"
      ><font-face ascent="100.53711" descent="21.972656" units-per-em="100" style="font-style:normal; font-family:SansSerif; font-weight:normal;"
        /><missing-glyph horiz-adv-x="75.0" d="M12.5 0 L12.5 62.5 L62.5 62.5 L62.5 0 L12.5 0 ZM14.0625 1.5625 L60.9375 1.5625 L60.9375 60.9375 L14.0625 60.9375 L14.0625 1.5625 Z"
        /><glyph unicode="0" horiz-adv-x="55.615234" d="M4.1562 35.2969 Q4.1562 48 6.7656 55.7422 Q9.375 63.4844 14.5234 67.6797 Q19.6719 71.875 27.4844 71.875 Q33.25 71.875 37.5938 69.5547 Q41.9375 67.2344 44.7734 62.8672 Q47.6094 58.5 49.2188 52.2266 Q50.8281 45.9531 50.8281 35.2969 Q50.8281 22.7031 48.2422 14.9688 Q45.6562 7.2344 40.5078 3.0078 Q35.3594 -1.2188 27.4844 -1.2188 Q17.1406 -1.2188 11.2344 6.2031 Q4.1562 15.1406 4.1562 35.2969 ZM13.1875 35.2969 Q13.1875 17.6719 17.3125 11.8359 Q21.4375 6 27.4844 6 Q33.5469 6 37.6719 11.8594 Q41.7969 17.7188 41.7969 35.2969 Q41.7969 52.9844 37.6719 58.7891 Q33.5469 64.5938 27.3906 64.5938 Q21.3438 64.5938 17.7188 59.4688 Q13.1875 52.9375 13.1875 35.2969 Z"
        /><glyph unicode="5" horiz-adv-x="55.615234" d="M4.1562 18.75 L13.375 19.5312 Q14.4062 12.7969 18.1406 9.3984 Q21.875 6 27.1562 6 Q33.5 6 37.8906 10.7891 Q42.2812 15.5781 42.2812 23.4844 Q42.2812 31 38.0625 35.3516 Q33.8438 39.7031 27 39.7031 Q22.75 39.7031 19.3359 37.7734 Q15.9219 35.8438 13.9688 32.7656 L5.7188 33.8438 L12.6406 70.6094 L48.25 70.6094 L48.25 62.2031 L19.6719 62.2031 L15.8281 42.9688 Q22.2656 47.4688 29.3438 47.4688 Q38.7188 47.4688 45.1641 40.9688 Q51.6094 34.4688 51.6094 24.2656 Q51.6094 14.5469 45.9531 7.4688 Q39.0625 -1.2188 27.1562 -1.2188 Q17.3906 -1.2188 11.2109 4.25 Q5.0312 9.7188 4.1562 18.75 Z"
        /><glyph unicode="1" horiz-adv-x="55.615234" d="M37.25 0 L28.4688 0 L28.4688 56 Q25.2969 52.9844 20.1406 49.9531 Q14.9844 46.9219 10.8906 45.4062 L10.8906 53.9062 Q18.2656 57.375 23.7812 62.3047 Q29.2969 67.2344 31.5938 71.875 L37.25 71.875 L37.25 0 Z"
        /><glyph unicode="2" horiz-adv-x="55.615234" d="M50.3438 8.4531 L50.3438 0 L3.0312 0 Q2.9375 3.1719 4.0469 6.1094 Q5.8594 10.9375 9.8359 15.625 Q13.8125 20.3125 21.3438 26.4688 Q33.0156 36.0312 37.1172 41.625 Q41.2188 47.2188 41.2188 52.2031 Q41.2188 57.4219 37.4766 61.0078 Q33.7344 64.5938 27.7344 64.5938 Q21.3906 64.5938 17.5781 60.7891 Q13.7656 56.9844 13.7188 50.25 L4.6875 51.1719 Q5.6094 61.2812 11.6641 66.5781 Q17.7188 71.875 27.9375 71.875 Q38.2344 71.875 44.2422 66.1641 Q50.25 60.4531 50.25 52 Q50.25 47.7031 48.4922 43.5547 Q46.7344 39.4062 42.6562 34.8125 Q38.5781 30.2188 29.1094 22.2188 Q21.1875 15.5781 18.9453 13.2109 Q16.7031 10.8438 15.2344 8.4531 L50.3438 8.4531 Z"
        /><glyph unicode="3" horiz-adv-x="55.615234" d="M4.2031 18.8906 L12.9844 20.0625 Q14.5 12.5938 18.1406 9.2969 Q21.7812 6 27 6 Q33.2031 6 37.4766 10.2969 Q41.75 14.5938 41.75 20.9531 Q41.75 27 37.7969 30.9297 Q33.8438 34.8594 27.7344 34.8594 Q25.25 34.8594 21.5312 33.8906 L22.5156 41.6094 Q23.3906 41.5 23.9219 41.5 Q29.5469 41.5 34.0391 44.4297 Q38.5312 47.3594 38.5312 53.4688 Q38.5312 58.2969 35.2578 61.4766 Q31.9844 64.6562 26.8125 64.6562 Q21.6875 64.6562 18.2656 61.4297 Q14.8438 58.2031 13.875 51.7656 L5.0781 53.3281 Q6.6875 62.1562 12.3984 67.0156 Q18.1094 71.875 26.6094 71.875 Q32.4688 71.875 37.3984 69.3594 Q42.3281 66.8438 44.9453 62.5 Q47.5625 58.1562 47.5625 53.2656 Q47.5625 48.6406 45.0703 44.8281 Q42.5781 41.0156 37.7031 38.7656 Q44.0469 37.3125 47.5625 32.6953 Q51.0781 28.0781 51.0781 21.1406 Q51.0781 11.7656 44.2422 5.25 Q37.4062 -1.2656 26.9531 -1.2656 Q17.5312 -1.2656 11.3047 4.3516 Q5.0781 9.9688 4.2031 18.8906 Z"
        /><glyph unicode="]" horiz-adv-x="27.783203" d="M21.2969 -19.875 L1.9062 -19.875 L1.9062 -12.5938 L12.5 -12.5938 L12.5 64.3125 L1.9062 64.3125 L1.9062 71.5781 L21.2969 71.5781 L21.2969 -19.875 Z"
        /><glyph unicode="K" horiz-adv-x="66.69922" d="M7.3281 0 L7.3281 71.5781 L16.7969 71.5781 L16.7969 36.0781 L52.3438 71.5781 L65.1875 71.5781 L35.1562 42.5781 L66.5 0 L54 0 L28.5156 36.2344 L16.7969 24.8125 L16.7969 0 L7.3281 0 Z"
        /><glyph unicode="[" horiz-adv-x="27.783203" d="M6.7812 -19.875 L6.7812 71.5781 L26.1719 71.5781 L26.1719 64.3125 L15.5781 64.3125 L15.5781 -12.5938 L26.1719 -12.5938 L26.1719 -19.875 L6.7812 -19.875 Z"
        /><glyph unicode=" " horiz-adv-x="27.783203" d=""
        /><glyph unicode="T" horiz-adv-x="61.083984" d="M25.9219 0 L25.9219 63.1406 L2.3438 63.1406 L2.3438 71.5781 L59.0781 71.5781 L59.0781 63.1406 L35.4062 63.1406 L35.4062 0 L25.9219 0 Z"
        /><glyph unicode="." horiz-adv-x="27.783203" d="M9.0781 0 L9.0781 10.0156 L19.0938 10.0156 L19.0938 0 L9.0781 0 Z"
        /><glyph unicode="m" horiz-adv-x="83.30078" d="M6.5938 0 L6.5938 51.8594 L14.4531 51.8594 L14.4531 44.5781 Q16.8906 48.3906 20.9453 50.7109 Q25 53.0312 30.1719 53.0312 Q35.9375 53.0312 39.625 50.6406 Q43.3125 48.25 44.8281 43.9531 Q50.9844 53.0312 60.8438 53.0312 Q68.5625 53.0312 72.7109 48.7578 Q76.8594 44.4844 76.8594 35.5938 L76.8594 0 L68.1094 0 L68.1094 32.6719 Q68.1094 37.9375 67.2578 40.2578 Q66.4062 42.5781 64.1641 43.9922 Q61.9219 45.4062 58.8906 45.4062 Q53.4219 45.4062 49.8047 41.7734 Q46.1875 38.1406 46.1875 30.125 L46.1875 0 L37.4062 0 L37.4062 33.6875 Q37.4062 39.5469 35.2578 42.4766 Q33.1094 45.4062 28.2188 45.4062 Q24.5156 45.4062 21.3672 43.4531 Q18.2188 41.5 16.7969 37.7422 Q15.375 33.9844 15.375 26.9062 L15.375 0 L6.5938 0 Z"
        /><glyph unicode="*" horiz-adv-x="38.916016" d="M3.125 58.4531 L5.375 65.375 Q13.1406 62.6406 16.6562 60.6406 Q15.7188 69.4844 15.6719 72.7969 L22.75 72.7969 Q22.6094 67.9688 21.625 60.6875 Q26.6562 63.2344 33.1562 65.375 L35.4062 58.4531 Q29.2031 56.3906 23.25 55.7188 Q26.2188 53.125 31.6406 46.4844 L25.7812 42.3281 Q22.9531 46.1875 19.0938 52.8281 Q15.4844 45.9531 12.75 42.3281 L6.9844 46.4844 Q12.6406 53.4688 15.0938 55.7188 Q8.7969 56.9375 3.125 58.4531 Z"
        /><glyph unicode="(" horiz-adv-x="33.30078" d="M23.3906 -21.0469 Q16.1094 -11.8594 11.0859 0.4453 Q6.0625 12.75 6.0625 25.9219 Q6.0625 37.5469 9.8125 48.1875 Q14.2031 60.5469 23.3906 72.7969 L29.6875 72.7969 Q23.7812 62.6406 21.875 58.2969 Q18.8906 51.5625 17.1875 44.2344 Q15.0938 35.1094 15.0938 25.875 Q15.0938 2.3906 29.6875 -21.0469 L23.3906 -21.0469 Z"
        /><glyph unicode="/" horiz-adv-x="27.783203" d="M0 -1.2188 L20.75 72.7969 L27.7812 72.7969 L7.0781 -1.2188 L0 -1.2188 Z"
        /><glyph unicode="J" horiz-adv-x="50.0" d="M2.875 20.3125 L11.4219 21.4844 Q11.7656 13.2812 14.5 10.2578 Q17.2344 7.2344 22.0781 7.2344 Q25.6406 7.2344 28.2266 8.8672 Q30.8125 10.5 31.7891 13.3047 Q32.7656 16.1094 32.7656 22.2656 L32.7656 71.5781 L42.2344 71.5781 L42.2344 22.7969 Q42.2344 13.8125 40.0625 8.8828 Q37.8906 3.9531 33.1797 1.3672 Q28.4688 -1.2188 22.125 -1.2188 Q12.7031 -1.2188 7.6953 4.2031 Q2.6875 9.625 2.875 20.3125 Z"
        /><glyph unicode="v" horiz-adv-x="50.0" d="M21 0 L1.2656 51.8594 L10.5469 51.8594 L21.6875 20.7969 Q23.4844 15.7656 25 10.3594 Q26.1719 14.4531 28.2656 20.2188 L39.7969 51.8594 L48.8281 51.8594 L29.2031 0 L21 0 Z"
        /><glyph unicode="C" horiz-adv-x="72.2168" d="M58.7969 25.0938 L68.2656 22.7031 Q65.2812 11.0312 57.5469 4.9062 Q49.8125 -1.2188 38.625 -1.2188 Q27.0469 -1.2188 19.7969 3.4922 Q12.5469 8.2031 8.7656 17.1406 Q4.9844 26.0781 4.9844 36.3281 Q4.9844 47.5156 9.2578 55.8359 Q13.5312 64.1562 21.4141 68.4766 Q29.2969 72.7969 38.7656 72.7969 Q49.5156 72.7969 56.8359 67.3281 Q64.1562 61.8594 67.0469 51.9531 L57.7188 49.75 Q55.2188 57.5625 50.4844 61.1328 Q45.75 64.7031 38.5781 64.7031 Q30.3281 64.7031 24.7812 60.7422 Q19.2344 56.7812 16.9922 50.1172 Q14.75 43.4531 14.75 36.375 Q14.75 27.25 17.4062 20.4375 Q20.0625 13.625 25.6797 10.2578 Q31.2969 6.8906 37.8438 6.8906 Q45.7969 6.8906 51.3203 11.4766 Q56.8438 16.0625 58.7969 25.0938 Z"
        /><glyph unicode=")" horiz-adv-x="33.30078" d="M12.3594 -21.0469 L6.0625 -21.0469 Q20.6562 2.3906 20.6562 25.875 Q20.6562 35.0625 18.5625 44.0938 Q16.8906 51.4219 13.9219 58.1562 Q12.0156 62.5469 6.0625 72.7969 L12.3594 72.7969 Q21.5312 60.5469 25.9219 48.1875 Q29.6875 37.5469 29.6875 25.9219 Q29.6875 12.75 24.6328 0.4453 Q19.5781 -11.8594 12.3594 -21.0469 Z"
        /><glyph unicode="6" horiz-adv-x="55.615234" d="M49.75 54.0469 L41.0156 53.375 Q39.8438 58.5469 37.7031 60.8906 Q34.125 64.6562 28.9062 64.6562 Q24.7031 64.6562 21.5312 62.3125 Q17.3906 59.2812 14.9922 53.4688 Q12.5938 47.6562 12.5 36.9219 Q15.6719 41.75 20.2656 44.0938 Q24.8594 46.4375 29.8906 46.4375 Q38.6719 46.4375 44.8516 39.9688 Q51.0312 33.5 51.0312 23.25 Q51.0312 16.5 48.125 10.7188 Q45.2188 4.9375 40.1406 1.8594 Q35.0625 -1.2188 28.6094 -1.2188 Q17.625 -1.2188 10.6953 6.8594 Q3.7656 14.9375 3.7656 33.5 Q3.7656 54.25 11.4219 63.6719 Q18.1094 71.875 29.4375 71.875 Q37.8906 71.875 43.2891 67.1406 Q48.6875 62.4062 49.75 54.0469 ZM13.875 23.1875 Q13.875 18.6562 15.7969 14.5078 Q17.7188 10.3594 21.1875 8.1797 Q24.6562 6 28.4688 6 Q34.0312 6 38.0391 10.4922 Q42.0469 14.9844 42.0469 22.7031 Q42.0469 30.125 38.0859 34.3984 Q34.125 38.6719 28.125 38.6719 Q22.1719 38.6719 18.0234 34.3984 Q13.875 30.125 13.875 23.1875 Z"
      /></font
      ><font horiz-adv-x="75.0" id="font2"
      ><font-face ascent="65.42969" descent="22.558594" units-per-em="100" style="font-style:normal; font-family:mwb_cmsy10; font-weight:normal;"
        /><missing-glyph horiz-adv-x="75.0" d="M12.5 0 L12.5 62.5 L62.5 62.5 L62.5 0 L12.5 0 ZM60.8906 1.6094 L60.8906 60.8906 L14.1094 60.8906 L14.1094 1.6094 L60.8906 1.6094 Z"
        /><glyph unicode="#" horiz-adv-x="77.68555" d="M14.7031 2.875 Q14.7031 3.6562 15.1875 4.2969 L35.9844 25 L15.1875 45.7969 Q14.7031 46.2969 14.7031 47.125 Q14.7031 47.8594 15.2891 48.4922 Q15.875 49.125 16.7031 49.125 Q17.3906 49.125 18.2188 48.4844 L38.9219 27.7812 L59.5156 48.4844 Q60.3594 49.125 60.9844 49.125 Q61.8125 49.125 62.3984 48.5391 Q62.9844 47.9531 62.9844 47.125 Q62.9844 46.2969 62.5 45.7969 L41.7031 25 L62.5 4.2969 Q62.9844 3.6562 62.9844 2.875 Q62.9844 2.0469 62.3984 1.4609 Q61.8125 0.875 60.9844 0.875 Q60.25 0.875 59.5156 1.6094 L38.9219 22.2188 L18.2188 1.6094 Q17.4844 0.875 16.7031 0.875 Q15.875 0.875 15.2891 1.5156 Q14.7031 2.1562 14.7031 2.875 Z"
      /></font
      ><font horiz-adv-x="75.0" id="font3"
      ><font-face ascent="100.53711" descent="21.972656" units-per-em="100" style="font-style:normal; font-family:SansSerif; font-weight:bold;"
        /><missing-glyph horiz-adv-x="75.0" d="M12.5 0 L12.5 62.5 L62.5 62.5 L62.5 0 L12.5 0 ZM14.0625 1.5625 L60.9375 1.5625 L60.9375 60.9375 L14.0625 60.9375 L14.0625 1.5625 Z"
        /><glyph unicode="A" horiz-adv-x="72.2168" d="M71.8281 0 L56.1094 0 L49.8594 16.2656 L21.2344 16.2656 L15.3281 0 L0 0 L27.875 71.5781 L43.1719 71.5781 L71.8281 0 ZM45.2188 28.3281 L35.3594 54.8906 L25.6875 28.3281 L45.2188 28.3281 Z"
        /><glyph unicode="v" horiz-adv-x="55.615234" d="M21.4375 0 L0.5312 51.8594 L14.9375 51.8594 L24.7031 25.3906 L27.5469 16.5469 Q28.6562 19.9219 28.9531 21 Q29.6406 23.1875 30.4219 25.3906 L40.2812 51.8594 L54.3906 51.8594 L33.7969 0 L21.4375 0 Z"
        /><glyph unicode="C" horiz-adv-x="72.2168" d="M53.0781 26.3125 L67.0938 21.875 Q63.875 10.1562 56.375 4.4688 Q48.875 -1.2188 37.3594 -1.2188 Q23.0938 -1.2188 13.9141 8.5234 Q4.7344 18.2656 4.7344 35.1562 Q4.7344 53.0312 13.9609 62.9141 Q23.1875 72.7969 38.2344 72.7969 Q51.375 72.7969 59.5781 65.0469 Q64.4531 60.4531 66.8906 51.8594 L52.5938 48.4375 Q51.3125 54 47.2891 57.2266 Q43.2656 60.4531 37.5 60.4531 Q29.5469 60.4531 24.5859 54.7422 Q19.625 49.0312 19.625 36.2344 Q19.625 22.6562 24.5078 16.8984 Q29.3906 11.1406 37.2031 11.1406 Q42.9688 11.1406 47.1172 14.7969 Q51.2656 18.4531 53.0781 26.3125 Z"
        /><glyph unicode="f" horiz-adv-x="33.30078" d="M1.1719 51.8594 L8.7969 51.8594 L8.7969 55.7656 Q8.7969 62.3125 10.1875 65.5312 Q11.5781 68.75 15.3125 70.7734 Q19.0469 72.7969 24.75 72.7969 Q30.6094 72.7969 36.2344 71.0469 L34.375 61.4688 Q31.1094 62.25 28.0781 62.25 Q25.0938 62.25 23.8047 60.8594 Q22.5156 59.4688 22.5156 55.5156 L22.5156 51.8594 L32.7656 51.8594 L32.7656 41.0625 L22.5156 41.0625 L22.5156 0 L8.7969 0 L8.7969 41.0625 L1.1719 41.0625 L1.1719 51.8594 Z"
        /><glyph unicode="o" horiz-adv-x="61.083984" d="M4 26.6562 Q4 33.5 7.375 39.8984 Q10.75 46.2969 16.9219 49.6641 Q23.0938 53.0312 30.7188 53.0312 Q42.4844 53.0312 50 45.3906 Q57.5156 37.75 57.5156 26.0781 Q57.5156 14.3125 49.9219 6.5703 Q42.3281 -1.1719 30.8125 -1.1719 Q23.6875 -1.1719 17.2188 2.0547 Q10.75 5.2812 7.375 11.5 Q4 17.7188 4 26.6562 ZM18.0625 25.9219 Q18.0625 18.2188 21.7266 14.1172 Q25.3906 10.0156 30.7656 10.0156 Q36.1406 10.0156 39.7734 14.1172 Q43.4062 18.2188 43.4062 26.0312 Q43.4062 33.6406 39.7734 37.7422 Q36.1406 41.8438 30.7656 41.8438 Q25.3906 41.8438 21.7266 37.7422 Q18.0625 33.6406 18.0625 25.9219 Z"
        /><glyph unicode="l" horiz-adv-x="27.783203" d="M7.1719 0 L7.1719 71.5781 L20.9062 71.5781 L20.9062 0 L7.1719 0 Z"
        /><glyph unicode="p" horiz-adv-x="61.083984" d="M6.7812 51.8594 L19.5781 51.8594 L19.5781 44.2344 Q22.0781 48.1406 26.3203 50.5859 Q30.5625 53.0312 35.75 53.0312 Q44.7812 53.0312 51.0781 45.9531 Q57.375 38.875 57.375 26.2188 Q57.375 13.2344 51.0234 6.0312 Q44.6719 -1.1719 35.6406 -1.1719 Q31.3438 -1.1719 27.8516 0.5391 Q24.3594 2.25 20.5156 6.3906 L20.5156 -19.7344 L6.7812 -19.7344 L6.7812 51.8594 ZM20.3594 26.8125 Q20.3594 18.0625 23.8281 13.8906 Q27.2969 9.7188 32.2812 9.7188 Q37.0625 9.7188 40.2344 13.5547 Q43.4062 17.3906 43.4062 26.125 Q43.4062 34.2812 40.1328 38.2344 Q36.8594 42.1875 32.0312 42.1875 Q27 42.1875 23.6797 38.3047 Q20.3594 34.4219 20.3594 26.8125 Z"
        /><glyph unicode=" " horiz-adv-x="27.783203" d=""
        /><glyph unicode="b" horiz-adv-x="61.083984" d="M6.5938 0 L6.5938 71.5781 L20.3125 71.5781 L20.3125 45.7969 Q26.6562 53.0312 35.3594 53.0312 Q44.8281 53.0312 51.0312 46.1719 Q57.2344 39.3125 57.2344 26.4688 Q57.2344 13.1875 50.9062 6.0078 Q44.5781 -1.1719 35.5469 -1.1719 Q31.1094 -1.1719 26.7891 1.0469 Q22.4688 3.2656 19.3438 7.625 L19.3438 0 L6.5938 0 ZM20.2188 27.0469 Q20.2188 19 22.75 15.1406 Q26.3125 9.6719 32.2344 9.6719 Q36.7656 9.6719 39.9688 13.5547 Q43.1719 17.4375 43.1719 25.7812 Q43.1719 34.6719 39.9453 38.6016 Q36.7188 42.5312 31.6875 42.5312 Q26.7656 42.5312 23.4922 38.6953 Q20.2188 34.8594 20.2188 27.0469 Z"
        /><glyph unicode="L" horiz-adv-x="61.083984" d="M7.6719 0 L7.6719 71 L22.125 71 L22.125 12.0625 L58.0625 12.0625 L58.0625 0 L7.6719 0 Z"
        /><glyph unicode="t" horiz-adv-x="33.30078" d="M30.9531 51.8594 L30.9531 40.9219 L21.5781 40.9219 L21.5781 20.0156 Q21.5781 13.6719 21.8516 12.625 Q22.125 11.5781 23.0781 10.8906 Q24.0312 10.2031 25.3906 10.2031 Q27.2969 10.2031 30.9062 11.5312 L32.0781 0.875 Q27.2969 -1.1719 21.2344 -1.1719 Q17.5312 -1.1719 14.5547 0.0703 Q11.5781 1.3125 10.1875 3.2969 Q8.7969 5.2812 8.25 8.6406 Q7.8125 11.0312 7.8125 18.3125 L7.8125 40.9219 L1.5156 40.9219 L1.5156 51.8594 L7.8125 51.8594 L7.8125 62.1562 L21.5781 70.1719 L21.5781 51.8594 L30.9531 51.8594 Z"
        /><glyph unicode="a" horiz-adv-x="55.615234" d="M17.4375 36.0312 L4.9844 38.2812 Q7.0781 45.7969 12.2031 49.4141 Q17.3281 53.0312 27.4375 53.0312 Q36.625 53.0312 41.1172 50.8594 Q45.6094 48.6875 47.4375 45.3438 Q49.2656 42 49.2656 33.0625 L49.125 17.0469 Q49.125 10.2031 49.7812 6.9609 Q50.4375 3.7188 52.25 0 L38.6719 0 Q38.1406 1.375 37.3594 4.0469 Q37.0156 5.2812 36.8594 5.6719 Q33.3438 2.25 29.3438 0.5391 Q25.3438 -1.1719 20.7969 -1.1719 Q12.7969 -1.1719 8.1797 3.1719 Q3.5625 7.5156 3.5625 14.1562 Q3.5625 18.5625 5.6641 22 Q7.7656 25.4375 11.5469 27.2734 Q15.3281 29.1094 22.4688 30.4688 Q32.0781 32.2812 35.7969 33.8438 L35.7969 35.2031 Q35.7969 39.1562 33.8438 40.8438 Q31.8906 42.5312 26.4688 42.5312 Q22.7969 42.5312 20.75 41.0938 Q18.7031 39.6562 17.4375 36.0312 ZM35.7969 24.9062 Q33.1562 24.0312 27.4453 22.8047 Q21.7344 21.5781 19.9688 20.4062 Q17.2812 18.5 17.2812 15.5781 Q17.2812 12.7031 19.4297 10.6016 Q21.5781 8.5 24.9062 8.5 Q28.6094 8.5 31.9844 10.9375 Q34.4688 12.7969 35.25 15.4844 Q35.7969 17.2344 35.7969 22.1719 L35.7969 24.9062 Z"
        /><glyph unicode="M" horiz-adv-x="83.30078" d="M7.0781 0 L7.0781 71.5781 L28.7188 71.5781 L41.7031 22.75 L54.5469 71.5781 L76.2188 71.5781 L76.2188 0 L62.7969 0 L62.7969 56.3438 L48.5781 0 L34.6719 0 L20.5156 56.3438 L20.5156 0 L7.0781 0 Z"
      /></font
    ></defs
    ><g style="fill:white; stroke:white;"
    ><rect x="0" y="0" width="560" style="clip-path:url(#clipPath1); stroke:none;" height="420"
    /></g
    ><g style="fill:white; text-rendering:optimizeSpeed; color-rendering:optimizeSpeed; image-rendering:optimizeSpeed; shape-rendering:crispEdges; stroke:white; color-interpolation:sRGB;"
    ><rect x="0" width="560" height="420" y="0" style="stroke:none;"
      /><path style="stroke:none;" d="M73 374 L507 374 L507 31 L73 31 Z"
    /></g
    ><g style="fill:rgb(38,38,38); text-rendering:geometricPrecision; image-rendering:optimizeQuality; color-rendering:optimizeQuality; stroke-linejoin:round; stroke:rgb(38,38,38); color-interpolation:linearRGB; stroke-width:0.6667;"
    ><line y2="374" style="fill:none;" x1="73" x2="507" y1="374"
      /><line y2="31" style="fill:none;" x1="73" x2="507" y1="31"
      /><line y2="369.66" style="fill:none;" x1="73" x2="73" y1="374"
      /><line y2="369.66" style="fill:none;" x1="145.3333" x2="145.3333" y1="374"
      /><line y2="369.66" style="fill:none;" x1="217.6667" x2="217.6667" y1="374"
      /><line y2="369.66" style="fill:none;" x1="290" x2="290" y1="374"
      /><line y2="369.66" style="fill:none;" x1="362.3333" x2="362.3333" y1="374"
      /><line y2="369.66" style="fill:none;" x1="434.6667" x2="434.6667" y1="374"
      /><line y2="369.66" style="fill:none;" x1="507" x2="507" y1="374"
      /><line y2="35.34" style="fill:none;" x1="73" x2="73" y1="31"
      /><line y2="35.34" style="fill:none;" x1="145.3333" x2="145.3333" y1="31"
      /><line y2="35.34" style="fill:none;" x1="217.6667" x2="217.6667" y1="31"
      /><line y2="35.34" style="fill:none;" x1="290" x2="290" y1="31"
      /><line y2="35.34" style="fill:none;" x1="362.3333" x2="362.3333" y1="31"
      /><line y2="35.34" style="fill:none;" x1="434.6667" x2="434.6667" y1="31"
      /><line y2="35.34" style="fill:none;" x1="507" x2="507" y1="31"
    /></g
    ><g transform="translate(73,379.3333)" style="font-size:13.3333px; fill:rgb(38,38,38); text-rendering:geometricPrecision; image-rendering:optimizeQuality; color-rendering:optimizeQuality; font-family:'SansSerif'; stroke:rgb(38,38,38); color-interpolation:linearRGB;"
    ><text x="-4" xml:space="preserve" y="14" style="stroke:none;"
      >0</text
    ></g
    ><g transform="translate(145.3333,379.3333)" style="font-size:13.3333px; fill:rgb(38,38,38); text-rendering:geometricPrecision; image-rendering:optimizeQuality; color-rendering:optimizeQuality; font-family:'SansSerif'; stroke:rgb(38,38,38); color-interpolation:linearRGB;"
    ><text x="-7.5" xml:space="preserve" y="14" style="stroke:none;"
      >50</text
    ></g
    ><g transform="translate(217.6667,379.3333)" style="font-size:13.3333px; fill:rgb(38,38,38); text-rendering:geometricPrecision; image-rendering:optimizeQuality; color-rendering:optimizeQuality; font-family:'SansSerif'; stroke:rgb(38,38,38); color-interpolation:linearRGB;"
    ><text x="-11.5" xml:space="preserve" y="14" style="stroke:none;"
      >100</text
    ></g
    ><g transform="translate(290,379.3333)" style="font-size:13.3333px; fill:rgb(38,38,38); text-rendering:geometricPrecision; image-rendering:optimizeQuality; color-rendering:optimizeQuality; font-family:'SansSerif'; stroke:rgb(38,38,38); color-interpolation:linearRGB;"
    ><text x="-11.5" xml:space="preserve" y="14" style="stroke:none;"
      >150</text
    ></g
    ><g transform="translate(362.3333,379.3333)" style="font-size:13.3333px; fill:rgb(38,38,38); text-rendering:geometricPrecision; image-rendering:optimizeQuality; color-rendering:optimizeQuality; font-family:'SansSerif'; stroke:rgb(38,38,38); color-interpolation:linearRGB;"
    ><text x="-11.5" xml:space="preserve" y="14" style="stroke:none;"
      >200</text
    ></g
    ><g transform="translate(434.6667,379.3333)" style="font-size:13.3333px; fill:rgb(38,38,38); text-rendering:geometricPrecision; image-rendering:optimizeQuality; color-rendering:optimizeQuality; font-family:'SansSerif'; stroke:rgb(38,38,38); color-interpolation:linearRGB;"
    ><text x="-11.5" xml:space="preserve" y="14" style="stroke:none;"
      >250</text
    ></g
    ><g transform="translate(507,379.3333)" style="font-size:13.3333px; fill:rgb(38,38,38); text-rendering:geometricPrecision; image-rendering:optimizeQuality; color-rendering:optimizeQuality; font-family:'SansSerif'; stroke:rgb(38,38,38); color-interpolation:linearRGB;"
    ><text x="-11.5" xml:space="preserve" y="14" style="stroke:none;"
      >300</text
    ></g
    ><g transform="translate(290.0002,397.6667)" style="font-size:14.6667px; fill:rgb(38,38,38); text-rendering:geometricPrecision; image-rendering:optimizeQuality; color-rendering:optimizeQuality; font-family:'SansSerif'; stroke:rgb(38,38,38); color-interpolation:linearRGB;"
    ><text x="-15.5" xml:space="preserve" y="15" style="stroke:none;"
      >T [K]</text
    ></g
    ><g style="fill:rgb(38,38,38); text-rendering:geometricPrecision; image-rendering:optimizeQuality; color-rendering:optimizeQuality; stroke-linejoin:round; stroke:rgb(38,38,38); color-interpolation:linearRGB; stroke-width:0.6667;"
    ><line y2="31" style="fill:none;" x1="73" x2="73" y1="374"
      /><line y2="31" style="fill:none;" x1="507" x2="507" y1="374"
      /><line y2="374" style="fill:none;" x1="73" x2="77.34" y1="374"
      /><line y2="305.4" style="fill:none;" x1="73" x2="77.34" y1="305.4"
      /><line y2="236.8" style="fill:none;" x1="73" x2="77.34" y1="236.8"
      /><line y2="168.2" style="fill:none;" x1="73" x2="77.34" y1="168.2"
      /><line y2="99.6" style="fill:none;" x1="73" x2="77.34" y1="99.6"
      /><line y2="31" style="fill:none;" x1="73" x2="77.34" y1="31"
      /><line y2="374" style="fill:none;" x1="507" x2="502.66" y1="374"
      /><line y2="305.4" style="fill:none;" x1="507" x2="502.66" y1="305.4"
      /><line y2="236.8" style="fill:none;" x1="507" x2="502.66" y1="236.8"
      /><line y2="168.2" style="fill:none;" x1="507" x2="502.66" y1="168.2"
      /><line y2="99.6" style="fill:none;" x1="507" x2="502.66" y1="99.6"
      /><line y2="31" style="fill:none;" x1="507" x2="502.66" y1="31"
    /></g
    ><g transform="translate(67.6667,374)" style="font-size:13.3333px; fill:rgb(38,38,38); text-rendering:geometricPrecision; image-rendering:optimizeQuality; color-rendering:optimizeQuality; font-family:'SansSerif'; stroke:rgb(38,38,38); color-interpolation:linearRGB;"
    ><text x="-8" xml:space="preserve" y="5.5" style="stroke:none;"
      >0</text
    ></g
    ><g transform="translate(67.6667,305.4)" style="font-size:13.3333px; fill:rgb(38,38,38); text-rendering:geometricPrecision; image-rendering:optimizeQuality; color-rendering:optimizeQuality; font-family:'SansSerif'; stroke:rgb(38,38,38); color-interpolation:linearRGB;"
    ><text x="-19" xml:space="preserve" y="5.5" style="stroke:none;"
      >0.5</text
    ></g
    ><g transform="translate(67.6667,236.8)" style="font-size:13.3333px; fill:rgb(38,38,38); text-rendering:geometricPrecision; image-rendering:optimizeQuality; color-rendering:optimizeQuality; font-family:'SansSerif'; stroke:rgb(38,38,38); color-interpolation:linearRGB;"
    ><text x="-8" xml:space="preserve" y="5.5" style="stroke:none;"
      >1</text
    ></g
    ><g transform="translate(67.6667,168.2)" style="font-size:13.3333px; fill:rgb(38,38,38); text-rendering:geometricPrecision; image-rendering:optimizeQuality; color-rendering:optimizeQuality; font-family:'SansSerif'; stroke:rgb(38,38,38); color-interpolation:linearRGB;"
    ><text x="-19" xml:space="preserve" y="5.5" style="stroke:none;"
      >1.5</text
    ></g
    ><g transform="translate(67.6667,99.6)" style="font-size:13.3333px; fill:rgb(38,38,38); text-rendering:geometricPrecision; image-rendering:optimizeQuality; color-rendering:optimizeQuality; font-family:'SansSerif'; stroke:rgb(38,38,38); color-interpolation:linearRGB;"
    ><text x="-8" xml:space="preserve" y="5.5" style="stroke:none;"
      >2</text
    ></g
    ><g transform="translate(67.6667,31)" style="font-size:13.3333px; fill:rgb(38,38,38); text-rendering:geometricPrecision; image-rendering:optimizeQuality; color-rendering:optimizeQuality; font-family:'SansSerif'; stroke:rgb(38,38,38); color-interpolation:linearRGB;"
    ><text x="-19" xml:space="preserve" y="5.5" style="stroke:none;"
      >2.5</text
    ></g
    ><g transform="translate(41,246) rotate(-90)" style="font-size:14.6667px; fill:rgb(38,38,38); text-rendering:geometricPrecision; image-rendering:optimizeQuality; color-rendering:optimizeQuality; font-family:'SansSerif'; stroke:rgb(38,38,38); color-interpolation:linearRGB;"
    ><text x="0" xml:space="preserve" y="0" style="stroke:none;"
      >Cv [J/(K*m</text
    ></g
    ><g transform="translate(34,175) rotate(-90)" style="font-size:11.7333px; fill:rgb(38,38,38); text-rendering:geometricPrecision; image-rendering:optimizeQuality; color-rendering:optimizeQuality; font-family:'SansSerif'; stroke:rgb(38,38,38); color-interpolation:linearRGB;"
    ><text x="0" xml:space="preserve" y="0" style="stroke:none;"
      >3</text
    ></g
    ><g transform="translate(41,168) rotate(-90)" style="font-size:14.6667px; fill:rgb(38,38,38); text-rendering:geometricPrecision; image-rendering:optimizeQuality; color-rendering:optimizeQuality; font-family:'SansSerif'; stroke:rgb(38,38,38); color-interpolation:linearRGB;"
    ><text x="0" xml:space="preserve" y="0" style="stroke:none;"
      >)]</text
    ></g
    ><g transform="translate(73,28)" style="font-size:13.3333px; fill:rgb(38,38,38); text-rendering:geometricPrecision; image-rendering:optimizeQuality; color-rendering:optimizeQuality; font-family:'mwb_cmsy10'; stroke:rgb(38,38,38); color-interpolation:linearRGB;"
    ><text x="0" xml:space="preserve" y="0" style="stroke:none;"
      >#</text
    ></g
    ><g transform="translate(84,28)" style="font-size:13.3333px; fill:rgb(38,38,38); text-rendering:geometricPrecision; image-rendering:optimizeQuality; color-rendering:optimizeQuality; font-family:'SansSerif'; stroke:rgb(38,38,38); color-interpolation:linearRGB;"
    ><text x="0" xml:space="preserve" y="0" style="stroke:none;"
      >10</text
    ></g
    ><g transform="translate(99,22)" style="font-size:10.6667px; fill:rgb(38,38,38); text-rendering:geometricPrecision; image-rendering:optimizeQuality; color-rendering:optimizeQuality; font-family:'SansSerif'; stroke:rgb(38,38,38); color-interpolation:linearRGB;"
    ><text x="0" xml:space="preserve" y="0" style="stroke:none;"
      >6</text
    ></g
    ><g transform="translate(290.0003,28.25)" style="font-size:14.6667px; text-rendering:geometricPrecision; image-rendering:optimizeQuality; color-rendering:optimizeQuality; font-family:'SansSerif'; color-interpolation:linearRGB; font-weight:bold;"
    ><text x="-69" xml:space="preserve" y="-4" style="stroke:none;"
      >MatLab plot of CvAl</text
    ></g
    ><g style="stroke-linecap:butt; fill:rgb(0,114,189); text-rendering:geometricPrecision; image-rendering:optimizeQuality; color-rendering:optimizeQuality; stroke-linejoin:round; stroke:rgb(0,114,189); color-interpolation:linearRGB; stroke-width:0.6667;"
    ><path d="M73 373.8716 L73.4344 373.8716 L73.8689 373.8716 L74.3033 373.8716 L74.7377 373.8716 L75.1722 373.8716 L75.6066 373.8716 L76.041 373.8716 L76.4755 373.8716 L76.9099 373.8716 L77.3443 373.8716 L77.7788 373.8716 L78.2132 373.8716 L78.6476 373.8716 L79.0821 373.8687 L79.5165 373.8645 L79.951 373.8604 L80.3854 373.8561 L80.8198 373.852 L81.2543 373.8477 L81.6887 373.8435 L82.1231 373.8365 L82.5576 373.828 L82.992 373.8183 L83.4264 373.8072 L83.8609 373.7948 L84.2953 373.7809 L84.7297 373.7656 L85.1642 373.7487 L85.5986 373.7303 L86.033 373.7102 L86.4675 373.6884 L86.9019 373.6647 L87.3363 373.6392 L87.7708 373.6116 L88.2052 373.5819 L88.6396 373.55 L89.0741 373.5157 L89.5085 373.4791 L89.9429 373.4399 L90.3774 373.3981 L90.8118 373.3535 L91.2462 373.306 L91.6807 373.2555 L92.1151 373.2019 L92.5496 373.1451 L92.984 373.0849 L93.4184 373.0212 L93.8529 372.9539 L94.2873 372.8829 L94.7217 372.808 L95.1562 372.7292 L95.5906 372.6462 L96.025 372.5591 L96.4595 372.4675 L96.8939 372.3715 L97.3283 372.2709 L97.7628 372.1656 L98.1972 372.0554 L98.6316 371.9402 L99.0661 371.82 L99.5005 371.6946 L99.9349 371.5639 L100.3694 371.4278 L100.8038 371.2862 L101.2382 371.1389 L101.6727 370.9859 L102.1071 370.8271 L102.5415 370.6623 L102.976 370.4915 L103.4104 370.3145 L103.8448 370.1314 L104.2793 369.9419 L104.7137 369.746 L105.1481 369.5437 L105.5826 369.3347 L106.017 369.1192 L106.4515 368.8969 L106.8859 368.6679 L107.3203 368.432 L107.7548 368.1893 L108.1892 367.9395 L108.6236 367.6827 L109.0581 367.4189 L109.4925 367.1479 L109.9269 366.8698 L110.3614 366.5845 L110.7958 366.2919 L111.2302 365.992 L111.6647 365.6848 L112.0991 365.3703 L112.5335 365.0484 L112.968 364.7191 L113.4024 364.3824 L113.8368 364.0383 L114.2713 363.6868 L114.7057 363.3278 L115.1401 362.9614 L115.5746 362.5875 L116.009 362.2062 L116.4434 361.8175 L116.8779 361.4213 L117.3123 361.0177 L117.7467 360.6068 L118.1812 360.1884 L118.6156 359.7627 L119.05 359.3296 L119.4845 358.8893 L119.9189 358.4416 L120.3533 357.9867 L120.7878 357.5246 L121.2222 357.0553 L121.6567 356.5788 L122.0911 356.0953 L122.5255 355.6047 L122.96 355.1071 L123.3944 354.6025 L123.8288 354.091 L124.2633 353.5726 L124.6977 353.0475 L125.1321 352.5156 L125.5666 351.977 L126.001 351.4318 L126.4354 350.88 L126.8699 350.3217 L127.3043 349.757 L127.7387 349.1859 L128.1732 348.6085 L128.6076 348.0249 L129.042 347.4351 L129.4765 346.8392 L129.9109 346.2373 L130.3454 345.6295 L130.7798 345.0158 L131.2142 344.3963 L131.6487 343.7711 L132.0831 343.1403 L132.5175 342.5039 L132.952 341.862 L133.3864 341.2148 L133.8208 340.5622 L134.2552 339.9044 L134.6897 339.2415 L135.1241 338.5735 L135.5586 337.9005 L135.993 337.2226 L136.4274 336.54 L136.8619 335.8526 L137.2963 335.1606 L137.7307 334.464 L138.1652 333.7629 L138.5996 333.0575 L139.034 332.3478 L139.4685 331.6339 L139.9029 330.9158 L140.3373 330.1937 L140.7718 329.4677 L141.2062 328.7378 L141.6406 328.0042 L142.0751 327.2668 L142.5095 326.5258 L142.9439 325.7814 L143.3784 325.0335 L143.8128 324.2822 L144.2473 323.5277 L144.6817 322.7701 L145.1161 322.0093 L145.5506 321.2455 L145.985 320.4788 L146.4194 319.7092 L146.8539 318.9369 L147.2883 318.1619 L147.7227 317.3843 L148.1572 316.6042 L148.5916 315.8216 L149.026 315.0367 L149.4605 314.2495 L149.8949 313.4602 L150.3293 312.6687 L150.7638 311.8752 L151.1982 311.0797 L151.6326 310.2823 L152.0671 309.483 L152.5015 308.6821 L152.9359 307.8795 L153.3704 307.0753 L153.8048 306.2696 L154.2392 305.4624 L154.6737 304.6539 L155.1081 303.8441 L155.5425 303.033 L155.977 302.2208 L156.4114 301.4075 L156.8458 300.5931 L157.2803 299.7778 L157.7147 298.9616 L158.1492 298.1446 L158.5836 297.3268 L159.018 296.5083 L159.4525 295.6891 L159.8869 294.8694 L160.3213 294.0492 L160.7558 293.2285 L161.1902 292.4074 L161.6246 291.586 L162.0591 290.7643 L162.4935 289.9424 L162.9279 289.1204 L163.3624 288.2982 L163.7968 287.476 L164.2312 286.6537 L164.6657 285.8316 L165.1001 285.0095 L165.5345 284.1876 L165.969 283.366 L166.4034 282.5445 L166.8378 281.7234 L167.2723 280.9027 L167.7067 280.0824 L168.1411 279.2625 L168.5756 278.4431 L169.01 277.6243 L169.4444 276.806 L169.8789 275.9884 L170.3133 275.1715 L170.7477 274.3553 L171.1822 273.5399 L171.6166 272.7253 L172.0511 271.9115 L172.4855 271.0986 L172.9199 270.2866 L173.3544 269.4756 L173.7888 268.6656 L174.2232 267.8567 L174.6577 267.0488 L175.0921 266.242 L175.5265 265.4364 L175.961 264.6319 L176.3954 263.8286 L176.8298 263.0266 L177.2643 262.2259 L177.6987 261.4265 L178.1331 260.6284 L178.5676 259.8317 L179.002 259.0364 L179.4364 258.2425 L179.8709 257.4501 L180.3053 256.6591 L180.7397 255.8697 L181.1742 255.0818 L181.6086 254.2954 L182.043 253.5107 L182.4775 252.7275 L182.9119 251.946 L183.3463 251.1662 L183.7808 250.388 L184.2152 249.6115 L184.6496 248.8368 L185.0841 248.0638 L185.5185 247.2925 L185.953 246.5231 L186.3874 245.7555 L186.8218 244.9897 L187.2563 244.2257 L187.6907 243.4636 L188.1251 242.7034 L188.5596 241.945 L188.994 241.1886 L189.4284 240.4341 L189.8629 239.6816 L190.2973 238.931 L190.7317 238.1824 L191.1662 237.4358 L191.6006 236.6912 L192.035 235.9486 L192.4695 235.2081 L192.9039 234.4695 L193.3383 233.7331 L193.7728 232.9987 L194.2072 232.2664 L194.6416 231.5361 L195.0761 230.808 L195.5105 230.082 L195.9449 229.3581 L196.3794 228.6363 L196.8138 227.9167 L197.2482 227.1992 L197.6827 226.4838 L198.1171 225.7707 L198.5516 225.0597 L198.986 224.3508 L199.4204 223.6442 L199.8549 222.9397 L200.2893 222.2375 L200.7237 221.5374 L201.1582 220.8396 L201.5926 220.1439 L202.027 219.4505 L202.4615 218.7593 L202.8959 218.0704 L203.3303 217.3836 L203.7648 216.6991 L204.1992 216.0169 L204.6336 215.3368 L205.0681 214.6591 L205.5025 213.9835 L205.9369 213.3103 L206.3714 212.6393 L206.8058 211.9705 L207.2402 211.304 L207.6747 210.6397 L208.1091 209.9777 L208.5435 209.318 L208.978 208.6605 L209.4124 208.0053 L209.8468 207.3523 L210.2813 206.7016 L210.7157 206.0532 L211.1502 205.407 L211.5846 204.7631 L212.019 204.1215 L212.4534 203.4821 L212.8879 202.845 L213.3223 202.2101 L213.7568 201.5775 L214.1912 200.9471 L214.6256 200.319 L215.0601 199.6932 L215.4945 199.0695 L215.9289 198.4482 L216.3634 197.8291 L216.7978 197.2122 L217.2322 196.5975 L217.6667 195.9851 L218.1011 195.375 L218.5355 194.767 L218.97 194.1613 L219.4044 193.5578 L219.8388 192.9565 L220.2733 192.3575 L220.7077 191.7606 L221.1422 191.166 L221.5766 190.5736 L222.011 189.9833 L222.4454 189.3953 L222.8799 188.8094 L223.3143 188.2258 L223.7487 187.6443 L224.1832 187.065 L224.6176 186.4878 L225.052 185.9129 L225.4865 185.3401 L225.9209 184.7694 L226.3553 184.2009 L226.7898 183.6346 L227.2242 183.0703 L227.6587 182.5083 L228.0931 181.9483 L228.5275 181.3905 L228.962 180.8348 L229.3964 180.2812 L229.8308 179.7297 L230.2653 179.1803 L230.6997 178.633 L231.1341 178.0878 L231.5686 177.5447 L232.003 177.0037 L232.4374 176.4647 L232.8719 175.9278 L233.3063 175.3929 L233.7408 174.8601 L234.1752 174.3294 L234.6096 173.8007 L235.044 173.274 L235.4785 172.7493 L235.9129 172.2267 L236.3474 171.706 L236.7818 171.1874 L237.2162 170.6708 L237.6507 170.1561 L238.0851 169.6435 L238.5195 169.1328 L238.9539 168.6241 L239.3884 168.1173 L239.8228 167.6125 L240.2573 167.1097 L240.6917 166.6088 L241.1261 166.1098 L241.5606 165.6128 L241.995 165.1177 L242.4294 164.6245 L242.8639 164.1332 L243.2983 163.6438 L243.7327 163.1563 L244.1672 162.6707 L244.6016 162.1869 L245.036 161.705 L245.4705 161.225 L245.9049 160.7469 L246.3393 160.2706 L246.7738 159.7961 L247.2082 159.3235 L247.6426 158.8527 L248.0771 158.3837 L248.5115 157.9165 L248.9459 157.4511 L249.3804 156.9876 L249.8148 156.5258 L250.2493 156.0658 L250.6837 155.6075 L251.1181 155.1511 L251.5526 154.6964 L251.987 154.2434 L252.4214 153.7922 L252.8559 153.3427 L253.2903 152.895 L253.7247 152.449 L254.1592 152.0047 L254.5936 151.5621 L255.028 151.1212 L255.4625 150.682 L255.8969 150.2444 L256.3313 149.8086 L256.7657 149.3744 L257.2002 148.9419 L257.6346 148.5111 L258.0691 148.0819 L258.5035 147.6543 L258.938 147.2284 L259.3724 146.8041 L259.8068 146.3814 L260.2412 145.9603 L260.6757 145.5408 L261.1101 145.123 L261.5446 144.7067 L261.979 144.292 L262.4134 143.8789 L262.8478 143.4673 L263.2823 143.0574 L263.7167 142.6489 L264.1512 142.2421 L264.5856 141.8367 L265.02 141.4329 L265.4545 141.0306 L265.8889 140.6298 L266.3233 140.2306 L266.7578 139.8328 L267.1922 139.4366 L267.6266 139.0418 L268.0611 138.6485 L268.4955 138.2567 L268.9299 137.8664 L269.3643 137.4775 L269.7988 137.0901 L270.2332 136.7041 L270.6677 136.3196 L271.1021 135.9365 L271.5366 135.5548 L271.971 135.1746 L272.4054 134.7958 L272.8398 134.4184 L273.2743 134.0423 L273.7087 133.6677 L274.1431 133.2945 L274.5776 132.9226 L275.012 132.5522 L275.4464 132.183 L275.8809 131.8153 L276.3153 131.4489 L276.7498 131.0839 L277.1842 130.7202 L277.6186 130.3578 L278.0531 129.9968 L278.4875 129.6371 L278.9219 129.2787 L279.3564 128.9216 L279.7908 128.5658 L280.2252 128.2113 L280.6597 127.8581 L281.0941 127.5062 L281.5285 127.1556 L281.963 126.8062 L282.3974 126.4581 L282.8318 126.1113 L283.2663 125.7657 L283.7007 125.4214 L284.1351 125.0783 L284.5696 124.7364 L285.004 124.3958 L285.4384 124.0564 L285.8729 123.7182 L286.3073 123.3813 L286.7417 123.0455 L287.1762 122.7109 L287.6106 122.3776 L288.045 122.0454 L288.4795 121.7144 L288.9139 121.3846 L289.3483 121.0559 L289.7828 120.7284 L290.2172 120.4021 L290.6517 120.0769 L291.0861 119.7529 L291.5205 119.43 L291.955 119.1083 L292.3894 118.7877 L292.8238 118.4682 L293.2583 118.1498 L293.6927 117.8326 L294.1271 117.5164 L294.5616 117.2014 L294.996 116.8874 L295.4304 116.5746 L295.8649 116.2628 L296.2993 115.9522 L296.7337 115.6426 L297.1682 115.334 L297.6026 115.0266 L298.037 114.7202 L298.4715 114.4149 L298.9059 114.1106 L299.3403 113.8074 L299.7748 113.5051 L300.2092 113.204 L300.6436 112.9039 L301.0781 112.6048 L301.5125 112.3067 L301.9469 112.0096 L302.3814 111.7136 L302.8158 111.4185 L303.2502 111.1245 L303.6847 110.8315 L304.1191 110.5394 L304.5536 110.2483 L304.988 109.9583 L305.4224 109.6692 L305.8569 109.381 L306.2913 109.0939 L306.7257 108.8077 L307.1602 108.5224 L307.5946 108.2382 L308.029 107.9548 L308.4634 107.6725 L308.8979 107.391 L309.3323 107.1105 L309.7668 106.8309 L310.2012 106.5523 L310.6357 106.2746 L311.0701 105.9978 L311.5045 105.7219 L311.9389 105.4469 L312.3734 105.1729 L312.8078 104.8997 L313.2422 104.6274 L313.6767 104.3561 L314.1111 104.0856 L314.5455 103.816 L314.98 103.5473 L315.4144 103.2794 L315.8488 103.0125 L316.2833 102.7464 L316.7177 102.4812 L317.1522 102.2168 L317.5866 101.9533 L318.021 101.6907 L318.4554 101.4288 L318.8899 101.1679 L319.3243 100.9078 L319.7588 100.6485 L320.1932 100.3901 L320.6276 100.1324 L321.062 99.8756 L321.4965 99.6197 L321.9309 99.3645 L322.3654 99.1102 L322.7998 98.8567 L323.2343 98.604 L323.6687 98.3521 L324.1031 98.101 L324.5375 97.8507 L324.972 97.6012 L325.4064 97.3524 L325.8409 97.1045 L326.2753 96.8573 L326.7097 96.611 L327.1441 96.3654 L327.5786 96.1205 L328.013 95.8765 L328.4474 95.6332 L328.8819 95.3907 L329.3163 95.1489 L329.7508 94.9079 L330.1852 94.6676 L330.6196 94.4281 L331.054 94.1894 L331.4885 93.9514 L331.9229 93.7141 L332.3574 93.4775 L332.7918 93.2417 L333.2262 93.0066 L333.6606 92.7723 L334.0951 92.5387 L334.5295 92.3058 L334.964 92.0736 L335.3984 91.8421 L335.8328 91.6113 L336.2673 91.3813 L336.7017 91.152 L337.1361 90.9233 L337.5706 90.6954 L338.005 90.4681 L338.4395 90.2416 L338.8739 90.0157 L339.3083 89.7906 L339.7427 89.5661 L340.1772 89.3423 L340.6116 89.1192 L341.0461 88.8967 L341.4805 88.675 L341.9149 88.4539 L342.3494 88.2334 L342.7838 88.0137 L343.2182 87.7946 L343.6526 87.5762 L344.0871 87.3584 L344.5215 87.1413 L344.956 86.9248 L345.3904 86.709 L345.8248 86.4939 L346.2592 86.2794 L346.6937 86.0655 L347.1281 85.8522 L347.5626 85.6397 L347.997 85.4277 L348.4314 85.2164 L348.8659 85.0057 L349.3003 84.7956 L349.7347 84.5862 L350.1692 84.3774 L350.6036 84.1692 L351.0381 83.9616 L351.4725 83.7547 L351.9069 83.5484 L352.3413 83.3427 L352.7758 83.1375 L353.2102 82.933 L353.6446 82.7291 L354.0791 82.5258 L354.5135 82.3232 L354.9479 82.1211 L355.3824 81.9196 L355.8168 81.7187 L356.2513 81.5184 L356.6857 81.3186 L357.1201 81.1195 L357.5546 80.921 L357.989 80.723 L358.4234 80.5257 L358.8578 80.3289 L359.2923 80.1327 L359.7267 79.937 L360.1612 79.742 L360.5956 79.5475 L361.03 79.3536 L361.4645 79.1602 L361.8989 78.9674 L362.3333 78.7752 L362.7678 78.5836 L363.2022 78.3925 L363.6366 78.2019 L364.0711 78.012 L364.5055 77.8226 L364.9399 77.6337 L365.3744 77.4454 L365.8088 77.2576 L366.2432 77.0704 L366.6777 76.8837 L367.1121 76.6976 L367.5465 76.5121 L367.981 76.327 L368.4154 76.1425 L368.8499 75.9586 L369.2843 75.7751 L369.7187 75.5922 L370.1532 75.4099 L370.5876 75.2281 L371.022 75.0468 L371.4565 74.866 L371.8909 74.6858 L372.3253 74.5061 L372.7598 74.3269 L373.1942 74.1482 L373.6286 73.9701 L374.063 73.7924 L374.4975 73.6153 L374.9319 73.4388 L375.3664 73.2627 L375.8008 73.0871 L376.2352 72.9121 L376.6697 72.7375 L377.1041 72.5635 L377.5385 72.39 L377.973 72.217 L378.4074 72.0444 L378.8418 71.8724 L379.2763 71.7009 L379.7107 71.5299 L380.1451 71.3594 L380.5796 71.1894 L381.014 71.0199 L381.4485 70.8509 L381.8829 70.6824 L382.3173 70.5143 L382.7518 70.3468 L383.1862 70.1797 L383.6206 70.0132 L384.0551 69.8471 L384.4895 69.6815 L384.9239 69.5164 L385.3583 69.3518 L385.7928 69.1876 L386.2272 69.024 L386.6617 68.8608 L387.0961 68.6981 L387.5305 68.5359 L387.965 68.3742 L388.3994 68.2129 L388.8338 68.0521 L389.2683 67.8918 L389.7027 67.7319 L390.1371 67.5726 L390.5716 67.4137 L391.006 67.2552 L391.4404 67.0973 L391.8749 66.9398 L392.3093 66.7828 L392.7437 66.6262 L393.1782 66.4701 L393.6126 66.3144 L394.0471 66.1592 L394.4815 66.0045 L394.9159 65.8503 L395.3504 65.6965 L395.7848 65.5432 L396.2192 65.3902 L396.6537 65.2378 L397.0881 65.0859 L397.5225 64.9343 L397.9569 64.7833 L398.3914 64.6327 L398.8258 64.4825 L399.2603 64.3328 L399.6947 64.1835 L400.1291 64.0347 L400.5636 63.8863 L400.998 63.7384 L401.4324 63.591 L401.8669 63.4439 L402.3013 63.2974 L402.7357 63.1512 L403.1702 63.0055 L403.6046 62.8602 L404.039 62.7155 L404.4735 62.5711 L404.9079 62.4271 L405.3423 62.2837 L405.7768 62.1406 L406.2112 61.998 L406.6457 61.8558 L407.0801 61.714 L407.5145 61.5728 L407.9489 61.4319 L408.3834 61.2914 L408.8178 61.1514 L409.2523 61.0118 L409.6867 60.8727 L410.1211 60.734 L410.5555 60.5957 L410.99 60.4578 L411.4244 60.3204 L411.8589 60.1834 L412.2933 60.0469 L412.7277 59.9107 L413.1622 59.775 L413.5966 59.6397 L414.031 59.5048 L414.4655 59.3704 L414.8999 59.2364 L415.3344 59.1028 L415.7688 58.9696 L416.2032 58.8369 L416.6376 58.7046 L417.0721 58.5726 L417.5065 58.4412 L417.9409 58.3101 L418.3754 58.1794 L418.8098 58.0492 L419.2442 57.9194 L419.6787 57.79 L420.1131 57.661 L420.5475 57.5325 L420.982 57.4043 L421.4164 57.2766 L421.8509 57.1493 L422.2853 57.0224 L422.7197 56.8959 L423.1541 56.7698 L423.5886 56.6442 L424.023 56.5189 L424.4575 56.3941 L424.8919 56.2697 L425.3263 56.1457 L425.7607 56.0221 L426.1952 55.8988 L426.6296 55.7761 L427.0641 55.6537 L427.4985 55.5318 L427.933 55.4102 L428.3674 55.2891 L428.8018 55.1683 L429.2362 55.048 L429.6707 54.9281 L430.1051 54.8086 L430.5395 54.6894 L430.974 54.5707 L431.4084 54.4524 L431.8428 54.3345 L432.2773 54.2171 L432.7117 54.1 L433.1461 53.9833 L433.5806 53.867 L434.015 53.7511 L434.4495 53.6357 L434.8839 53.5206 L435.3183 53.4059 L435.7527 53.2917 L436.1872 53.1778 L436.6216 53.0643 L437.0561 52.9513 L437.4905 52.8386 L437.9249 52.7263 L438.3593 52.6145 L438.7938 52.503 L439.2282 52.3919 L439.6627 52.2813 L440.0971 52.171 L440.5315 52.0612 L440.966 51.9517 L441.4004 51.8426 L441.8348 51.734 L442.2693 51.6257 L442.7037 51.5178 L443.1381 51.4103 L443.5726 51.3032 L444.007 51.1966 L444.4414 51.0903 L444.8759 50.9844 L445.3103 50.8789 L445.7448 50.7738 L446.1792 50.6691 L446.6136 50.5648 L447.0481 50.4608 L447.4825 50.3573 L447.9169 50.2542 L448.3514 50.1515 L448.7858 50.0491 L449.2202 49.9472 L449.6546 49.8456 L450.0891 49.7445 L450.5235 49.6437 L450.9579 49.5433 L451.3924 49.4434 L451.8268 49.3437 L452.2613 49.2446 L452.6957 49.1458 L453.1301 49.0474 L453.5645 48.9493 L453.999 48.8517 L454.4334 48.7545 L454.8679 48.6576 L455.3023 48.5612 L455.7368 48.4651 L456.1712 48.3694 L456.6056 48.2742 L457.04 48.1793 L457.4745 48.0848 L457.9089 47.9907 L458.3434 47.897 L458.7778 47.8037 L459.2122 47.7108 L459.6467 47.6182 L460.0811 47.5261 L460.5155 47.4343 L460.95 47.3429 L461.3844 47.252 L461.8188 47.1613 L462.2532 47.0712 L462.6877 46.9813 L463.1221 46.8919 L463.5565 46.8029 L463.991 46.7142 L464.4254 46.626 L464.8599 46.5381 L465.2943 46.4506 L465.7287 46.3636 L466.1631 46.2768 L466.5976 46.1905 L467.032 46.1046 L467.4665 46.0191 L467.9009 45.9339 L468.3354 45.8492 L468.7698 45.7648 L469.2042 45.6808 L469.6386 45.5973 L470.0731 45.5141 L470.5075 45.4312 L470.9419 45.3488 L471.3764 45.2668 L471.8108 45.1851 L472.2453 45.1039 L472.6797 45.023 L473.1141 44.9425 L473.5486 44.8624 L473.983 44.7827 L474.4174 44.7034 L474.8518 44.6245 L475.2863 44.546 L475.7207 44.4678 L476.1552 44.39 L476.5896 44.3127 L477.024 44.2356 L477.4585 44.1591 L477.8929 44.0828 L478.3273 44.007 L478.7617 43.9316 L479.1962 43.8565 L479.6306 43.7819 L480.0651 43.7076 L480.4995 43.6337 L480.934 43.5602 L481.3684 43.4871 L481.8028 43.4144 L482.2372 43.342 L482.6717 43.2701 L483.1061 43.1985 L483.5405 43.1273 L483.975 43.0566 L484.4094 42.9862 L484.8438 42.9162 L485.2783 42.8466 L485.7127 42.7773 L486.1471 42.7085 L486.5816 42.64 L487.016 42.572 L487.4504 42.5043 L487.8849 42.437 L488.3193 42.3701 L488.7538 42.3036 L489.1882 42.2375 L489.6226 42.1717 L490.0571 42.1064 L490.4915 42.0414 L490.9259 41.9769 L491.3604 41.9126 L491.7948 41.8489 L492.2292 41.7855 L492.6637 41.7225 L493.0981 41.6598 L493.5326 41.5976 L493.967 41.5357 L494.4014 41.4743 L494.8358 41.4132 L495.2703 41.3525 L495.7047 41.2922 L496.1391 41.2323 L496.5736 41.1728 L497.008 41.1137 L497.4424 41.0549 L497.8769 40.9966 L498.3113 40.9386 L498.7457 40.8811 L499.1802 40.8239 L499.6146 40.7671 L500.049 40.7107 L500.4835 40.6547 L500.9179 40.5991 L501.3524 40.5438 L501.7868 40.489 L502.2212 40.4345 L502.6557 40.3805 L503.0901 40.3268 L503.5245 40.2735 L503.959 40.2206 L504.3934 40.1681 L504.8279 40.116 L505.2623 40.0643 L505.6967 40.013 L506.1312 39.962 L506.5656 39.9115 L507 39.8613" style="fill:none; fill-rule:evenodd;"
    /></g
  ></g
></svg
>
