<?xml version="1.0"?>
<!DOCTYPE svg PUBLIC '-//W3C//DTD SVG 1.0//EN'
          'http://www.w3.org/TR/2001/REC-SVG-20010904/DTD/svg10.dtd'>
<svg xmlns:xlink="http://www.w3.org/1999/xlink" style="fill-opacity:1; color-rendering:auto; color-interpolation:auto; text-rendering:auto; stroke:black; stroke-linecap:square; stroke-miterlimit:10; shape-rendering:auto; stroke-opacity:1; fill:black; stroke-dasharray:none; font-weight:normal; stroke-width:1; font-family:'Dialog'; font-style:normal; stroke-linejoin:miter; font-size:12px; stroke-dashoffset:0; image-rendering:auto;" width="560" height="420" xmlns="http://www.w3.org/2000/svg"
><!--Generated by the Batik Graphics2D SVG Generator--><defs id="genericDefs"
  /><g
  ><defs id="defs1"
    ><clipPath clipPathUnits="userSpaceOnUse" id="clipPath1"
      ><path d="M0 0 L560 0 L560 420 L0 420 L0 0 Z"
      /></clipPath
      ><font horiz-adv-x="75.0" id="font1"
      ><font-face ascent="100.53711" descent="21.972656" units-per-em="100" style="font-style:normal; font-family:SansSerif; font-weight:normal;"
        /><missing-glyph horiz-adv-x="75.0" d="M12.5 0 L12.5 62.5 L62.5 62.5 L62.5 0 L12.5 0 ZM14.0625 1.5625 L60.9375 1.5625 L60.9375 60.9375 L14.0625 60.9375 L14.0625 1.5625 Z"
        /><glyph unicode="0" horiz-adv-x="55.615234" d="M4.1562 35.2969 Q4.1562 48 6.7656 55.7422 Q9.375 63.4844 14.5234 67.6797 Q19.6719 71.875 27.4844 71.875 Q33.25 71.875 37.5938 69.5547 Q41.9375 67.2344 44.7734 62.8672 Q47.6094 58.5 49.2188 52.2266 Q50.8281 45.9531 50.8281 35.2969 Q50.8281 22.7031 48.2422 14.9688 Q45.6562 7.2344 40.5078 3.0078 Q35.3594 -1.2188 27.4844 -1.2188 Q17.1406 -1.2188 11.2344 6.2031 Q4.1562 15.1406 4.1562 35.2969 ZM13.1875 35.2969 Q13.1875 17.6719 17.3125 11.8359 Q21.4375 6 27.4844 6 Q33.5469 6 37.6719 11.8594 Q41.7969 17.7188 41.7969 35.2969 Q41.7969 52.9844 37.6719 58.7891 Q33.5469 64.5938 27.3906 64.5938 Q21.3438 64.5938 17.7188 59.4688 Q13.1875 52.9375 13.1875 35.2969 Z"
        /><glyph unicode="5" horiz-adv-x="55.615234" d="M4.1562 18.75 L13.375 19.5312 Q14.4062 12.7969 18.1406 9.3984 Q21.875 6 27.1562 6 Q33.5 6 37.8906 10.7891 Q42.2812 15.5781 42.2812 23.4844 Q42.2812 31 38.0625 35.3516 Q33.8438 39.7031 27 39.7031 Q22.75 39.7031 19.3359 37.7734 Q15.9219 35.8438 13.9688 32.7656 L5.7188 33.8438 L12.6406 70.6094 L48.25 70.6094 L48.25 62.2031 L19.6719 62.2031 L15.8281 42.9688 Q22.2656 47.4688 29.3438 47.4688 Q38.7188 47.4688 45.1641 40.9688 Q51.6094 34.4688 51.6094 24.2656 Q51.6094 14.5469 45.9531 7.4688 Q39.0625 -1.2188 27.1562 -1.2188 Q17.3906 -1.2188 11.2109 4.25 Q5.0312 9.7188 4.1562 18.75 Z"
        /><glyph unicode="1" horiz-adv-x="55.615234" d="M37.25 0 L28.4688 0 L28.4688 56 Q25.2969 52.9844 20.1406 49.9531 Q14.9844 46.9219 10.8906 45.4062 L10.8906 53.9062 Q18.2656 57.375 23.7812 62.3047 Q29.2969 67.2344 31.5938 71.875 L37.25 71.875 L37.25 0 Z"
        /><glyph unicode="2" horiz-adv-x="55.615234" d="M50.3438 8.4531 L50.3438 0 L3.0312 0 Q2.9375 3.1719 4.0469 6.1094 Q5.8594 10.9375 9.8359 15.625 Q13.8125 20.3125 21.3438 26.4688 Q33.0156 36.0312 37.1172 41.625 Q41.2188 47.2188 41.2188 52.2031 Q41.2188 57.4219 37.4766 61.0078 Q33.7344 64.5938 27.7344 64.5938 Q21.3906 64.5938 17.5781 60.7891 Q13.7656 56.9844 13.7188 50.25 L4.6875 51.1719 Q5.6094 61.2812 11.6641 66.5781 Q17.7188 71.875 27.9375 71.875 Q38.2344 71.875 44.2422 66.1641 Q50.25 60.4531 50.25 52 Q50.25 47.7031 48.4922 43.5547 Q46.7344 39.4062 42.6562 34.8125 Q38.5781 30.2188 29.1094 22.2188 Q21.1875 15.5781 18.9453 13.2109 Q16.7031 10.8438 15.2344 8.4531 L50.3438 8.4531 Z"
        /><glyph unicode="3" horiz-adv-x="55.615234" d="M4.2031 18.8906 L12.9844 20.0625 Q14.5 12.5938 18.1406 9.2969 Q21.7812 6 27 6 Q33.2031 6 37.4766 10.2969 Q41.75 14.5938 41.75 20.9531 Q41.75 27 37.7969 30.9297 Q33.8438 34.8594 27.7344 34.8594 Q25.25 34.8594 21.5312 33.8906 L22.5156 41.6094 Q23.3906 41.5 23.9219 41.5 Q29.5469 41.5 34.0391 44.4297 Q38.5312 47.3594 38.5312 53.4688 Q38.5312 58.2969 35.2578 61.4766 Q31.9844 64.6562 26.8125 64.6562 Q21.6875 64.6562 18.2656 61.4297 Q14.8438 58.2031 13.875 51.7656 L5.0781 53.3281 Q6.6875 62.1562 12.3984 67.0156 Q18.1094 71.875 26.6094 71.875 Q32.4688 71.875 37.3984 69.3594 Q42.3281 66.8438 44.9453 62.5 Q47.5625 58.1562 47.5625 53.2656 Q47.5625 48.6406 45.0703 44.8281 Q42.5781 41.0156 37.7031 38.7656 Q44.0469 37.3125 47.5625 32.6953 Q51.0781 28.0781 51.0781 21.1406 Q51.0781 11.7656 44.2422 5.25 Q37.4062 -1.2656 26.9531 -1.2656 Q17.5312 -1.2656 11.3047 4.3516 Q5.0781 9.9688 4.2031 18.8906 Z"
        /><glyph unicode="]" horiz-adv-x="27.783203" d="M21.2969 -19.875 L1.9062 -19.875 L1.9062 -12.5938 L12.5 -12.5938 L12.5 64.3125 L1.9062 64.3125 L1.9062 71.5781 L21.2969 71.5781 L21.2969 -19.875 Z"
        /><glyph unicode="K" horiz-adv-x="66.69922" d="M7.3281 0 L7.3281 71.5781 L16.7969 71.5781 L16.7969 36.0781 L52.3438 71.5781 L65.1875 71.5781 L35.1562 42.5781 L66.5 0 L54 0 L28.5156 36.2344 L16.7969 24.8125 L16.7969 0 L7.3281 0 Z"
        /><glyph unicode="[" horiz-adv-x="27.783203" d="M6.7812 -19.875 L6.7812 71.5781 L26.1719 71.5781 L26.1719 64.3125 L15.5781 64.3125 L15.5781 -12.5938 L26.1719 -12.5938 L26.1719 -19.875 L6.7812 -19.875 Z"
        /><glyph unicode=" " horiz-adv-x="27.783203" d=""
        /><glyph unicode="T" horiz-adv-x="61.083984" d="M25.9219 0 L25.9219 63.1406 L2.3438 63.1406 L2.3438 71.5781 L59.0781 71.5781 L59.0781 63.1406 L35.4062 63.1406 L35.4062 0 L25.9219 0 Z"
        /><glyph unicode="-" horiz-adv-x="33.30078" d="M3.1719 21.4844 L3.1719 30.3281 L30.1719 30.3281 L30.1719 21.4844 L3.1719 21.4844 Z"
        /><glyph unicode="8" horiz-adv-x="55.615234" d="M17.6719 38.8125 Q12.2031 40.8281 9.5703 44.5391 Q6.9375 48.25 6.9375 53.4219 Q6.9375 61.2344 12.5547 66.5547 Q18.1719 71.875 27.4844 71.875 Q36.8594 71.875 42.5781 66.4297 Q48.2969 60.9844 48.2969 53.1719 Q48.2969 48.1875 45.6797 44.5078 Q43.0625 40.8281 37.75 38.8125 Q44.3438 36.6719 47.7812 31.8828 Q51.2188 27.0938 51.2188 20.4531 Q51.2188 11.2812 44.7266 5.0312 Q38.2344 -1.2188 27.6406 -1.2188 Q17.0469 -1.2188 10.5469 5.0547 Q4.0469 11.3281 4.0469 20.7031 Q4.0469 27.6875 7.5938 32.3984 Q11.1406 37.1094 17.6719 38.8125 ZM15.9219 53.7188 Q15.9219 48.6406 19.1953 45.4141 Q22.4688 42.1875 27.6875 42.1875 Q32.7656 42.1875 36.0156 45.3828 Q39.2656 48.5781 39.2656 53.2188 Q39.2656 58.0625 35.9141 61.3594 Q32.5625 64.6562 27.5938 64.6562 Q22.5625 64.6562 19.2422 61.4297 Q15.9219 58.2031 15.9219 53.7188 ZM13.0938 20.6562 Q13.0938 16.8906 14.875 13.375 Q16.6562 9.8594 20.1719 7.9297 Q23.6875 6 27.7344 6 Q34.0312 6 38.1328 10.0547 Q42.2344 14.1094 42.2344 20.3594 Q42.2344 26.7031 38.0156 30.8594 Q33.7969 35.0156 27.4375 35.0156 Q21.2344 35.0156 17.1641 30.9141 Q13.0938 26.8125 13.0938 20.6562 Z"
        /><glyph unicode="." horiz-adv-x="27.783203" d="M9.0781 0 L9.0781 10.0156 L19.0938 10.0156 L19.0938 0 L9.0781 0 Z"
        /><glyph unicode="6" horiz-adv-x="55.615234" d="M49.75 54.0469 L41.0156 53.375 Q39.8438 58.5469 37.7031 60.8906 Q34.125 64.6562 28.9062 64.6562 Q24.7031 64.6562 21.5312 62.3125 Q17.3906 59.2812 14.9922 53.4688 Q12.5938 47.6562 12.5 36.9219 Q15.6719 41.75 20.2656 44.0938 Q24.8594 46.4375 29.8906 46.4375 Q38.6719 46.4375 44.8516 39.9688 Q51.0312 33.5 51.0312 23.25 Q51.0312 16.5 48.125 10.7188 Q45.2188 4.9375 40.1406 1.8594 Q35.0625 -1.2188 28.6094 -1.2188 Q17.625 -1.2188 10.6953 6.8594 Q3.7656 14.9375 3.7656 33.5 Q3.7656 54.25 11.4219 63.6719 Q18.1094 71.875 29.4375 71.875 Q37.8906 71.875 43.2891 67.1406 Q48.6875 62.4062 49.75 54.0469 ZM13.875 23.1875 Q13.875 18.6562 15.7969 14.5078 Q17.7188 10.3594 21.1875 8.1797 Q24.6562 6 28.4688 6 Q34.0312 6 38.0391 10.4922 Q42.0469 14.9844 42.0469 22.7031 Q42.0469 30.125 38.0859 34.3984 Q34.125 38.6719 28.125 38.6719 Q22.1719 38.6719 18.0234 34.3984 Q13.875 30.125 13.875 23.1875 Z"
        /><glyph unicode="4" horiz-adv-x="55.615234" d="M32.3281 0 L32.3281 17.1406 L1.2656 17.1406 L1.2656 25.2031 L33.9375 71.5781 L41.1094 71.5781 L41.1094 25.2031 L50.7812 25.2031 L50.7812 17.1406 L41.1094 17.1406 L41.1094 0 L32.3281 0 ZM32.3281 25.2031 L32.3281 57.4688 L9.9062 25.2031 L32.3281 25.2031 Z"
        /><glyph unicode=")" horiz-adv-x="33.30078" d="M12.3594 -21.0469 L6.0625 -21.0469 Q20.6562 2.3906 20.6562 25.875 Q20.6562 35.0625 18.5625 44.0938 Q16.8906 51.4219 13.9219 58.1562 Q12.0156 62.5469 6.0625 72.7969 L12.3594 72.7969 Q21.5312 60.5469 25.9219 48.1875 Q29.6875 37.5469 29.6875 25.9219 Q29.6875 12.75 24.6328 0.4453 Q19.5781 -11.8594 12.3594 -21.0469 Z"
        /><glyph unicode="m" horiz-adv-x="83.30078" d="M6.5938 0 L6.5938 51.8594 L14.4531 51.8594 L14.4531 44.5781 Q16.8906 48.3906 20.9453 50.7109 Q25 53.0312 30.1719 53.0312 Q35.9375 53.0312 39.625 50.6406 Q43.3125 48.25 44.8281 43.9531 Q50.9844 53.0312 60.8438 53.0312 Q68.5625 53.0312 72.7109 48.7578 Q76.8594 44.4844 76.8594 35.5938 L76.8594 0 L68.1094 0 L68.1094 32.6719 Q68.1094 37.9375 67.2578 40.2578 Q66.4062 42.5781 64.1641 43.9922 Q61.9219 45.4062 58.8906 45.4062 Q53.4219 45.4062 49.8047 41.7734 Q46.1875 38.1406 46.1875 30.125 L46.1875 0 L37.4062 0 L37.4062 33.6875 Q37.4062 39.5469 35.2578 42.4766 Q33.1094 45.4062 28.2188 45.4062 Q24.5156 45.4062 21.3672 43.4531 Q18.2188 41.5 16.7969 37.7422 Q15.375 33.9844 15.375 26.9062 L15.375 0 L6.5938 0 Z"
        /><glyph unicode="*" horiz-adv-x="38.916016" d="M3.125 58.4531 L5.375 65.375 Q13.1406 62.6406 16.6562 60.6406 Q15.7188 69.4844 15.6719 72.7969 L22.75 72.7969 Q22.6094 67.9688 21.625 60.6875 Q26.6562 63.2344 33.1562 65.375 L35.4062 58.4531 Q29.2031 56.3906 23.25 55.7188 Q26.2188 53.125 31.6406 46.4844 L25.7812 42.3281 Q22.9531 46.1875 19.0938 52.8281 Q15.4844 45.9531 12.75 42.3281 L6.9844 46.4844 Q12.6406 53.4688 15.0938 55.7188 Q8.7969 56.9375 3.125 58.4531 Z"
        /><glyph unicode="(" horiz-adv-x="33.30078" d="M23.3906 -21.0469 Q16.1094 -11.8594 11.0859 0.4453 Q6.0625 12.75 6.0625 25.9219 Q6.0625 37.5469 9.8125 48.1875 Q14.2031 60.5469 23.3906 72.7969 L29.6875 72.7969 Q23.7812 62.6406 21.875 58.2969 Q18.8906 51.5625 17.1875 44.2344 Q15.0938 35.1094 15.0938 25.875 Q15.0938 2.3906 29.6875 -21.0469 L23.3906 -21.0469 Z"
        /><glyph unicode="/" horiz-adv-x="27.783203" d="M0 -1.2188 L20.75 72.7969 L27.7812 72.7969 L7.0781 -1.2188 L0 -1.2188 Z"
        /><glyph unicode="W" horiz-adv-x="94.384766" d="M20.2188 0 L1.2188 71.5781 L10.9375 71.5781 L21.8281 24.6562 Q23.5781 17.2812 24.8594 10.0156 Q27.5938 21.4844 28.0781 23.25 L41.7031 71.5781 L53.125 71.5781 L63.375 35.3594 Q67.2344 21.875 68.9531 10.0156 Q70.3125 16.7969 72.5156 25.5938 L83.7344 71.5781 L93.2656 71.5781 L73.6406 0 L64.5 0 L49.4219 54.5469 Q47.5156 61.375 47.1719 62.9375 Q46.0469 58.0156 45.0625 54.5469 L29.8906 0 L20.2188 0 Z"
        /><glyph unicode="k" horiz-adv-x="50.0" d="M6.6406 0 L6.6406 71.5781 L15.4375 71.5781 L15.4375 30.7656 L36.2344 51.8594 L47.6094 51.8594 L27.7812 32.625 L49.6094 0 L38.7656 0 L21.625 26.5156 L15.4375 20.5625 L15.4375 0 L6.6406 0 Z"
      /></font
      ><font horiz-adv-x="75.0" id="font2"
      ><font-face ascent="100.53711" descent="21.972656" units-per-em="100" style="font-style:normal; font-family:SansSerif; font-weight:bold;"
        /><missing-glyph horiz-adv-x="75.0" d="M12.5 0 L12.5 62.5 L62.5 62.5 L62.5 0 L12.5 0 ZM14.0625 1.5625 L60.9375 1.5625 L60.9375 60.9375 L14.0625 60.9375 L14.0625 1.5625 Z"
        /><glyph unicode="u" horiz-adv-x="61.083984" d="M41.3125 0 L41.3125 7.7656 Q38.4844 3.6094 33.8672 1.2188 Q29.25 -1.1719 24.125 -1.1719 Q18.8906 -1.1719 14.7422 1.125 Q10.5938 3.4219 8.7422 7.5703 Q6.8906 11.7188 6.8906 19.0469 L6.8906 51.8594 L20.6094 51.8594 L20.6094 28.0312 Q20.6094 17.0938 21.3672 14.625 Q22.125 12.1562 24.125 10.7188 Q26.125 9.2812 29.2031 9.2812 Q32.7188 9.2812 35.5 11.2109 Q38.2812 13.1406 39.3047 15.9922 Q40.3281 18.8438 40.3281 29.9844 L40.3281 51.8594 L54.0469 51.8594 L54.0469 0 L41.3125 0 Z"
        /><glyph unicode="C" horiz-adv-x="72.2168" d="M53.0781 26.3125 L67.0938 21.875 Q63.875 10.1562 56.375 4.4688 Q48.875 -1.2188 37.3594 -1.2188 Q23.0938 -1.2188 13.9141 8.5234 Q4.7344 18.2656 4.7344 35.1562 Q4.7344 53.0312 13.9609 62.9141 Q23.1875 72.7969 38.2344 72.7969 Q51.375 72.7969 59.5781 65.0469 Q64.4531 60.4531 66.8906 51.8594 L52.5938 48.4375 Q51.3125 54 47.2891 57.2266 Q43.2656 60.4531 37.5 60.4531 Q29.5469 60.4531 24.5859 54.7422 Q19.625 49.0312 19.625 36.2344 Q19.625 22.6562 24.5078 16.8984 Q29.3906 11.1406 37.2031 11.1406 Q42.9688 11.1406 47.1172 14.7969 Q51.2656 18.4531 53.0781 26.3125 Z"
        /><glyph unicode="k" horiz-adv-x="55.615234" d="M6.6875 0 L6.6875 71.5781 L20.4062 71.5781 L20.4062 33.5938 L36.4688 51.8594 L53.375 51.8594 L35.6406 32.9062 L54.6406 0 L39.8438 0 L26.8125 23.2969 L20.4062 16.6094 L20.4062 0 L6.6875 0 Z"
        /><glyph unicode="f" horiz-adv-x="33.30078" d="M1.1719 51.8594 L8.7969 51.8594 L8.7969 55.7656 Q8.7969 62.3125 10.1875 65.5312 Q11.5781 68.75 15.3125 70.7734 Q19.0469 72.7969 24.75 72.7969 Q30.6094 72.7969 36.2344 71.0469 L34.375 61.4688 Q31.1094 62.25 28.0781 62.25 Q25.0938 62.25 23.8047 60.8594 Q22.5156 59.4688 22.5156 55.5156 L22.5156 51.8594 L32.7656 51.8594 L32.7656 41.0625 L22.5156 41.0625 L22.5156 0 L8.7969 0 L8.7969 41.0625 L1.1719 41.0625 L1.1719 51.8594 Z"
        /><glyph unicode="o" horiz-adv-x="61.083984" d="M4 26.6562 Q4 33.5 7.375 39.8984 Q10.75 46.2969 16.9219 49.6641 Q23.0938 53.0312 30.7188 53.0312 Q42.4844 53.0312 50 45.3906 Q57.5156 37.75 57.5156 26.0781 Q57.5156 14.3125 49.9219 6.5703 Q42.3281 -1.1719 30.8125 -1.1719 Q23.6875 -1.1719 17.2188 2.0547 Q10.75 5.2812 7.375 11.5 Q4 17.7188 4 26.6562 ZM18.0625 25.9219 Q18.0625 18.2188 21.7266 14.1172 Q25.3906 10.0156 30.7656 10.0156 Q36.1406 10.0156 39.7734 14.1172 Q43.4062 18.2188 43.4062 26.0312 Q43.4062 33.6406 39.7734 37.7422 Q36.1406 41.8438 30.7656 41.8438 Q25.3906 41.8438 21.7266 37.7422 Q18.0625 33.6406 18.0625 25.9219 Z"
        /><glyph unicode="l" horiz-adv-x="27.783203" d="M7.1719 0 L7.1719 71.5781 L20.9062 71.5781 L20.9062 0 L7.1719 0 Z"
        /><glyph unicode="p" horiz-adv-x="61.083984" d="M6.7812 51.8594 L19.5781 51.8594 L19.5781 44.2344 Q22.0781 48.1406 26.3203 50.5859 Q30.5625 53.0312 35.75 53.0312 Q44.7812 53.0312 51.0781 45.9531 Q57.375 38.875 57.375 26.2188 Q57.375 13.2344 51.0234 6.0312 Q44.6719 -1.1719 35.6406 -1.1719 Q31.3438 -1.1719 27.8516 0.5391 Q24.3594 2.25 20.5156 6.3906 L20.5156 -19.7344 L6.7812 -19.7344 L6.7812 51.8594 ZM20.3594 26.8125 Q20.3594 18.0625 23.8281 13.8906 Q27.2969 9.7188 32.2812 9.7188 Q37.0625 9.7188 40.2344 13.5547 Q43.4062 17.3906 43.4062 26.125 Q43.4062 34.2812 40.1328 38.2344 Q36.8594 42.1875 32.0312 42.1875 Q27 42.1875 23.6797 38.3047 Q20.3594 34.4219 20.3594 26.8125 Z"
        /><glyph unicode=" " horiz-adv-x="27.783203" d=""
        /><glyph unicode="b" horiz-adv-x="61.083984" d="M6.5938 0 L6.5938 71.5781 L20.3125 71.5781 L20.3125 45.7969 Q26.6562 53.0312 35.3594 53.0312 Q44.8281 53.0312 51.0312 46.1719 Q57.2344 39.3125 57.2344 26.4688 Q57.2344 13.1875 50.9062 6.0078 Q44.5781 -1.1719 35.5469 -1.1719 Q31.1094 -1.1719 26.7891 1.0469 Q22.4688 3.2656 19.3438 7.625 L19.3438 0 L6.5938 0 ZM20.2188 27.0469 Q20.2188 19 22.75 15.1406 Q26.3125 9.6719 32.2344 9.6719 Q36.7656 9.6719 39.9688 13.5547 Q43.1719 17.4375 43.1719 25.7812 Q43.1719 34.6719 39.9453 38.6016 Q36.7188 42.5312 31.6875 42.5312 Q26.7656 42.5312 23.4922 38.6953 Q20.2188 34.8594 20.2188 27.0469 Z"
        /><glyph unicode="L" horiz-adv-x="61.083984" d="M7.6719 0 L7.6719 71 L22.125 71 L22.125 12.0625 L58.0625 12.0625 L58.0625 0 L7.6719 0 Z"
        /><glyph unicode="t" horiz-adv-x="33.30078" d="M30.9531 51.8594 L30.9531 40.9219 L21.5781 40.9219 L21.5781 20.0156 Q21.5781 13.6719 21.8516 12.625 Q22.125 11.5781 23.0781 10.8906 Q24.0312 10.2031 25.3906 10.2031 Q27.2969 10.2031 30.9062 11.5312 L32.0781 0.875 Q27.2969 -1.1719 21.2344 -1.1719 Q17.5312 -1.1719 14.5547 0.0703 Q11.5781 1.3125 10.1875 3.2969 Q8.7969 5.2812 8.25 8.6406 Q7.8125 11.0312 7.8125 18.3125 L7.8125 40.9219 L1.5156 40.9219 L1.5156 51.8594 L7.8125 51.8594 L7.8125 62.1562 L21.5781 70.1719 L21.5781 51.8594 L30.9531 51.8594 Z"
        /><glyph unicode="a" horiz-adv-x="55.615234" d="M17.4375 36.0312 L4.9844 38.2812 Q7.0781 45.7969 12.2031 49.4141 Q17.3281 53.0312 27.4375 53.0312 Q36.625 53.0312 41.1172 50.8594 Q45.6094 48.6875 47.4375 45.3438 Q49.2656 42 49.2656 33.0625 L49.125 17.0469 Q49.125 10.2031 49.7812 6.9609 Q50.4375 3.7188 52.25 0 L38.6719 0 Q38.1406 1.375 37.3594 4.0469 Q37.0156 5.2812 36.8594 5.6719 Q33.3438 2.25 29.3438 0.5391 Q25.3438 -1.1719 20.7969 -1.1719 Q12.7969 -1.1719 8.1797 3.1719 Q3.5625 7.5156 3.5625 14.1562 Q3.5625 18.5625 5.6641 22 Q7.7656 25.4375 11.5469 27.2734 Q15.3281 29.1094 22.4688 30.4688 Q32.0781 32.2812 35.7969 33.8438 L35.7969 35.2031 Q35.7969 39.1562 33.8438 40.8438 Q31.8906 42.5312 26.4688 42.5312 Q22.7969 42.5312 20.75 41.0938 Q18.7031 39.6562 17.4375 36.0312 ZM35.7969 24.9062 Q33.1562 24.0312 27.4453 22.8047 Q21.7344 21.5781 19.9688 20.4062 Q17.2812 18.5 17.2812 15.5781 Q17.2812 12.7031 19.4297 10.6016 Q21.5781 8.5 24.9062 8.5 Q28.6094 8.5 31.9844 10.9375 Q34.4688 12.7969 35.25 15.4844 Q35.7969 17.2344 35.7969 22.1719 L35.7969 24.9062 Z"
        /><glyph unicode="M" horiz-adv-x="83.30078" d="M7.0781 0 L7.0781 71.5781 L28.7188 71.5781 L41.7031 22.75 L54.5469 71.5781 L76.2188 71.5781 L76.2188 0 L62.7969 0 L62.7969 56.3438 L48.5781 0 L34.6719 0 L20.5156 56.3438 L20.5156 0 L7.0781 0 Z"
      /></font
    ></defs
    ><g style="fill:white; stroke:white;"
    ><rect x="0" y="0" width="560" style="clip-path:url(#clipPath1); stroke:none;" height="420"
    /></g
    ><g style="fill:white; text-rendering:optimizeSpeed; color-rendering:optimizeSpeed; image-rendering:optimizeSpeed; shape-rendering:crispEdges; stroke:white; color-interpolation:sRGB;"
    ><rect x="0" width="560" height="420" y="0" style="stroke:none;"
      /><path style="stroke:none;" d="M73 374 L507 374 L507 31 L73 31 Z"
    /></g
    ><g style="fill:rgb(38,38,38); text-rendering:geometricPrecision; image-rendering:optimizeQuality; color-rendering:optimizeQuality; stroke-linejoin:round; stroke:rgb(38,38,38); color-interpolation:linearRGB; stroke-width:0.6667;"
    ><line y2="374" style="fill:none;" x1="73" x2="507" y1="374"
      /><line y2="31" style="fill:none;" x1="73" x2="507" y1="31"
      /><line y2="369.66" style="fill:none;" x1="73" x2="73" y1="374"
      /><line y2="369.66" style="fill:none;" x1="145.3333" x2="145.3333" y1="374"
      /><line y2="369.66" style="fill:none;" x1="217.6667" x2="217.6667" y1="374"
      /><line y2="369.66" style="fill:none;" x1="290" x2="290" y1="374"
      /><line y2="369.66" style="fill:none;" x1="362.3333" x2="362.3333" y1="374"
      /><line y2="369.66" style="fill:none;" x1="434.6667" x2="434.6667" y1="374"
      /><line y2="369.66" style="fill:none;" x1="507" x2="507" y1="374"
      /><line y2="35.34" style="fill:none;" x1="73" x2="73" y1="31"
      /><line y2="35.34" style="fill:none;" x1="145.3333" x2="145.3333" y1="31"
      /><line y2="35.34" style="fill:none;" x1="217.6667" x2="217.6667" y1="31"
      /><line y2="35.34" style="fill:none;" x1="290" x2="290" y1="31"
      /><line y2="35.34" style="fill:none;" x1="362.3333" x2="362.3333" y1="31"
      /><line y2="35.34" style="fill:none;" x1="434.6667" x2="434.6667" y1="31"
      /><line y2="35.34" style="fill:none;" x1="507" x2="507" y1="31"
    /></g
    ><g transform="translate(73,379.3333)" style="font-size:13.3333px; fill:rgb(38,38,38); text-rendering:geometricPrecision; image-rendering:optimizeQuality; color-rendering:optimizeQuality; font-family:'SansSerif'; stroke:rgb(38,38,38); color-interpolation:linearRGB;"
    ><text x="-4" xml:space="preserve" y="14" style="stroke:none;"
      >0</text
    ></g
    ><g transform="translate(145.3333,379.3333)" style="font-size:13.3333px; fill:rgb(38,38,38); text-rendering:geometricPrecision; image-rendering:optimizeQuality; color-rendering:optimizeQuality; font-family:'SansSerif'; stroke:rgb(38,38,38); color-interpolation:linearRGB;"
    ><text x="-7.5" xml:space="preserve" y="14" style="stroke:none;"
      >50</text
    ></g
    ><g transform="translate(217.6667,379.3333)" style="font-size:13.3333px; fill:rgb(38,38,38); text-rendering:geometricPrecision; image-rendering:optimizeQuality; color-rendering:optimizeQuality; font-family:'SansSerif'; stroke:rgb(38,38,38); color-interpolation:linearRGB;"
    ><text x="-11.5" xml:space="preserve" y="14" style="stroke:none;"
      >100</text
    ></g
    ><g transform="translate(290,379.3333)" style="font-size:13.3333px; fill:rgb(38,38,38); text-rendering:geometricPrecision; image-rendering:optimizeQuality; color-rendering:optimizeQuality; font-family:'SansSerif'; stroke:rgb(38,38,38); color-interpolation:linearRGB;"
    ><text x="-11.5" xml:space="preserve" y="14" style="stroke:none;"
      >150</text
    ></g
    ><g transform="translate(362.3333,379.3333)" style="font-size:13.3333px; fill:rgb(38,38,38); text-rendering:geometricPrecision; image-rendering:optimizeQuality; color-rendering:optimizeQuality; font-family:'SansSerif'; stroke:rgb(38,38,38); color-interpolation:linearRGB;"
    ><text x="-11.5" xml:space="preserve" y="14" style="stroke:none;"
      >200</text
    ></g
    ><g transform="translate(434.6667,379.3333)" style="font-size:13.3333px; fill:rgb(38,38,38); text-rendering:geometricPrecision; image-rendering:optimizeQuality; color-rendering:optimizeQuality; font-family:'SansSerif'; stroke:rgb(38,38,38); color-interpolation:linearRGB;"
    ><text x="-11.5" xml:space="preserve" y="14" style="stroke:none;"
      >250</text
    ></g
    ><g transform="translate(507,379.3333)" style="font-size:13.3333px; fill:rgb(38,38,38); text-rendering:geometricPrecision; image-rendering:optimizeQuality; color-rendering:optimizeQuality; font-family:'SansSerif'; stroke:rgb(38,38,38); color-interpolation:linearRGB;"
    ><text x="-11.5" xml:space="preserve" y="14" style="stroke:none;"
      >300</text
    ></g
    ><g transform="translate(290.0002,397.6667)" style="font-size:14.6667px; fill:rgb(38,38,38); text-rendering:geometricPrecision; image-rendering:optimizeQuality; color-rendering:optimizeQuality; font-family:'SansSerif'; stroke:rgb(38,38,38); color-interpolation:linearRGB;"
    ><text x="-15.5" xml:space="preserve" y="15" style="stroke:none;"
      >T [K]</text
    ></g
    ><g style="fill:rgb(38,38,38); text-rendering:geometricPrecision; image-rendering:optimizeQuality; color-rendering:optimizeQuality; stroke-linejoin:round; stroke:rgb(38,38,38); color-interpolation:linearRGB; stroke-width:0.6667;"
    ><line y2="31" style="fill:none;" x1="73" x2="73" y1="374"
      /><line y2="31" style="fill:none;" x1="507" x2="507" y1="374"
      /><line y2="374" style="fill:none;" x1="73" x2="77.34" y1="374"
      /><line y2="339.7" style="fill:none;" x1="73" x2="77.34" y1="339.7"
      /><line y2="305.4" style="fill:none;" x1="73" x2="77.34" y1="305.4"
      /><line y2="271.1" style="fill:none;" x1="73" x2="77.34" y1="271.1"
      /><line y2="236.8" style="fill:none;" x1="73" x2="77.34" y1="236.8"
      /><line y2="202.5" style="fill:none;" x1="73" x2="77.34" y1="202.5"
      /><line y2="168.2" style="fill:none;" x1="73" x2="77.34" y1="168.2"
      /><line y2="133.9" style="fill:none;" x1="73" x2="77.34" y1="133.9"
      /><line y2="99.6" style="fill:none;" x1="73" x2="77.34" y1="99.6"
      /><line y2="65.3" style="fill:none;" x1="73" x2="77.34" y1="65.3"
      /><line y2="31" style="fill:none;" x1="73" x2="77.34" y1="31"
      /><line y2="374" style="fill:none;" x1="507" x2="502.66" y1="374"
      /><line y2="339.7" style="fill:none;" x1="507" x2="502.66" y1="339.7"
      /><line y2="305.4" style="fill:none;" x1="507" x2="502.66" y1="305.4"
      /><line y2="271.1" style="fill:none;" x1="507" x2="502.66" y1="271.1"
      /><line y2="236.8" style="fill:none;" x1="507" x2="502.66" y1="236.8"
      /><line y2="202.5" style="fill:none;" x1="507" x2="502.66" y1="202.5"
      /><line y2="168.2" style="fill:none;" x1="507" x2="502.66" y1="168.2"
      /><line y2="133.9" style="fill:none;" x1="507" x2="502.66" y1="133.9"
      /><line y2="99.6" style="fill:none;" x1="507" x2="502.66" y1="99.6"
      /><line y2="65.3" style="fill:none;" x1="507" x2="502.66" y1="65.3"
      /><line y2="31" style="fill:none;" x1="507" x2="502.66" y1="31"
    /></g
    ><g transform="translate(67.6667,374)" style="font-size:13.3333px; fill:rgb(38,38,38); text-rendering:geometricPrecision; image-rendering:optimizeQuality; color-rendering:optimizeQuality; font-family:'SansSerif'; stroke:rgb(38,38,38); color-interpolation:linearRGB;"
    ><text x="-12" xml:space="preserve" y="5.5" style="stroke:none;"
      >-1</text
    ></g
    ><g transform="translate(67.6667,339.7)" style="font-size:13.3333px; fill:rgb(38,38,38); text-rendering:geometricPrecision; image-rendering:optimizeQuality; color-rendering:optimizeQuality; font-family:'SansSerif'; stroke:rgb(38,38,38); color-interpolation:linearRGB;"
    ><text x="-23" xml:space="preserve" y="5.5" style="stroke:none;"
      >-0.8</text
    ></g
    ><g transform="translate(67.6667,305.4)" style="font-size:13.3333px; fill:rgb(38,38,38); text-rendering:geometricPrecision; image-rendering:optimizeQuality; color-rendering:optimizeQuality; font-family:'SansSerif'; stroke:rgb(38,38,38); color-interpolation:linearRGB;"
    ><text x="-23" xml:space="preserve" y="5.5" style="stroke:none;"
      >-0.6</text
    ></g
    ><g transform="translate(67.6667,271.1)" style="font-size:13.3333px; fill:rgb(38,38,38); text-rendering:geometricPrecision; image-rendering:optimizeQuality; color-rendering:optimizeQuality; font-family:'SansSerif'; stroke:rgb(38,38,38); color-interpolation:linearRGB;"
    ><text x="-23" xml:space="preserve" y="5.5" style="stroke:none;"
      >-0.4</text
    ></g
    ><g transform="translate(67.6667,236.8)" style="font-size:13.3333px; fill:rgb(38,38,38); text-rendering:geometricPrecision; image-rendering:optimizeQuality; color-rendering:optimizeQuality; font-family:'SansSerif'; stroke:rgb(38,38,38); color-interpolation:linearRGB;"
    ><text x="-23" xml:space="preserve" y="5.5" style="stroke:none;"
      >-0.2</text
    ></g
    ><g transform="translate(67.6667,202.5)" style="font-size:13.3333px; fill:rgb(38,38,38); text-rendering:geometricPrecision; image-rendering:optimizeQuality; color-rendering:optimizeQuality; font-family:'SansSerif'; stroke:rgb(38,38,38); color-interpolation:linearRGB;"
    ><text x="-8" xml:space="preserve" y="5.5" style="stroke:none;"
      >0</text
    ></g
    ><g transform="translate(67.6667,168.2)" style="font-size:13.3333px; fill:rgb(38,38,38); text-rendering:geometricPrecision; image-rendering:optimizeQuality; color-rendering:optimizeQuality; font-family:'SansSerif'; stroke:rgb(38,38,38); color-interpolation:linearRGB;"
    ><text x="-19" xml:space="preserve" y="5.5" style="stroke:none;"
      >0.2</text
    ></g
    ><g transform="translate(67.6667,133.9)" style="font-size:13.3333px; fill:rgb(38,38,38); text-rendering:geometricPrecision; image-rendering:optimizeQuality; color-rendering:optimizeQuality; font-family:'SansSerif'; stroke:rgb(38,38,38); color-interpolation:linearRGB;"
    ><text x="-19" xml:space="preserve" y="5.5" style="stroke:none;"
      >0.4</text
    ></g
    ><g transform="translate(67.6667,99.6)" style="font-size:13.3333px; fill:rgb(38,38,38); text-rendering:geometricPrecision; image-rendering:optimizeQuality; color-rendering:optimizeQuality; font-family:'SansSerif'; stroke:rgb(38,38,38); color-interpolation:linearRGB;"
    ><text x="-19" xml:space="preserve" y="5.5" style="stroke:none;"
      >0.6</text
    ></g
    ><g transform="translate(67.6667,65.3)" style="font-size:13.3333px; fill:rgb(38,38,38); text-rendering:geometricPrecision; image-rendering:optimizeQuality; color-rendering:optimizeQuality; font-family:'SansSerif'; stroke:rgb(38,38,38); color-interpolation:linearRGB;"
    ><text x="-19" xml:space="preserve" y="5.5" style="stroke:none;"
      >0.8</text
    ></g
    ><g transform="translate(67.6667,31)" style="font-size:13.3333px; fill:rgb(38,38,38); text-rendering:geometricPrecision; image-rendering:optimizeQuality; color-rendering:optimizeQuality; font-family:'SansSerif'; stroke:rgb(38,38,38); color-interpolation:linearRGB;"
    ><text x="-8" xml:space="preserve" y="5.5" style="stroke:none;"
      >1</text
    ></g
    ><g transform="translate(40.6667,202.4998) rotate(-90)" style="font-size:14.6667px; fill:rgb(38,38,38); text-rendering:geometricPrecision; image-rendering:optimizeQuality; color-rendering:optimizeQuality; font-family:'SansSerif'; stroke:rgb(38,38,38); color-interpolation:linearRGB;"
    ><text x="-35.5" xml:space="preserve" y="-4" style="stroke:none;"
      >k [W/(K*m)</text
    ></g
    ><g transform="translate(290.0003,28.25)" style="font-size:14.6667px; text-rendering:geometricPrecision; image-rendering:optimizeQuality; color-rendering:optimizeQuality; font-family:'SansSerif'; color-interpolation:linearRGB; font-weight:bold;"
    ><text x="-66" xml:space="preserve" y="-4" style="stroke:none;"
      >MatLab plot of kCu</text
    ></g
    ><g style="stroke-linecap:butt; fill:rgb(0,114,189); text-rendering:geometricPrecision; image-rendering:optimizeQuality; color-rendering:optimizeQuality; stroke-linejoin:round; stroke:rgb(0,114,189); color-interpolation:linearRGB; stroke-width:0.6667;"
    ><path d="M73 202.5 L73.4344 202.5 L73.8689 202.5 L74.3033 202.5 L74.7377 202.5 L75.1722 202.5 L75.6066 202.5 L76.041 202.5 L76.4755 202.5 L76.9099 202.5 L77.3443 202.5 L77.7788 202.5 L78.2132 202.5 L78.6476 202.5 L79.0821 202.5 L79.5165 202.5 L79.951 202.5 L80.3854 202.5 L80.8198 202.5 L81.2543 202.5 L81.6887 202.5 L82.1231 202.5 L82.5576 202.5 L82.992 202.5 L83.4264 202.5 L83.8609 202.5 L84.2953 202.5 L84.7297 202.5 L85.1642 202.5 L85.5986 202.5 L86.033 202.5 L86.4675 202.5 L86.9019 202.5 L87.3363 202.5 L87.7708 202.5 L88.2052 202.5 L88.6396 202.5 L89.0741 202.5 L89.5085 202.5 L89.9429 202.5 L90.3774 202.5 L90.8118 202.5 L91.2462 202.5 L91.6807 202.5 L92.1151 202.5 L92.5496 202.5 L92.984 202.5 L93.4184 202.5 L93.8529 202.5 L94.2873 202.5 L94.7217 202.5 L95.1562 202.5 L95.5906 202.5 L96.025 202.5 L96.4595 202.5 L96.8939 202.5 L97.3283 202.5 L97.7628 202.5 L98.1972 202.5 L98.6316 202.5 L99.0661 202.5 L99.5005 202.5 L99.9349 202.5 L100.3694 202.5 L100.8038 202.5 L101.2382 202.5 L101.6727 202.5 L102.1071 202.5 L102.5415 202.5 L102.976 202.5 L103.4104 202.5 L103.8448 202.5 L104.2793 202.5 L104.7137 202.5 L105.1481 202.5 L105.5826 202.5 L106.017 202.5 L106.4515 202.5 L106.8859 202.5 L107.3203 202.5 L107.7548 202.5 L108.1892 202.5 L108.6236 202.5 L109.0581 202.5 L109.4925 202.5 L109.9269 202.5 L110.3614 202.5 L110.7958 202.5 L111.2302 202.5 L111.6647 202.5 L112.0991 202.5 L112.5335 202.5 L112.968 202.5 L113.4024 202.5 L113.8368 202.5 L114.2713 202.5 L114.7057 202.5 L115.1401 202.5 L115.5746 202.5 L116.009 202.5 L116.4434 202.5 L116.8779 202.5 L117.3123 202.5 L117.7467 202.5 L118.1812 202.5 L118.6156 202.5 L119.05 202.5 L119.4845 202.5 L119.9189 202.5 L120.3533 202.5 L120.7878 202.5 L121.2222 202.5 L121.6567 202.5 L122.0911 202.5 L122.5255 202.5 L122.96 202.5 L123.3944 202.5 L123.8288 202.5 L124.2633 202.5 L124.6977 202.5 L125.1321 202.5 L125.5666 202.5 L126.001 202.5 L126.4354 202.5 L126.8699 202.5 L127.3043 202.5 L127.7387 202.5 L128.1732 202.5 L128.6076 202.5 L129.042 202.5 L129.4765 202.5 L129.9109 202.5 L130.3454 202.5 L130.7798 202.5 L131.2142 202.5 L131.6487 202.5 L132.0831 202.5 L132.5175 202.5 L132.952 202.5 L133.3864 202.5 L133.8208 202.5 L134.2552 202.5 L134.6897 202.5 L135.1241 202.5 L135.5586 202.5 L135.993 202.5 L136.4274 202.5 L136.8619 202.5 L137.2963 202.5 L137.7307 202.5 L138.1652 202.5 L138.5996 202.5 L139.034 202.5 L139.4685 202.5 L139.9029 202.5 L140.3373 202.5 L140.7718 202.5 L141.2062 202.5 L141.6406 202.5 L142.0751 202.5 L142.5095 202.5 L142.9439 202.5 L143.3784 202.5 L143.8128 202.5 L144.2473 202.5 L144.6817 202.5 L145.1161 202.5 L145.5506 202.5 L145.985 202.5 L146.4194 202.5 L146.8539 202.5 L147.2883 202.5 L147.7227 202.5 L148.1572 202.5 L148.5916 202.5 L149.026 202.5 L149.4605 202.5 L149.8949 202.5 L150.3293 202.5 L150.7638 202.5 L151.1982 202.5 L151.6326 202.5 L152.0671 202.5 L152.5015 202.5 L152.9359 202.5 L153.3704 202.5 L153.8048 202.5 L154.2392 202.5 L154.6737 202.5 L155.1081 202.5 L155.5425 202.5 L155.977 202.5 L156.4114 202.5 L156.8458 202.5 L157.2803 202.5 L157.7147 202.5 L158.1492 202.5 L158.5836 202.5 L159.018 202.5 L159.4525 202.5 L159.8869 202.5 L160.3213 202.5 L160.7558 202.5 L161.1902 202.5 L161.6246 202.5 L162.0591 202.5 L162.4935 202.5 L162.9279 202.5 L163.3624 202.5 L163.7968 202.5 L164.2312 202.5 L164.6657 202.5 L165.1001 202.5 L165.5345 202.5 L165.969 202.5 L166.4034 202.5 L166.8378 202.5 L167.2723 202.5 L167.7067 202.5 L168.1411 202.5 L168.5756 202.5 L169.01 202.5 L169.4444 202.5 L169.8789 202.5 L170.3133 202.5 L170.7477 202.5 L171.1822 202.5 L171.6166 202.5 L172.0511 202.5 L172.4855 202.5 L172.9199 202.5 L173.3544 202.5 L173.7888 202.5 L174.2232 202.5 L174.6577 202.5 L175.0921 202.5 L175.5265 202.5 L175.961 202.5 L176.3954 202.5 L176.8298 202.5 L177.2643 202.5 L177.6987 202.5 L178.1331 202.5 L178.5676 202.5 L179.002 202.5 L179.4364 202.5 L179.8709 202.5 L180.3053 202.5 L180.7397 202.5 L181.1742 202.5 L181.6086 202.5 L182.043 202.5 L182.4775 202.5 L182.9119 202.5 L183.3463 202.5 L183.7808 202.5 L184.2152 202.5 L184.6496 202.5 L185.0841 202.5 L185.5185 202.5 L185.953 202.5 L186.3874 202.5 L186.8218 202.5 L187.2563 202.5 L187.6907 202.5 L188.1251 202.5 L188.5596 202.5 L188.994 202.5 L189.4284 202.5 L189.8629 202.5 L190.2973 202.5 L190.7317 202.5 L191.1662 202.5 L191.6006 202.5 L192.035 202.5 L192.4695 202.5 L192.9039 202.5 L193.3383 202.5 L193.7728 202.5 L194.2072 202.5 L194.6416 202.5 L195.0761 202.5 L195.5105 202.5 L195.9449 202.5 L196.3794 202.5 L196.8138 202.5 L197.2482 202.5 L197.6827 202.5 L198.1171 202.5 L198.5516 202.5 L198.986 202.5 L199.4204 202.5 L199.8549 202.5 L200.2893 202.5 L200.7237 202.5 L201.1582 202.5 L201.5926 202.5 L202.027 202.5 L202.4615 202.5 L202.8959 202.5 L203.3303 202.5 L203.7648 202.5 L204.1992 202.5 L204.6336 202.5 L205.0681 202.5 L205.5025 202.5 L205.9369 202.5 L206.3714 202.5 L206.8058 202.5 L207.2402 202.5 L207.6747 202.5 L208.1091 202.5 L208.5435 202.5 L208.978 202.5 L209.4124 202.5 L209.8468 202.5 L210.2813 202.5 L210.7157 202.5 L211.1502 202.5 L211.5846 202.5 L212.019 202.5 L212.4534 202.5 L212.8879 202.5 L213.3223 202.5 L213.7568 202.5 L214.1912 202.5 L214.6256 202.5 L215.0601 202.5 L215.4945 202.5 L215.9289 202.5 L216.3634 202.5 L216.7978 202.5 L217.2322 202.5 L217.6667 202.5 L218.1011 202.5 L218.5355 202.5 L218.97 202.5 L219.4044 202.5 L219.8388 202.5 L220.2733 202.5 L220.7077 202.5 L221.1422 202.5 L221.5766 202.5 L222.011 202.5 L222.4454 202.5 L222.8799 202.5 L223.3143 202.5 L223.7487 202.5 L224.1832 202.5 L224.6176 202.5 L225.052 202.5 L225.4865 202.5 L225.9209 202.5 L226.3553 202.5 L226.7898 202.5 L227.2242 202.5 L227.6587 202.5 L228.0931 202.5 L228.5275 202.5 L228.962 202.5 L229.3964 202.5 L229.8308 202.5 L230.2653 202.5 L230.6997 202.5 L231.1341 202.5 L231.5686 202.5 L232.003 202.5 L232.4374 202.5 L232.8719 202.5 L233.3063 202.5 L233.7408 202.5 L234.1752 202.5 L234.6096 202.5 L235.044 202.5 L235.4785 202.5 L235.9129 202.5 L236.3474 202.5 L236.7818 202.5 L237.2162 202.5 L237.6507 202.5 L238.0851 202.5 L238.5195 202.5 L238.9539 202.5 L239.3884 202.5 L239.8228 202.5 L240.2573 202.5 L240.6917 202.5 L241.1261 202.5 L241.5606 202.5 L241.995 202.5 L242.4294 202.5 L242.8639 202.5 L243.2983 202.5 L243.7327 202.5 L244.1672 202.5 L244.6016 202.5 L245.036 202.5 L245.4705 202.5 L245.9049 202.5 L246.3393 202.5 L246.7738 202.5 L247.2082 202.5 L247.6426 202.5 L248.0771 202.5 L248.5115 202.5 L248.9459 202.5 L249.3804 202.5 L249.8148 202.5 L250.2493 202.5 L250.6837 202.5 L251.1181 202.5 L251.5526 202.5 L251.987 202.5 L252.4214 202.5 L252.8559 202.5 L253.2903 202.5 L253.7247 202.5 L254.1592 202.5 L254.5936 202.5 L255.028 202.5 L255.4625 202.5 L255.8969 202.5 L256.3313 202.5 L256.7657 202.5 L257.2002 202.5 L257.6346 202.5 L258.0691 202.5 L258.5035 202.5 L258.938 202.5 L259.3724 202.5 L259.8068 202.5 L260.2412 202.5 L260.6757 202.5 L261.1101 202.5 L261.5446 202.5 L261.979 202.5 L262.4134 202.5 L262.8478 202.5 L263.2823 202.5 L263.7167 202.5 L264.1512 202.5 L264.5856 202.5 L265.02 202.5 L265.4545 202.5 L265.8889 202.5 L266.3233 202.5 L266.7578 202.5 L267.1922 202.5 L267.6266 202.5 L268.0611 202.5 L268.4955 202.5 L268.9299 202.5 L269.3643 202.5 L269.7988 202.5 L270.2332 202.5 L270.6677 202.5 L271.1021 202.5 L271.5366 202.5 L271.971 202.5 L272.4054 202.5 L272.8398 202.5 L273.2743 202.5 L273.7087 202.5 L274.1431 202.5 L274.5776 202.5 L275.012 202.5 L275.4464 202.5 L275.8809 202.5 L276.3153 202.5 L276.7498 202.5 L277.1842 202.5 L277.6186 202.5 L278.0531 202.5 L278.4875 202.5 L278.9219 202.5 L279.3564 202.5 L279.7908 202.5 L280.2252 202.5 L280.6597 202.5 L281.0941 202.5 L281.5285 202.5 L281.963 202.5 L282.3974 202.5 L282.8318 202.5 L283.2663 202.5 L283.7007 202.5 L284.1351 202.5 L284.5696 202.5 L285.004 202.5 L285.4384 202.5 L285.8729 202.5 L286.3073 202.5 L286.7417 202.5 L287.1762 202.5 L287.6106 202.5 L288.045 202.5 L288.4795 202.5 L288.9139 202.5 L289.3483 202.5 L289.7828 202.5 L290.2172 202.5 L290.6517 202.5 L291.0861 202.5 L291.5205 202.5 L291.955 202.5 L292.3894 202.5 L292.8238 202.5 L293.2583 202.5 L293.6927 202.5 L294.1271 202.5 L294.5616 202.5 L294.996 202.5 L295.4304 202.5 L295.8649 202.5 L296.2993 202.5 L296.7337 202.5 L297.1682 202.5 L297.6026 202.5 L298.037 202.5 L298.4715 202.5 L298.9059 202.5 L299.3403 202.5 L299.7748 202.5 L300.2092 202.5 L300.6436 202.5 L301.0781 202.5 L301.5125 202.5 L301.9469 202.5 L302.3814 202.5 L302.8158 202.5 L303.2502 202.5 L303.6847 202.5 L304.1191 202.5 L304.5536 202.5 L304.988 202.5 L305.4224 202.5 L305.8569 202.5 L306.2913 202.5 L306.7257 202.5 L307.1602 202.5 L307.5946 202.5 L308.029 202.5 L308.4634 202.5 L308.8979 202.5 L309.3323 202.5 L309.7668 202.5 L310.2012 202.5 L310.6357 202.5 L311.0701 202.5 L311.5045 202.5 L311.9389 202.5 L312.3734 202.5 L312.8078 202.5 L313.2422 202.5 L313.6767 202.5 L314.1111 202.5 L314.5455 202.5 L314.98 202.5 L315.4144 202.5 L315.8488 202.5 L316.2833 202.5 L316.7177 202.5 L317.1522 202.5 L317.5866 202.5 L318.021 202.5 L318.4554 202.5 L318.8899 202.5 L319.3243 202.5 L319.7588 202.5 L320.1932 202.5 L320.6276 202.5 L321.062 202.5 L321.4965 202.5 L321.9309 202.5 L322.3654 202.5 L322.7998 202.5 L323.2343 202.5 L323.6687 202.5 L324.1031 202.5 L324.5375 202.5 L324.972 202.5 L325.4064 202.5 L325.8409 202.5 L326.2753 202.5 L326.7097 202.5 L327.1441 202.5 L327.5786 202.5 L328.013 202.5 L328.4474 202.5 L328.8819 202.5 L329.3163 202.5 L329.7508 202.5 L330.1852 202.5 L330.6196 202.5 L331.054 202.5 L331.4885 202.5 L331.9229 202.5 L332.3574 202.5 L332.7918 202.5 L333.2262 202.5 L333.6606 202.5 L334.0951 202.5 L334.5295 202.5 L334.964 202.5 L335.3984 202.5 L335.8328 202.5 L336.2673 202.5 L336.7017 202.5 L337.1361 202.5 L337.5706 202.5 L338.005 202.5 L338.4395 202.5 L338.8739 202.5 L339.3083 202.5 L339.7427 202.5 L340.1772 202.5 L340.6116 202.5 L341.0461 202.5 L341.4805 202.5 L341.9149 202.5 L342.3494 202.5 L342.7838 202.5 L343.2182 202.5 L343.6526 202.5 L344.0871 202.5 L344.5215 202.5 L344.956 202.5 L345.3904 202.5 L345.8248 202.5 L346.2592 202.5 L346.6937 202.5 L347.1281 202.5 L347.5626 202.5 L347.997 202.5 L348.4314 202.5 L348.8659 202.5 L349.3003 202.5 L349.7347 202.5 L350.1692 202.5 L350.6036 202.5 L351.0381 202.5 L351.4725 202.5 L351.9069 202.5 L352.3413 202.5 L352.7758 202.5 L353.2102 202.5 L353.6446 202.5 L354.0791 202.5 L354.5135 202.5 L354.9479 202.5 L355.3824 202.5 L355.8168 202.5 L356.2513 202.5 L356.6857 202.5 L357.1201 202.5 L357.5546 202.5 L357.989 202.5 L358.4234 202.5 L358.8578 202.5 L359.2923 202.5 L359.7267 202.5 L360.1612 202.5 L360.5956 202.5 L361.03 202.5 L361.4645 202.5 L361.8989 202.5 L362.3333 202.5 L362.7678 202.5 L363.2022 202.5 L363.6366 202.5 L364.0711 202.5 L364.5055 202.5 L364.9399 202.5 L365.3744 202.5 L365.8088 202.5 L366.2432 202.5 L366.6777 202.5 L367.1121 202.5 L367.5465 202.5 L367.981 202.5 L368.4154 202.5 L368.8499 202.5 L369.2843 202.5 L369.7187 202.5 L370.1532 202.5 L370.5876 202.5 L371.022 202.5 L371.4565 202.5 L371.8909 202.5 L372.3253 202.5 L372.7598 202.5 L373.1942 202.5 L373.6286 202.5 L374.063 202.5 L374.4975 202.5 L374.9319 202.5 L375.3664 202.5 L375.8008 202.5 L376.2352 202.5 L376.6697 202.5 L377.1041 202.5 L377.5385 202.5 L377.973 202.5 L378.4074 202.5 L378.8418 202.5 L379.2763 202.5 L379.7107 202.5 L380.1451 202.5 L380.5796 202.5 L381.014 202.5 L381.4485 202.5 L381.8829 202.5 L382.3173 202.5 L382.7518 202.5 L383.1862 202.5 L383.6206 202.5 L384.0551 202.5 L384.4895 202.5 L384.9239 202.5 L385.3583 202.5 L385.7928 202.5 L386.2272 202.5 L386.6617 202.5 L387.0961 202.5 L387.5305 202.5 L387.965 202.5 L388.3994 202.5 L388.8338 202.5 L389.2683 202.5 L389.7027 202.5 L390.1371 202.5 L390.5716 202.5 L391.006 202.5 L391.4404 202.5 L391.8749 202.5 L392.3093 202.5 L392.7437 202.5 L393.1782 202.5 L393.6126 202.5 L394.0471 202.5 L394.4815 202.5 L394.9159 202.5 L395.3504 202.5 L395.7848 202.5 L396.2192 202.5 L396.6537 202.5 L397.0881 202.5 L397.5225 202.5 L397.9569 202.5 L398.3914 202.5 L398.8258 202.5 L399.2603 202.5 L399.6947 202.5 L400.1291 202.5 L400.5636 202.5 L400.998 202.5 L401.4324 202.5 L401.8669 202.5 L402.3013 202.5 L402.7357 202.5 L403.1702 202.5 L403.6046 202.5 L404.039 202.5 L404.4735 202.5 L404.9079 202.5 L405.3423 202.5 L405.7768 202.5 L406.2112 202.5 L406.6457 202.5 L407.0801 202.5 L407.5145 202.5 L407.9489 202.5 L408.3834 202.5 L408.8178 202.5 L409.2523 202.5 L409.6867 202.5 L410.1211 202.5 L410.5555 202.5 L410.99 202.5 L411.4244 202.5 L411.8589 202.5 L412.2933 202.5 L412.7277 202.5 L413.1622 202.5 L413.5966 202.5 L414.031 202.5 L414.4655 202.5 L414.8999 202.5 L415.3344 202.5 L415.7688 202.5 L416.2032 202.5 L416.6376 202.5 L417.0721 202.5 L417.5065 202.5 L417.9409 202.5 L418.3754 202.5 L418.8098 202.5 L419.2442 202.5 L419.6787 202.5 L420.1131 202.5 L420.5475 202.5 L420.982 202.5 L421.4164 202.5 L421.8509 202.5 L422.2853 202.5 L422.7197 202.5 L423.1541 202.5 L423.5886 202.5 L424.023 202.5 L424.4575 202.5 L424.8919 202.5 L425.3263 202.5 L425.7607 202.5 L426.1952 202.5 L426.6296 202.5 L427.0641 202.5 L427.4985 202.5 L427.933 202.5 L428.3674 202.5 L428.8018 202.5 L429.2362 202.5 L429.6707 202.5 L430.1051 202.5 L430.5395 202.5 L430.974 202.5 L431.4084 202.5 L431.8428 202.5 L432.2773 202.5 L432.7117 202.5 L433.1461 202.5 L433.5806 202.5 L434.015 202.5 L434.4495 202.5 L434.8839 202.5 L435.3183 202.5 L435.7527 202.5 L436.1872 202.5 L436.6216 202.5 L437.0561 202.5 L437.4905 202.5 L437.9249 202.5 L438.3593 202.5 L438.7938 202.5 L439.2282 202.5 L439.6627 202.5 L440.0971 202.5 L440.5315 202.5 L440.966 202.5 L441.4004 202.5 L441.8348 202.5 L442.2693 202.5 L442.7037 202.5 L443.1381 202.5 L443.5726 202.5 L444.007 202.5 L444.4414 202.5 L444.8759 202.5 L445.3103 202.5 L445.7448 202.5 L446.1792 202.5 L446.6136 202.5 L447.0481 202.5 L447.4825 202.5 L447.9169 202.5 L448.3514 202.5 L448.7858 202.5 L449.2202 202.5 L449.6546 202.5 L450.0891 202.5 L450.5235 202.5 L450.9579 202.5 L451.3924 202.5 L451.8268 202.5 L452.2613 202.5 L452.6957 202.5 L453.1301 202.5 L453.5645 202.5 L453.999 202.5 L454.4334 202.5 L454.8679 202.5 L455.3023 202.5 L455.7368 202.5 L456.1712 202.5 L456.6056 202.5 L457.04 202.5 L457.4745 202.5 L457.9089 202.5 L458.3434 202.5 L458.7778 202.5 L459.2122 202.5 L459.6467 202.5 L460.0811 202.5 L460.5155 202.5 L460.95 202.5 L461.3844 202.5 L461.8188 202.5 L462.2532 202.5 L462.6877 202.5 L463.1221 202.5 L463.5565 202.5 L463.991 202.5 L464.4254 202.5 L464.8599 202.5 L465.2943 202.5 L465.7287 202.5 L466.1631 202.5 L466.5976 202.5 L467.032 202.5 L467.4665 202.5 L467.9009 202.5 L468.3354 202.5 L468.7698 202.5 L469.2042 202.5 L469.6386 202.5 L470.0731 202.5 L470.5075 202.5 L470.9419 202.5 L471.3764 202.5 L471.8108 202.5 L472.2453 202.5 L472.6797 202.5 L473.1141 202.5 L473.5486 202.5 L473.983 202.5 L474.4174 202.5 L474.8518 202.5 L475.2863 202.5 L475.7207 202.5 L476.1552 202.5 L476.5896 202.5 L477.024 202.5 L477.4585 202.5 L477.8929 202.5 L478.3273 202.5 L478.7617 202.5 L479.1962 202.5 L479.6306 202.5 L480.0651 202.5 L480.4995 202.5 L480.934 202.5 L481.3684 202.5 L481.8028 202.5 L482.2372 202.5 L482.6717 202.5 L483.1061 202.5 L483.5405 202.5 L483.975 202.5 L484.4094 202.5 L484.8438 202.5 L485.2783 202.5 L485.7127 202.5 L486.1471 202.5 L486.5816 202.5 L487.016 202.5 L487.4504 202.5 L487.8849 202.5 L488.3193 202.5 L488.7538 202.5 L489.1882 202.5 L489.6226 202.5 L490.0571 202.5 L490.4915 202.5 L490.9259 202.5 L491.3604 202.5 L491.7948 202.5 L492.2292 202.5 L492.6637 202.5 L493.0981 202.5 L493.5326 202.5 L493.967 202.5 L494.4014 202.5 L494.8358 202.5 L495.2703 202.5 L495.7047 202.5 L496.1391 202.5 L496.5736 202.5 L497.008 202.5 L497.4424 202.5 L497.8769 202.5 L498.3113 202.5 L498.7457 202.5 L499.1802 202.5 L499.6146 202.5 L500.049 202.5 L500.4835 202.5 L500.9179 202.5 L501.3524 202.5 L501.7868 202.5 L502.2212 202.5 L502.6557 202.5 L503.0901 202.5 L503.5245 202.5 L503.959 202.5 L504.3934 202.5 L504.8279 202.5 L505.2623 202.5 L505.6967 202.5 L506.1312 202.5 L506.5656 202.5 L507 202.5" style="fill:none; fill-rule:evenodd;"
    /></g
  ></g
></svg
>
