<?xml version="1.0"?>
<!DOCTYPE svg PUBLIC '-//W3C//DTD SVG 1.0//EN'
          'http://www.w3.org/TR/2001/REC-SVG-20010904/DTD/svg10.dtd'>
<svg xmlns:xlink="http://www.w3.org/1999/xlink" style="fill-opacity:1; color-rendering:auto; color-interpolation:auto; text-rendering:auto; stroke:black; stroke-linecap:square; stroke-miterlimit:10; shape-rendering:auto; stroke-opacity:1; fill:black; stroke-dasharray:none; font-weight:normal; stroke-width:1; font-family:'Dialog'; font-style:normal; stroke-linejoin:miter; font-size:12px; stroke-dashoffset:0; image-rendering:auto;" width="560" height="420" xmlns="http://www.w3.org/2000/svg"
><!--Generated by the Batik Graphics2D SVG Generator--><defs id="genericDefs"
  /><g
  ><defs id="defs1"
    ><clipPath clipPathUnits="userSpaceOnUse" id="clipPath1"
      ><path d="M0 0 L560 0 L560 420 L0 420 L0 0 Z"
      /></clipPath
      ><font horiz-adv-x="75.0" id="font1"
      ><font-face ascent="100.53711" descent="21.972656" units-per-em="100" style="font-style:normal; font-family:SansSerif; font-weight:normal;"
        /><missing-glyph horiz-adv-x="75.0" d="M12.5 0 L12.5 62.5 L62.5 62.5 L62.5 0 L12.5 0 ZM14.0625 1.5625 L60.9375 1.5625 L60.9375 60.9375 L14.0625 60.9375 L14.0625 1.5625 Z"
        /><glyph unicode="0" horiz-adv-x="55.615234" d="M4.1562 35.2969 Q4.1562 48 6.7656 55.7422 Q9.375 63.4844 14.5234 67.6797 Q19.6719 71.875 27.4844 71.875 Q33.25 71.875 37.5938 69.5547 Q41.9375 67.2344 44.7734 62.8672 Q47.6094 58.5 49.2188 52.2266 Q50.8281 45.9531 50.8281 35.2969 Q50.8281 22.7031 48.2422 14.9688 Q45.6562 7.2344 40.5078 3.0078 Q35.3594 -1.2188 27.4844 -1.2188 Q17.1406 -1.2188 11.2344 6.2031 Q4.1562 15.1406 4.1562 35.2969 ZM13.1875 35.2969 Q13.1875 17.6719 17.3125 11.8359 Q21.4375 6 27.4844 6 Q33.5469 6 37.6719 11.8594 Q41.7969 17.7188 41.7969 35.2969 Q41.7969 52.9844 37.6719 58.7891 Q33.5469 64.5938 27.3906 64.5938 Q21.3438 64.5938 17.7188 59.4688 Q13.1875 52.9375 13.1875 35.2969 Z"
        /><glyph unicode="5" horiz-adv-x="55.615234" d="M4.1562 18.75 L13.375 19.5312 Q14.4062 12.7969 18.1406 9.3984 Q21.875 6 27.1562 6 Q33.5 6 37.8906 10.7891 Q42.2812 15.5781 42.2812 23.4844 Q42.2812 31 38.0625 35.3516 Q33.8438 39.7031 27 39.7031 Q22.75 39.7031 19.3359 37.7734 Q15.9219 35.8438 13.9688 32.7656 L5.7188 33.8438 L12.6406 70.6094 L48.25 70.6094 L48.25 62.2031 L19.6719 62.2031 L15.8281 42.9688 Q22.2656 47.4688 29.3438 47.4688 Q38.7188 47.4688 45.1641 40.9688 Q51.6094 34.4688 51.6094 24.2656 Q51.6094 14.5469 45.9531 7.4688 Q39.0625 -1.2188 27.1562 -1.2188 Q17.3906 -1.2188 11.2109 4.25 Q5.0312 9.7188 4.1562 18.75 Z"
        /><glyph unicode="1" horiz-adv-x="55.615234" d="M37.25 0 L28.4688 0 L28.4688 56 Q25.2969 52.9844 20.1406 49.9531 Q14.9844 46.9219 10.8906 45.4062 L10.8906 53.9062 Q18.2656 57.375 23.7812 62.3047 Q29.2969 67.2344 31.5938 71.875 L37.25 71.875 L37.25 0 Z"
        /><glyph unicode="2" horiz-adv-x="55.615234" d="M50.3438 8.4531 L50.3438 0 L3.0312 0 Q2.9375 3.1719 4.0469 6.1094 Q5.8594 10.9375 9.8359 15.625 Q13.8125 20.3125 21.3438 26.4688 Q33.0156 36.0312 37.1172 41.625 Q41.2188 47.2188 41.2188 52.2031 Q41.2188 57.4219 37.4766 61.0078 Q33.7344 64.5938 27.7344 64.5938 Q21.3906 64.5938 17.5781 60.7891 Q13.7656 56.9844 13.7188 50.25 L4.6875 51.1719 Q5.6094 61.2812 11.6641 66.5781 Q17.7188 71.875 27.9375 71.875 Q38.2344 71.875 44.2422 66.1641 Q50.25 60.4531 50.25 52 Q50.25 47.7031 48.4922 43.5547 Q46.7344 39.4062 42.6562 34.8125 Q38.5781 30.2188 29.1094 22.2188 Q21.1875 15.5781 18.9453 13.2109 Q16.7031 10.8438 15.2344 8.4531 L50.3438 8.4531 Z"
        /><glyph unicode="3" horiz-adv-x="55.615234" d="M4.2031 18.8906 L12.9844 20.0625 Q14.5 12.5938 18.1406 9.2969 Q21.7812 6 27 6 Q33.2031 6 37.4766 10.2969 Q41.75 14.5938 41.75 20.9531 Q41.75 27 37.7969 30.9297 Q33.8438 34.8594 27.7344 34.8594 Q25.25 34.8594 21.5312 33.8906 L22.5156 41.6094 Q23.3906 41.5 23.9219 41.5 Q29.5469 41.5 34.0391 44.4297 Q38.5312 47.3594 38.5312 53.4688 Q38.5312 58.2969 35.2578 61.4766 Q31.9844 64.6562 26.8125 64.6562 Q21.6875 64.6562 18.2656 61.4297 Q14.8438 58.2031 13.875 51.7656 L5.0781 53.3281 Q6.6875 62.1562 12.3984 67.0156 Q18.1094 71.875 26.6094 71.875 Q32.4688 71.875 37.3984 69.3594 Q42.3281 66.8438 44.9453 62.5 Q47.5625 58.1562 47.5625 53.2656 Q47.5625 48.6406 45.0703 44.8281 Q42.5781 41.0156 37.7031 38.7656 Q44.0469 37.3125 47.5625 32.6953 Q51.0781 28.0781 51.0781 21.1406 Q51.0781 11.7656 44.2422 5.25 Q37.4062 -1.2656 26.9531 -1.2656 Q17.5312 -1.2656 11.3047 4.3516 Q5.0781 9.9688 4.2031 18.8906 Z"
        /><glyph unicode="]" horiz-adv-x="27.783203" d="M21.2969 -19.875 L1.9062 -19.875 L1.9062 -12.5938 L12.5 -12.5938 L12.5 64.3125 L1.9062 64.3125 L1.9062 71.5781 L21.2969 71.5781 L21.2969 -19.875 Z"
        /><glyph unicode="K" horiz-adv-x="66.69922" d="M7.3281 0 L7.3281 71.5781 L16.7969 71.5781 L16.7969 36.0781 L52.3438 71.5781 L65.1875 71.5781 L35.1562 42.5781 L66.5 0 L54 0 L28.5156 36.2344 L16.7969 24.8125 L16.7969 0 L7.3281 0 Z"
        /><glyph unicode="[" horiz-adv-x="27.783203" d="M6.7812 -19.875 L6.7812 71.5781 L26.1719 71.5781 L26.1719 64.3125 L15.5781 64.3125 L15.5781 -12.5938 L26.1719 -12.5938 L26.1719 -19.875 L6.7812 -19.875 Z"
        /><glyph unicode=" " horiz-adv-x="27.783203" d=""
        /><glyph unicode="T" horiz-adv-x="61.083984" d="M25.9219 0 L25.9219 63.1406 L2.3438 63.1406 L2.3438 71.5781 L59.0781 71.5781 L59.0781 63.1406 L35.4062 63.1406 L35.4062 0 L25.9219 0 Z"
        /><glyph unicode="4" horiz-adv-x="55.615234" d="M32.3281 0 L32.3281 17.1406 L1.2656 17.1406 L1.2656 25.2031 L33.9375 71.5781 L41.1094 71.5781 L41.1094 25.2031 L50.7812 25.2031 L50.7812 17.1406 L41.1094 17.1406 L41.1094 0 L32.3281 0 ZM32.3281 25.2031 L32.3281 57.4688 L9.9062 25.2031 L32.3281 25.2031 Z"
        /><glyph unicode="6" horiz-adv-x="55.615234" d="M49.75 54.0469 L41.0156 53.375 Q39.8438 58.5469 37.7031 60.8906 Q34.125 64.6562 28.9062 64.6562 Q24.7031 64.6562 21.5312 62.3125 Q17.3906 59.2812 14.9922 53.4688 Q12.5938 47.6562 12.5 36.9219 Q15.6719 41.75 20.2656 44.0938 Q24.8594 46.4375 29.8906 46.4375 Q38.6719 46.4375 44.8516 39.9688 Q51.0312 33.5 51.0312 23.25 Q51.0312 16.5 48.125 10.7188 Q45.2188 4.9375 40.1406 1.8594 Q35.0625 -1.2188 28.6094 -1.2188 Q17.625 -1.2188 10.6953 6.8594 Q3.7656 14.9375 3.7656 33.5 Q3.7656 54.25 11.4219 63.6719 Q18.1094 71.875 29.4375 71.875 Q37.8906 71.875 43.2891 67.1406 Q48.6875 62.4062 49.75 54.0469 ZM13.875 23.1875 Q13.875 18.6562 15.7969 14.5078 Q17.7188 10.3594 21.1875 8.1797 Q24.6562 6 28.4688 6 Q34.0312 6 38.0391 10.4922 Q42.0469 14.9844 42.0469 22.7031 Q42.0469 30.125 38.0859 34.3984 Q34.125 38.6719 28.125 38.6719 Q22.1719 38.6719 18.0234 34.3984 Q13.875 30.125 13.875 23.1875 Z"
        /><glyph unicode="7" horiz-adv-x="55.615234" d="M4.7344 62.2031 L4.7344 70.6562 L51.0781 70.6562 L51.0781 63.8125 Q44.2344 56.5469 37.5234 44.4844 Q30.8125 32.4219 27.1562 19.6719 Q24.5156 10.6875 23.7812 0 L14.75 0 Q14.8906 8.4531 18.0625 20.4141 Q21.2344 32.375 27.1719 43.4844 Q33.1094 54.5938 39.7969 62.2031 L4.7344 62.2031 Z"
        /><glyph unicode="8" horiz-adv-x="55.615234" d="M17.6719 38.8125 Q12.2031 40.8281 9.5703 44.5391 Q6.9375 48.25 6.9375 53.4219 Q6.9375 61.2344 12.5547 66.5547 Q18.1719 71.875 27.4844 71.875 Q36.8594 71.875 42.5781 66.4297 Q48.2969 60.9844 48.2969 53.1719 Q48.2969 48.1875 45.6797 44.5078 Q43.0625 40.8281 37.75 38.8125 Q44.3438 36.6719 47.7812 31.8828 Q51.2188 27.0938 51.2188 20.4531 Q51.2188 11.2812 44.7266 5.0312 Q38.2344 -1.2188 27.6406 -1.2188 Q17.0469 -1.2188 10.5469 5.0547 Q4.0469 11.3281 4.0469 20.7031 Q4.0469 27.6875 7.5938 32.3984 Q11.1406 37.1094 17.6719 38.8125 ZM15.9219 53.7188 Q15.9219 48.6406 19.1953 45.4141 Q22.4688 42.1875 27.6875 42.1875 Q32.7656 42.1875 36.0156 45.3828 Q39.2656 48.5781 39.2656 53.2188 Q39.2656 58.0625 35.9141 61.3594 Q32.5625 64.6562 27.5938 64.6562 Q22.5625 64.6562 19.2422 61.4297 Q15.9219 58.2031 15.9219 53.7188 ZM13.0938 20.6562 Q13.0938 16.8906 14.875 13.375 Q16.6562 9.8594 20.1719 7.9297 Q23.6875 6 27.7344 6 Q34.0312 6 38.1328 10.0547 Q42.2344 14.1094 42.2344 20.3594 Q42.2344 26.7031 38.0156 30.8594 Q33.7969 35.0156 27.4375 35.0156 Q21.2344 35.0156 17.1641 30.9141 Q13.0938 26.8125 13.0938 20.6562 Z"
        /><glyph unicode="9" horiz-adv-x="55.615234" d="M5.4688 16.5469 L13.9219 17.3281 Q14.9844 11.375 18.0156 8.6875 Q21.0469 6 25.7812 6 Q29.8281 6 32.8828 7.8594 Q35.9375 9.7188 37.8906 12.8203 Q39.8438 15.9219 41.1641 21.1953 Q42.4844 26.4688 42.4844 31.9375 Q42.4844 32.5156 42.4375 33.6875 Q39.7969 29.5 35.2344 26.8828 Q30.6719 24.2656 25.3438 24.2656 Q16.4531 24.2656 10.3047 30.7109 Q4.1562 37.1562 4.1562 47.7031 Q4.1562 58.5938 10.5781 65.2344 Q17 71.875 26.6562 71.875 Q33.6406 71.875 39.4297 68.1172 Q45.2188 64.3594 48.2188 57.3984 Q51.2188 50.4375 51.2188 37.25 Q51.2188 23.5312 48.2422 15.4062 Q45.2656 7.2812 39.3828 3.0312 Q33.5 -1.2188 25.5938 -1.2188 Q17.1875 -1.2188 11.8672 3.4453 Q6.5469 8.1094 5.4688 16.5469 ZM41.4531 48.1406 Q41.4531 55.7188 37.4297 60.1562 Q33.4062 64.5938 27.7344 64.5938 Q21.875 64.5938 17.5312 59.8125 Q13.1875 55.0312 13.1875 47.4062 Q13.1875 40.5781 17.3125 36.3047 Q21.4375 32.0312 27.4844 32.0312 Q33.5938 32.0312 37.5234 36.3047 Q41.4531 40.5781 41.4531 48.1406 Z"
        /><glyph unicode="m" horiz-adv-x="83.30078" d="M6.5938 0 L6.5938 51.8594 L14.4531 51.8594 L14.4531 44.5781 Q16.8906 48.3906 20.9453 50.7109 Q25 53.0312 30.1719 53.0312 Q35.9375 53.0312 39.625 50.6406 Q43.3125 48.25 44.8281 43.9531 Q50.9844 53.0312 60.8438 53.0312 Q68.5625 53.0312 72.7109 48.7578 Q76.8594 44.4844 76.8594 35.5938 L76.8594 0 L68.1094 0 L68.1094 32.6719 Q68.1094 37.9375 67.2578 40.2578 Q66.4062 42.5781 64.1641 43.9922 Q61.9219 45.4062 58.8906 45.4062 Q53.4219 45.4062 49.8047 41.7734 Q46.1875 38.1406 46.1875 30.125 L46.1875 0 L37.4062 0 L37.4062 33.6875 Q37.4062 39.5469 35.2578 42.4766 Q33.1094 45.4062 28.2188 45.4062 Q24.5156 45.4062 21.3672 43.4531 Q18.2188 41.5 16.7969 37.7422 Q15.375 33.9844 15.375 26.9062 L15.375 0 L6.5938 0 Z"
        /><glyph unicode="*" horiz-adv-x="38.916016" d="M3.125 58.4531 L5.375 65.375 Q13.1406 62.6406 16.6562 60.6406 Q15.7188 69.4844 15.6719 72.7969 L22.75 72.7969 Q22.6094 67.9688 21.625 60.6875 Q26.6562 63.2344 33.1562 65.375 L35.4062 58.4531 Q29.2031 56.3906 23.25 55.7188 Q26.2188 53.125 31.6406 46.4844 L25.7812 42.3281 Q22.9531 46.1875 19.0938 52.8281 Q15.4844 45.9531 12.75 42.3281 L6.9844 46.4844 Q12.6406 53.4688 15.0938 55.7188 Q8.7969 56.9375 3.125 58.4531 Z"
        /><glyph unicode="(" horiz-adv-x="33.30078" d="M23.3906 -21.0469 Q16.1094 -11.8594 11.0859 0.4453 Q6.0625 12.75 6.0625 25.9219 Q6.0625 37.5469 9.8125 48.1875 Q14.2031 60.5469 23.3906 72.7969 L29.6875 72.7969 Q23.7812 62.6406 21.875 58.2969 Q18.8906 51.5625 17.1875 44.2344 Q15.0938 35.1094 15.0938 25.875 Q15.0938 2.3906 29.6875 -21.0469 L23.3906 -21.0469 Z"
        /><glyph unicode="/" horiz-adv-x="27.783203" d="M0 -1.2188 L20.75 72.7969 L27.7812 72.7969 L7.0781 -1.2188 L0 -1.2188 Z"
        /><glyph unicode="J" horiz-adv-x="50.0" d="M2.875 20.3125 L11.4219 21.4844 Q11.7656 13.2812 14.5 10.2578 Q17.2344 7.2344 22.0781 7.2344 Q25.6406 7.2344 28.2266 8.8672 Q30.8125 10.5 31.7891 13.3047 Q32.7656 16.1094 32.7656 22.2656 L32.7656 71.5781 L42.2344 71.5781 L42.2344 22.7969 Q42.2344 13.8125 40.0625 8.8828 Q37.8906 3.9531 33.1797 1.3672 Q28.4688 -1.2188 22.125 -1.2188 Q12.7031 -1.2188 7.6953 4.2031 Q2.6875 9.625 2.875 20.3125 Z"
        /><glyph unicode="v" horiz-adv-x="50.0" d="M21 0 L1.2656 51.8594 L10.5469 51.8594 L21.6875 20.7969 Q23.4844 15.7656 25 10.3594 Q26.1719 14.4531 28.2656 20.2188 L39.7969 51.8594 L48.8281 51.8594 L29.2031 0 L21 0 Z"
        /><glyph unicode="C" horiz-adv-x="72.2168" d="M58.7969 25.0938 L68.2656 22.7031 Q65.2812 11.0312 57.5469 4.9062 Q49.8125 -1.2188 38.625 -1.2188 Q27.0469 -1.2188 19.7969 3.4922 Q12.5469 8.2031 8.7656 17.1406 Q4.9844 26.0781 4.9844 36.3281 Q4.9844 47.5156 9.2578 55.8359 Q13.5312 64.1562 21.4141 68.4766 Q29.2969 72.7969 38.7656 72.7969 Q49.5156 72.7969 56.8359 67.3281 Q64.1562 61.8594 67.0469 51.9531 L57.7188 49.75 Q55.2188 57.5625 50.4844 61.1328 Q45.75 64.7031 38.5781 64.7031 Q30.3281 64.7031 24.7812 60.7422 Q19.2344 56.7812 16.9922 50.1172 Q14.75 43.4531 14.75 36.375 Q14.75 27.25 17.4062 20.4375 Q20.0625 13.625 25.6797 10.2578 Q31.2969 6.8906 37.8438 6.8906 Q45.7969 6.8906 51.3203 11.4766 Q56.8438 16.0625 58.7969 25.0938 Z"
        /><glyph unicode=")" horiz-adv-x="33.30078" d="M12.3594 -21.0469 L6.0625 -21.0469 Q20.6562 2.3906 20.6562 25.875 Q20.6562 35.0625 18.5625 44.0938 Q16.8906 51.4219 13.9219 58.1562 Q12.0156 62.5469 6.0625 72.7969 L12.3594 72.7969 Q21.5312 60.5469 25.9219 48.1875 Q29.6875 37.5469 29.6875 25.9219 Q29.6875 12.75 24.6328 0.4453 Q19.5781 -11.8594 12.3594 -21.0469 Z"
      /></font
      ><font horiz-adv-x="75.0" id="font2"
      ><font-face ascent="100.53711" descent="21.972656" units-per-em="100" style="font-style:normal; font-family:SansSerif; font-weight:bold;"
        /><missing-glyph horiz-adv-x="75.0" d="M12.5 0 L12.5 62.5 L62.5 62.5 L62.5 0 L12.5 0 ZM14.0625 1.5625 L60.9375 1.5625 L60.9375 60.9375 L14.0625 60.9375 L14.0625 1.5625 Z"
        /><glyph unicode="s" horiz-adv-x="55.615234" d="M2.3438 14.7969 L16.1094 16.8906 Q17 12.8906 19.6797 10.8125 Q22.3594 8.7344 27.2031 8.7344 Q32.5156 8.7344 35.2031 10.6875 Q37.0156 12.0625 37.0156 14.3594 Q37.0156 15.9219 36.0312 16.9375 Q35.0156 17.9219 31.4531 18.75 Q14.8438 22.4062 10.4062 25.4375 Q4.25 29.6406 4.25 37.1094 Q4.25 43.8438 9.5703 48.4375 Q14.8906 53.0312 26.0781 53.0312 Q36.7188 53.0312 41.8984 49.5625 Q47.0781 46.0938 49.0312 39.3125 L36.0781 36.9219 Q35.25 39.9375 32.9297 41.5547 Q30.6094 43.1719 26.3125 43.1719 Q20.9062 43.1719 18.5625 41.6562 Q17 40.5781 17 38.875 Q17 37.4062 18.3594 36.375 Q20.2188 35.0156 31.1797 32.5234 Q42.1406 30.0312 46.4844 26.4219 Q50.7812 22.75 50.7812 16.2188 Q50.7812 9.0781 44.8281 3.9531 Q38.875 -1.1719 27.2031 -1.1719 Q16.6094 -1.1719 10.4297 3.125 Q4.25 7.4219 2.3438 14.7969 Z"
        /><glyph unicode="e" horiz-adv-x="55.615234" d="M37.2031 16.5 L50.875 14.2031 Q48.25 6.6875 42.5547 2.7578 Q36.8594 -1.1719 28.3281 -1.1719 Q14.7969 -1.1719 8.2969 7.6719 Q3.1719 14.75 3.1719 25.5312 Q3.1719 38.4219 9.9141 45.7266 Q16.6562 53.0312 26.9531 53.0312 Q38.5312 53.0312 45.2188 45.3906 Q51.9062 37.75 51.6094 21.9688 L17.2344 21.9688 Q17.3906 15.875 20.5625 12.4766 Q23.7344 9.0781 28.4688 9.0781 Q31.6875 9.0781 33.8828 10.8359 Q36.0781 12.5938 37.2031 16.5 ZM37.9844 30.375 Q37.8438 36.3281 34.9141 39.4297 Q31.9844 42.5312 27.7812 42.5312 Q23.2969 42.5312 20.3594 39.2656 Q17.4375 35.9844 17.4844 30.375 L37.9844 30.375 Z"
        /><glyph unicode="H" horiz-adv-x="72.2168" d="M7.3281 0 L7.3281 71.5781 L21.7812 71.5781 L21.7812 43.4062 L50.0938 43.4062 L50.0938 71.5781 L64.5469 71.5781 L64.5469 0 L50.0938 0 L50.0938 31.2969 L21.7812 31.2969 L21.7812 0 L7.3281 0 Z"
        /><glyph unicode="v" horiz-adv-x="55.615234" d="M21.4375 0 L0.5312 51.8594 L14.9375 51.8594 L24.7031 25.3906 L27.5469 16.5469 Q28.6562 19.9219 28.9531 21 Q29.6406 23.1875 30.4219 25.3906 L40.2812 51.8594 L54.3906 51.8594 L33.7969 0 L21.4375 0 Z"
        /><glyph unicode="C" horiz-adv-x="72.2168" d="M53.0781 26.3125 L67.0938 21.875 Q63.875 10.1562 56.375 4.4688 Q48.875 -1.2188 37.3594 -1.2188 Q23.0938 -1.2188 13.9141 8.5234 Q4.7344 18.2656 4.7344 35.1562 Q4.7344 53.0312 13.9609 62.9141 Q23.1875 72.7969 38.2344 72.7969 Q51.375 72.7969 59.5781 65.0469 Q64.4531 60.4531 66.8906 51.8594 L52.5938 48.4375 Q51.3125 54 47.2891 57.2266 Q43.2656 60.4531 37.5 60.4531 Q29.5469 60.4531 24.5859 54.7422 Q19.625 49.0312 19.625 36.2344 Q19.625 22.6562 24.5078 16.8984 Q29.3906 11.1406 37.2031 11.1406 Q42.9688 11.1406 47.1172 14.7969 Q51.2656 18.4531 53.0781 26.3125 Z"
        /><glyph unicode="f" horiz-adv-x="33.30078" d="M1.1719 51.8594 L8.7969 51.8594 L8.7969 55.7656 Q8.7969 62.3125 10.1875 65.5312 Q11.5781 68.75 15.3125 70.7734 Q19.0469 72.7969 24.75 72.7969 Q30.6094 72.7969 36.2344 71.0469 L34.375 61.4688 Q31.1094 62.25 28.0781 62.25 Q25.0938 62.25 23.8047 60.8594 Q22.5156 59.4688 22.5156 55.5156 L22.5156 51.8594 L32.7656 51.8594 L32.7656 41.0625 L22.5156 41.0625 L22.5156 0 L8.7969 0 L8.7969 41.0625 L1.1719 41.0625 L1.1719 51.8594 Z"
        /><glyph unicode="o" horiz-adv-x="61.083984" d="M4 26.6562 Q4 33.5 7.375 39.8984 Q10.75 46.2969 16.9219 49.6641 Q23.0938 53.0312 30.7188 53.0312 Q42.4844 53.0312 50 45.3906 Q57.5156 37.75 57.5156 26.0781 Q57.5156 14.3125 49.9219 6.5703 Q42.3281 -1.1719 30.8125 -1.1719 Q23.6875 -1.1719 17.2188 2.0547 Q10.75 5.2812 7.375 11.5 Q4 17.7188 4 26.6562 ZM18.0625 25.9219 Q18.0625 18.2188 21.7266 14.1172 Q25.3906 10.0156 30.7656 10.0156 Q36.1406 10.0156 39.7734 14.1172 Q43.4062 18.2188 43.4062 26.0312 Q43.4062 33.6406 39.7734 37.7422 Q36.1406 41.8438 30.7656 41.8438 Q25.3906 41.8438 21.7266 37.7422 Q18.0625 33.6406 18.0625 25.9219 Z"
        /><glyph unicode="l" horiz-adv-x="27.783203" d="M7.1719 0 L7.1719 71.5781 L20.9062 71.5781 L20.9062 0 L7.1719 0 Z"
        /><glyph unicode="p" horiz-adv-x="61.083984" d="M6.7812 51.8594 L19.5781 51.8594 L19.5781 44.2344 Q22.0781 48.1406 26.3203 50.5859 Q30.5625 53.0312 35.75 53.0312 Q44.7812 53.0312 51.0781 45.9531 Q57.375 38.875 57.375 26.2188 Q57.375 13.2344 51.0234 6.0312 Q44.6719 -1.1719 35.6406 -1.1719 Q31.3438 -1.1719 27.8516 0.5391 Q24.3594 2.25 20.5156 6.3906 L20.5156 -19.7344 L6.7812 -19.7344 L6.7812 51.8594 ZM20.3594 26.8125 Q20.3594 18.0625 23.8281 13.8906 Q27.2969 9.7188 32.2812 9.7188 Q37.0625 9.7188 40.2344 13.5547 Q43.4062 17.3906 43.4062 26.125 Q43.4062 34.2812 40.1328 38.2344 Q36.8594 42.1875 32.0312 42.1875 Q27 42.1875 23.6797 38.3047 Q20.3594 34.4219 20.3594 26.8125 Z"
        /><glyph unicode=" " horiz-adv-x="27.783203" d=""
        /><glyph unicode="b" horiz-adv-x="61.083984" d="M6.5938 0 L6.5938 71.5781 L20.3125 71.5781 L20.3125 45.7969 Q26.6562 53.0312 35.3594 53.0312 Q44.8281 53.0312 51.0312 46.1719 Q57.2344 39.3125 57.2344 26.4688 Q57.2344 13.1875 50.9062 6.0078 Q44.5781 -1.1719 35.5469 -1.1719 Q31.1094 -1.1719 26.7891 1.0469 Q22.4688 3.2656 19.3438 7.625 L19.3438 0 L6.5938 0 ZM20.2188 27.0469 Q20.2188 19 22.75 15.1406 Q26.3125 9.6719 32.2344 9.6719 Q36.7656 9.6719 39.9688 13.5547 Q43.1719 17.4375 43.1719 25.7812 Q43.1719 34.6719 39.9453 38.6016 Q36.7188 42.5312 31.6875 42.5312 Q26.7656 42.5312 23.4922 38.6953 Q20.2188 34.8594 20.2188 27.0469 Z"
        /><glyph unicode="L" horiz-adv-x="61.083984" d="M7.6719 0 L7.6719 71 L22.125 71 L22.125 12.0625 L58.0625 12.0625 L58.0625 0 L7.6719 0 Z"
        /><glyph unicode="t" horiz-adv-x="33.30078" d="M30.9531 51.8594 L30.9531 40.9219 L21.5781 40.9219 L21.5781 20.0156 Q21.5781 13.6719 21.8516 12.625 Q22.125 11.5781 23.0781 10.8906 Q24.0312 10.2031 25.3906 10.2031 Q27.2969 10.2031 30.9062 11.5312 L32.0781 0.875 Q27.2969 -1.1719 21.2344 -1.1719 Q17.5312 -1.1719 14.5547 0.0703 Q11.5781 1.3125 10.1875 3.2969 Q8.7969 5.2812 8.25 8.6406 Q7.8125 11.0312 7.8125 18.3125 L7.8125 40.9219 L1.5156 40.9219 L1.5156 51.8594 L7.8125 51.8594 L7.8125 62.1562 L21.5781 70.1719 L21.5781 51.8594 L30.9531 51.8594 Z"
        /><glyph unicode="a" horiz-adv-x="55.615234" d="M17.4375 36.0312 L4.9844 38.2812 Q7.0781 45.7969 12.2031 49.4141 Q17.3281 53.0312 27.4375 53.0312 Q36.625 53.0312 41.1172 50.8594 Q45.6094 48.6875 47.4375 45.3438 Q49.2656 42 49.2656 33.0625 L49.125 17.0469 Q49.125 10.2031 49.7812 6.9609 Q50.4375 3.7188 52.25 0 L38.6719 0 Q38.1406 1.375 37.3594 4.0469 Q37.0156 5.2812 36.8594 5.6719 Q33.3438 2.25 29.3438 0.5391 Q25.3438 -1.1719 20.7969 -1.1719 Q12.7969 -1.1719 8.1797 3.1719 Q3.5625 7.5156 3.5625 14.1562 Q3.5625 18.5625 5.6641 22 Q7.7656 25.4375 11.5469 27.2734 Q15.3281 29.1094 22.4688 30.4688 Q32.0781 32.2812 35.7969 33.8438 L35.7969 35.2031 Q35.7969 39.1562 33.8438 40.8438 Q31.8906 42.5312 26.4688 42.5312 Q22.7969 42.5312 20.75 41.0938 Q18.7031 39.6562 17.4375 36.0312 ZM35.7969 24.9062 Q33.1562 24.0312 27.4453 22.8047 Q21.7344 21.5781 19.9688 20.4062 Q17.2812 18.5 17.2812 15.5781 Q17.2812 12.7031 19.4297 10.6016 Q21.5781 8.5 24.9062 8.5 Q28.6094 8.5 31.9844 10.9375 Q34.4688 12.7969 35.25 15.4844 Q35.7969 17.2344 35.7969 22.1719 L35.7969 24.9062 Z"
        /><glyph unicode="M" horiz-adv-x="83.30078" d="M7.0781 0 L7.0781 71.5781 L28.7188 71.5781 L41.7031 22.75 L54.5469 71.5781 L76.2188 71.5781 L76.2188 0 L62.7969 0 L62.7969 56.3438 L48.5781 0 L34.6719 0 L20.5156 56.3438 L20.5156 0 L7.0781 0 Z"
      /></font
    ></defs
    ><g style="fill:white; stroke:white;"
    ><rect x="0" y="0" width="560" style="clip-path:url(#clipPath1); stroke:none;" height="420"
    /></g
    ><g style="fill:white; text-rendering:optimizeSpeed; color-rendering:optimizeSpeed; image-rendering:optimizeSpeed; shape-rendering:crispEdges; stroke:white; color-interpolation:sRGB;"
    ><rect x="0" width="560" height="420" y="0" style="stroke:none;"
      /><path style="stroke:none;" d="M73 374 L507 374 L507 31 L73 31 Z"
    /></g
    ><g style="fill:rgb(38,38,38); text-rendering:geometricPrecision; image-rendering:optimizeQuality; color-rendering:optimizeQuality; stroke-linejoin:round; stroke:rgb(38,38,38); color-interpolation:linearRGB; stroke-width:0.6667;"
    ><line y2="374" style="fill:none;" x1="73" x2="507" y1="374"
      /><line y2="31" style="fill:none;" x1="73" x2="507" y1="31"
      /><line y2="369.66" style="fill:none;" x1="73" x2="73" y1="374"
      /><line y2="369.66" style="fill:none;" x1="145.3333" x2="145.3333" y1="374"
      /><line y2="369.66" style="fill:none;" x1="217.6667" x2="217.6667" y1="374"
      /><line y2="369.66" style="fill:none;" x1="290" x2="290" y1="374"
      /><line y2="369.66" style="fill:none;" x1="362.3333" x2="362.3333" y1="374"
      /><line y2="369.66" style="fill:none;" x1="434.6667" x2="434.6667" y1="374"
      /><line y2="369.66" style="fill:none;" x1="507" x2="507" y1="374"
      /><line y2="35.34" style="fill:none;" x1="73" x2="73" y1="31"
      /><line y2="35.34" style="fill:none;" x1="145.3333" x2="145.3333" y1="31"
      /><line y2="35.34" style="fill:none;" x1="217.6667" x2="217.6667" y1="31"
      /><line y2="35.34" style="fill:none;" x1="290" x2="290" y1="31"
      /><line y2="35.34" style="fill:none;" x1="362.3333" x2="362.3333" y1="31"
      /><line y2="35.34" style="fill:none;" x1="434.6667" x2="434.6667" y1="31"
      /><line y2="35.34" style="fill:none;" x1="507" x2="507" y1="31"
    /></g
    ><g transform="translate(73,379.3333)" style="font-size:13.3333px; fill:rgb(38,38,38); text-rendering:geometricPrecision; image-rendering:optimizeQuality; color-rendering:optimizeQuality; font-family:'SansSerif'; stroke:rgb(38,38,38); color-interpolation:linearRGB;"
    ><text x="-4" xml:space="preserve" y="14" style="stroke:none;"
      >0</text
    ></g
    ><g transform="translate(145.3333,379.3333)" style="font-size:13.3333px; fill:rgb(38,38,38); text-rendering:geometricPrecision; image-rendering:optimizeQuality; color-rendering:optimizeQuality; font-family:'SansSerif'; stroke:rgb(38,38,38); color-interpolation:linearRGB;"
    ><text x="-7.5" xml:space="preserve" y="14" style="stroke:none;"
      >50</text
    ></g
    ><g transform="translate(217.6667,379.3333)" style="font-size:13.3333px; fill:rgb(38,38,38); text-rendering:geometricPrecision; image-rendering:optimizeQuality; color-rendering:optimizeQuality; font-family:'SansSerif'; stroke:rgb(38,38,38); color-interpolation:linearRGB;"
    ><text x="-11.5" xml:space="preserve" y="14" style="stroke:none;"
      >100</text
    ></g
    ><g transform="translate(290,379.3333)" style="font-size:13.3333px; fill:rgb(38,38,38); text-rendering:geometricPrecision; image-rendering:optimizeQuality; color-rendering:optimizeQuality; font-family:'SansSerif'; stroke:rgb(38,38,38); color-interpolation:linearRGB;"
    ><text x="-11.5" xml:space="preserve" y="14" style="stroke:none;"
      >150</text
    ></g
    ><g transform="translate(362.3333,379.3333)" style="font-size:13.3333px; fill:rgb(38,38,38); text-rendering:geometricPrecision; image-rendering:optimizeQuality; color-rendering:optimizeQuality; font-family:'SansSerif'; stroke:rgb(38,38,38); color-interpolation:linearRGB;"
    ><text x="-11.5" xml:space="preserve" y="14" style="stroke:none;"
      >200</text
    ></g
    ><g transform="translate(434.6667,379.3333)" style="font-size:13.3333px; fill:rgb(38,38,38); text-rendering:geometricPrecision; image-rendering:optimizeQuality; color-rendering:optimizeQuality; font-family:'SansSerif'; stroke:rgb(38,38,38); color-interpolation:linearRGB;"
    ><text x="-11.5" xml:space="preserve" y="14" style="stroke:none;"
      >250</text
    ></g
    ><g transform="translate(507,379.3333)" style="font-size:13.3333px; fill:rgb(38,38,38); text-rendering:geometricPrecision; image-rendering:optimizeQuality; color-rendering:optimizeQuality; font-family:'SansSerif'; stroke:rgb(38,38,38); color-interpolation:linearRGB;"
    ><text x="-11.5" xml:space="preserve" y="14" style="stroke:none;"
      >300</text
    ></g
    ><g transform="translate(290.0002,397.6667)" style="font-size:14.6667px; fill:rgb(38,38,38); text-rendering:geometricPrecision; image-rendering:optimizeQuality; color-rendering:optimizeQuality; font-family:'SansSerif'; stroke:rgb(38,38,38); color-interpolation:linearRGB;"
    ><text x="-15.5" xml:space="preserve" y="15" style="stroke:none;"
      >T [K]</text
    ></g
    ><g style="fill:rgb(38,38,38); text-rendering:geometricPrecision; image-rendering:optimizeQuality; color-rendering:optimizeQuality; stroke-linejoin:round; stroke:rgb(38,38,38); color-interpolation:linearRGB; stroke-width:0.6667;"
    ><line y2="31" style="fill:none;" x1="73" x2="73" y1="374"
      /><line y2="31" style="fill:none;" x1="507" x2="507" y1="374"
      /><line y2="374" style="fill:none;" x1="73" x2="77.34" y1="374"
      /><line y2="335.8889" style="fill:none;" x1="73" x2="77.34" y1="335.8889"
      /><line y2="297.7778" style="fill:none;" x1="73" x2="77.34" y1="297.7778"
      /><line y2="259.6667" style="fill:none;" x1="73" x2="77.34" y1="259.6667"
      /><line y2="221.5556" style="fill:none;" x1="73" x2="77.34" y1="221.5556"
      /><line y2="183.4444" style="fill:none;" x1="73" x2="77.34" y1="183.4444"
      /><line y2="145.3333" style="fill:none;" x1="73" x2="77.34" y1="145.3333"
      /><line y2="107.2222" style="fill:none;" x1="73" x2="77.34" y1="107.2222"
      /><line y2="69.1111" style="fill:none;" x1="73" x2="77.34" y1="69.1111"
      /><line y2="31" style="fill:none;" x1="73" x2="77.34" y1="31"
      /><line y2="374" style="fill:none;" x1="507" x2="502.66" y1="374"
      /><line y2="335.8889" style="fill:none;" x1="507" x2="502.66" y1="335.8889"
      /><line y2="297.7778" style="fill:none;" x1="507" x2="502.66" y1="297.7778"
      /><line y2="259.6667" style="fill:none;" x1="507" x2="502.66" y1="259.6667"
      /><line y2="221.5556" style="fill:none;" x1="507" x2="502.66" y1="221.5556"
      /><line y2="183.4444" style="fill:none;" x1="507" x2="502.66" y1="183.4444"
      /><line y2="145.3333" style="fill:none;" x1="507" x2="502.66" y1="145.3333"
      /><line y2="107.2222" style="fill:none;" x1="507" x2="502.66" y1="107.2222"
      /><line y2="69.1111" style="fill:none;" x1="507" x2="502.66" y1="69.1111"
      /><line y2="31" style="fill:none;" x1="507" x2="502.66" y1="31"
    /></g
    ><g transform="translate(67.6667,374)" style="font-size:13.3333px; fill:rgb(38,38,38); text-rendering:geometricPrecision; image-rendering:optimizeQuality; color-rendering:optimizeQuality; font-family:'SansSerif'; stroke:rgb(38,38,38); color-interpolation:linearRGB;"
    ><text x="-8" xml:space="preserve" y="5.5" style="stroke:none;"
      >0</text
    ></g
    ><g transform="translate(67.6667,335.8889)" style="font-size:13.3333px; fill:rgb(38,38,38); text-rendering:geometricPrecision; image-rendering:optimizeQuality; color-rendering:optimizeQuality; font-family:'SansSerif'; stroke:rgb(38,38,38); color-interpolation:linearRGB;"
    ><text x="-30" xml:space="preserve" y="5.5" style="stroke:none;"
      >1000</text
    ></g
    ><g transform="translate(67.6667,297.7778)" style="font-size:13.3333px; fill:rgb(38,38,38); text-rendering:geometricPrecision; image-rendering:optimizeQuality; color-rendering:optimizeQuality; font-family:'SansSerif'; stroke:rgb(38,38,38); color-interpolation:linearRGB;"
    ><text x="-30" xml:space="preserve" y="5.5" style="stroke:none;"
      >2000</text
    ></g
    ><g transform="translate(67.6667,259.6667)" style="font-size:13.3333px; fill:rgb(38,38,38); text-rendering:geometricPrecision; image-rendering:optimizeQuality; color-rendering:optimizeQuality; font-family:'SansSerif'; stroke:rgb(38,38,38); color-interpolation:linearRGB;"
    ><text x="-30" xml:space="preserve" y="5.5" style="stroke:none;"
      >3000</text
    ></g
    ><g transform="translate(67.6667,221.5556)" style="font-size:13.3333px; fill:rgb(38,38,38); text-rendering:geometricPrecision; image-rendering:optimizeQuality; color-rendering:optimizeQuality; font-family:'SansSerif'; stroke:rgb(38,38,38); color-interpolation:linearRGB;"
    ><text x="-30" xml:space="preserve" y="5.5" style="stroke:none;"
      >4000</text
    ></g
    ><g transform="translate(67.6667,183.4444)" style="font-size:13.3333px; fill:rgb(38,38,38); text-rendering:geometricPrecision; image-rendering:optimizeQuality; color-rendering:optimizeQuality; font-family:'SansSerif'; stroke:rgb(38,38,38); color-interpolation:linearRGB;"
    ><text x="-30" xml:space="preserve" y="5.5" style="stroke:none;"
      >5000</text
    ></g
    ><g transform="translate(67.6667,145.3333)" style="font-size:13.3333px; fill:rgb(38,38,38); text-rendering:geometricPrecision; image-rendering:optimizeQuality; color-rendering:optimizeQuality; font-family:'SansSerif'; stroke:rgb(38,38,38); color-interpolation:linearRGB;"
    ><text x="-30" xml:space="preserve" y="5.5" style="stroke:none;"
      >6000</text
    ></g
    ><g transform="translate(67.6667,107.2222)" style="font-size:13.3333px; fill:rgb(38,38,38); text-rendering:geometricPrecision; image-rendering:optimizeQuality; color-rendering:optimizeQuality; font-family:'SansSerif'; stroke:rgb(38,38,38); color-interpolation:linearRGB;"
    ><text x="-30" xml:space="preserve" y="5.5" style="stroke:none;"
      >7000</text
    ></g
    ><g transform="translate(67.6667,69.1111)" style="font-size:13.3333px; fill:rgb(38,38,38); text-rendering:geometricPrecision; image-rendering:optimizeQuality; color-rendering:optimizeQuality; font-family:'SansSerif'; stroke:rgb(38,38,38); color-interpolation:linearRGB;"
    ><text x="-30" xml:space="preserve" y="5.5" style="stroke:none;"
      >8000</text
    ></g
    ><g transform="translate(67.6667,31)" style="font-size:13.3333px; fill:rgb(38,38,38); text-rendering:geometricPrecision; image-rendering:optimizeQuality; color-rendering:optimizeQuality; font-family:'SansSerif'; stroke:rgb(38,38,38); color-interpolation:linearRGB;"
    ><text x="-30" xml:space="preserve" y="5.5" style="stroke:none;"
      >9000</text
    ></g
    ><g transform="translate(30,246) rotate(-90)" style="font-size:14.6667px; fill:rgb(38,38,38); text-rendering:geometricPrecision; image-rendering:optimizeQuality; color-rendering:optimizeQuality; font-family:'SansSerif'; stroke:rgb(38,38,38); color-interpolation:linearRGB;"
    ><text x="0" xml:space="preserve" y="0" style="stroke:none;"
      >Cv [J/(K*m</text
    ></g
    ><g transform="translate(23,175) rotate(-90)" style="font-size:11.7333px; fill:rgb(38,38,38); text-rendering:geometricPrecision; image-rendering:optimizeQuality; color-rendering:optimizeQuality; font-family:'SansSerif'; stroke:rgb(38,38,38); color-interpolation:linearRGB;"
    ><text x="0" xml:space="preserve" y="0" style="stroke:none;"
      >3</text
    ></g
    ><g transform="translate(30,168) rotate(-90)" style="font-size:14.6667px; fill:rgb(38,38,38); text-rendering:geometricPrecision; image-rendering:optimizeQuality; color-rendering:optimizeQuality; font-family:'SansSerif'; stroke:rgb(38,38,38); color-interpolation:linearRGB;"
    ><text x="0" xml:space="preserve" y="0" style="stroke:none;"
      >)]</text
    ></g
    ><g transform="translate(290.0003,28.25)" style="font-size:14.6667px; text-rendering:geometricPrecision; image-rendering:optimizeQuality; color-rendering:optimizeQuality; font-family:'SansSerif'; color-interpolation:linearRGB; font-weight:bold;"
    ><text x="-89.5" xml:space="preserve" y="-4" style="stroke:none;"
      >MatLab plot of CvHeMass</text
    ></g
    ><g style="stroke-linecap:butt; fill:rgb(0,114,189); text-rendering:geometricPrecision; image-rendering:optimizeQuality; color-rendering:optimizeQuality; stroke-linejoin:round; stroke:rgb(0,114,189); color-interpolation:linearRGB; stroke-width:0.6667;"
    ><path d="M73 373.1463 L73.4344 373.1463 L73.8689 373.1463 L74.3033 372.322 L74.7377 360.4827 L75.1722 330.5905 L75.6066 274.858 L76.041 48.4304 L76.4755 290.1942 L76.9099 298.2719 L77.3443 297.7899 L77.7788 290.2594 L78.2132 284.3456 L78.6476 279.9576 L79.0821 276.9547 L79.5165 251.9564 L79.951 253.052 L80.3854 253.8533 L80.8198 254.4318 L81.2543 254.8411 L81.6887 255.1217 L82.1231 255.3051 L82.5576 255.4155 L82.992 255.472 L83.4264 255.4899 L83.8609 255.4813 L84.2953 255.4557 L84.7297 255.421 L85.1642 255.3834 L85.5986 255.348 L86.033 255.3188 L86.4675 255.2991 L86.9019 255.2914 L87.3363 255.2979 L87.7708 255.2458 L88.2052 255.2458 L88.6396 255.2458 L89.0741 255.2458 L89.5085 255.2458 L89.9429 255.2458 L90.3774 255.2458 L90.8118 255.2458 L91.2462 255.2458 L91.6807 255.2458 L92.1151 255.2458 L92.5496 255.2458 L92.984 255.2458 L93.4184 255.2458 L93.8529 255.2458 L94.2873 255.2458 L94.7217 255.2458 L95.1562 255.2458 L95.5906 255.2458 L96.025 255.2458 L96.4595 255.2458 L96.8939 255.2458 L97.3283 255.2458 L97.7628 255.2458 L98.1972 255.2458 L98.6316 255.2458 L99.0661 255.2458 L99.5005 255.2458 L99.9349 255.2458 L100.3694 255.2458 L100.8038 255.2458 L101.2382 255.2458 L101.6727 255.2458 L102.1071 255.2458 L102.5415 255.2458 L102.976 255.2458 L103.4104 255.2458 L103.8448 255.2458 L104.2793 255.2458 L104.7137 255.2458 L105.1481 255.2458 L105.5826 255.2458 L106.017 255.2458 L106.4515 255.2458 L106.8859 255.2458 L107.3203 255.2458 L107.7548 255.2458 L108.1892 255.2458 L108.6236 255.2458 L109.0581 255.2458 L109.4925 255.2458 L109.9269 255.2458 L110.3614 255.2458 L110.7958 255.2458 L111.2302 255.2458 L111.6647 255.2458 L112.0991 255.2458 L112.5335 255.2458 L112.968 255.2458 L113.4024 255.2458 L113.8368 255.2458 L114.2713 255.2458 L114.7057 255.2458 L115.1401 255.2458 L115.5746 255.2458 L116.009 255.2458 L116.4434 255.2458 L116.8779 255.2458 L117.3123 255.2458 L117.7467 255.2458 L118.1812 255.2458 L118.6156 255.2458 L119.05 255.2458 L119.4845 255.2458 L119.9189 255.2458 L120.3533 255.2458 L120.7878 255.2458 L121.2222 255.2458 L121.6567 255.2458 L122.0911 255.2458 L122.5255 255.2458 L122.96 255.2458 L123.3944 255.2458 L123.8288 255.2458 L124.2633 255.2458 L124.6977 255.2458 L125.1321 255.2458 L125.5666 255.2458 L126.001 255.2458 L126.4354 255.2458 L126.8699 255.2458 L127.3043 255.2458 L127.7387 255.2458 L128.1732 255.2458 L128.6076 255.2458 L129.042 255.2458 L129.4765 255.2458 L129.9109 255.2458 L130.3454 255.2458 L130.7798 255.2458 L131.2142 255.2458 L131.6487 255.2458 L132.0831 255.2458 L132.5175 255.2458 L132.952 255.2458 L133.3864 255.2458 L133.8208 255.2458 L134.2552 255.2458 L134.6897 255.2458 L135.1241 255.2458 L135.5586 255.2458 L135.993 255.2458 L136.4274 255.2458 L136.8619 255.2458 L137.2963 255.2458 L137.7307 255.2458 L138.1652 255.2458 L138.5996 255.2458 L139.034 255.2458 L139.4685 255.2458 L139.9029 255.2458 L140.3373 255.2458 L140.7718 255.2458 L141.2062 255.2458 L141.6406 255.2458 L142.0751 255.2458 L142.5095 255.2458 L142.9439 255.2458 L143.3784 255.2458 L143.8128 255.2458 L144.2473 255.2458 L144.6817 255.2458 L145.1161 255.2458 L145.5506 255.2458 L145.985 255.2458 L146.4194 255.2458 L146.8539 255.2458 L147.2883 255.2458 L147.7227 255.2458 L148.1572 255.2458 L148.5916 255.2458 L149.026 255.2458 L149.4605 255.2458 L149.8949 255.2458 L150.3293 255.2458 L150.7638 255.2458 L151.1982 255.2458 L151.6326 255.2458 L152.0671 255.2458 L152.5015 255.2458 L152.9359 255.2458 L153.3704 255.2458 L153.8048 255.2458 L154.2392 255.2458 L154.6737 255.2458 L155.1081 255.2458 L155.5425 255.2458 L155.977 255.2458 L156.4114 255.2458 L156.8458 255.2458 L157.2803 255.2458 L157.7147 255.2458 L158.1492 255.2458 L158.5836 255.2458 L159.018 255.2458 L159.4525 255.2458 L159.8869 255.2458 L160.3213 255.2458 L160.7558 255.2458 L161.1902 255.2458 L161.6246 255.2458 L162.0591 255.2458 L162.4935 255.2458 L162.9279 255.2458 L163.3624 255.2458 L163.7968 255.2458 L164.2312 255.2458 L164.6657 255.2458 L165.1001 255.2458 L165.5345 255.2458 L165.969 255.2458 L166.4034 255.2458 L166.8378 255.2458 L167.2723 255.2458 L167.7067 255.2458 L168.1411 255.2458 L168.5756 255.2458 L169.01 255.2458 L169.4444 255.2458 L169.8789 255.2458 L170.3133 255.2458 L170.7477 255.2458 L171.1822 255.2458 L171.6166 255.2458 L172.0511 255.2458 L172.4855 255.2458 L172.9199 255.2458 L173.3544 255.2458 L173.7888 255.2458 L174.2232 255.2458 L174.6577 255.2458 L175.0921 255.2458 L175.5265 255.2458 L175.961 255.2458 L176.3954 255.2458 L176.8298 255.2458 L177.2643 255.2458 L177.6987 255.2458 L178.1331 255.2458 L178.5676 255.2458 L179.002 255.2458 L179.4364 255.2458 L179.8709 255.2458 L180.3053 255.2458 L180.7397 255.2458 L181.1742 255.2458 L181.6086 255.2458 L182.043 255.2458 L182.4775 255.2458 L182.9119 255.2458 L183.3463 255.2458 L183.7808 255.2458 L184.2152 255.2458 L184.6496 255.2458 L185.0841 255.2458 L185.5185 255.2458 L185.953 255.2458 L186.3874 255.2458 L186.8218 255.2458 L187.2563 255.2458 L187.6907 255.2458 L188.1251 255.2458 L188.5596 255.2458 L188.994 255.2458 L189.4284 255.2458 L189.8629 255.2458 L190.2973 255.2458 L190.7317 255.2458 L191.1662 255.2458 L191.6006 255.2458 L192.035 255.2458 L192.4695 255.2458 L192.9039 255.2458 L193.3383 255.2458 L193.7728 255.2458 L194.2072 255.2458 L194.6416 255.2458 L195.0761 255.2458 L195.5105 255.2458 L195.9449 255.2458 L196.3794 255.2458 L196.8138 255.2458 L197.2482 255.2458 L197.6827 255.2458 L198.1171 255.2458 L198.5516 255.2458 L198.986 255.2458 L199.4204 255.2458 L199.8549 255.2458 L200.2893 255.2458 L200.7237 255.2458 L201.1582 255.2458 L201.5926 255.2458 L202.027 255.2458 L202.4615 255.2458 L202.8959 255.2458 L203.3303 255.2458 L203.7648 255.2458 L204.1992 255.2458 L204.6336 255.2458 L205.0681 255.2458 L205.5025 255.2458 L205.9369 255.2458 L206.3714 255.2458 L206.8058 255.2458 L207.2402 255.2458 L207.6747 255.2458 L208.1091 255.2458 L208.5435 255.2458 L208.978 255.2458 L209.4124 255.2458 L209.8468 255.2458 L210.2813 255.2458 L210.7157 255.2458 L211.1502 255.2458 L211.5846 255.2458 L212.019 255.2458 L212.4534 255.2458 L212.8879 255.2458 L213.3223 255.2458 L213.7568 255.2458 L214.1912 255.2458 L214.6256 255.2458 L215.0601 255.2458 L215.4945 255.2458 L215.9289 255.2458 L216.3634 255.2458 L216.7978 255.2458 L217.2322 255.2458 L217.6667 255.2458 L218.1011 255.2458 L218.5355 255.2458 L218.97 255.2458 L219.4044 255.2458 L219.8388 255.2458 L220.2733 255.2458 L220.7077 255.2458 L221.1422 255.2458 L221.5766 255.2458 L222.011 255.2458 L222.4454 255.2458 L222.8799 255.2458 L223.3143 255.2458 L223.7487 255.2458 L224.1832 255.2458 L224.6176 255.2458 L225.052 255.2458 L225.4865 255.2458 L225.9209 255.2458 L226.3553 255.2458 L226.7898 255.2458 L227.2242 255.2458 L227.6587 255.2458 L228.0931 255.2458 L228.5275 255.2458 L228.962 255.2458 L229.3964 255.2458 L229.8308 255.2458 L230.2653 255.2458 L230.6997 255.2458 L231.1341 255.2458 L231.5686 255.2458 L232.003 255.2458 L232.4374 255.2458 L232.8719 255.2458 L233.3063 255.2458 L233.7408 255.2458 L234.1752 255.2458 L234.6096 255.2458 L235.044 255.2458 L235.4785 255.2458 L235.9129 255.2458 L236.3474 255.2458 L236.7818 255.2458 L237.2162 255.2458 L237.6507 255.2458 L238.0851 255.2458 L238.5195 255.2458 L238.9539 255.2458 L239.3884 255.2458 L239.8228 255.2458 L240.2573 255.2458 L240.6917 255.2458 L241.1261 255.2458 L241.5606 255.2458 L241.995 255.2458 L242.4294 255.2458 L242.8639 255.2458 L243.2983 255.2458 L243.7327 255.2458 L244.1672 255.2458 L244.6016 255.2458 L245.036 255.2458 L245.4705 255.2458 L245.9049 255.2458 L246.3393 255.2458 L246.7738 255.2458 L247.2082 255.2458 L247.6426 255.2458 L248.0771 255.2458 L248.5115 255.2458 L248.9459 255.2458 L249.3804 255.2458 L249.8148 255.2458 L250.2493 255.2458 L250.6837 255.2458 L251.1181 255.2458 L251.5526 255.2458 L251.987 255.2458 L252.4214 255.2458 L252.8559 255.2458 L253.2903 255.2458 L253.7247 255.2458 L254.1592 255.2458 L254.5936 255.2458 L255.028 255.2458 L255.4625 255.2458 L255.8969 255.2458 L256.3313 255.2458 L256.7657 255.2458 L257.2002 255.2458 L257.6346 255.2458 L258.0691 255.2458 L258.5035 255.2458 L258.938 255.2458 L259.3724 255.2458 L259.8068 255.2458 L260.2412 255.2458 L260.6757 255.2458 L261.1101 255.2458 L261.5446 255.2458 L261.979 255.2458 L262.4134 255.2458 L262.8478 255.2458 L263.2823 255.2458 L263.7167 255.2458 L264.1512 255.2458 L264.5856 255.2458 L265.02 255.2458 L265.4545 255.2458 L265.8889 255.2458 L266.3233 255.2458 L266.7578 255.2458 L267.1922 255.2458 L267.6266 255.2458 L268.0611 255.2458 L268.4955 255.2458 L268.9299 255.2458 L269.3643 255.2458 L269.7988 255.2458 L270.2332 255.2458 L270.6677 255.2458 L271.1021 255.2458 L271.5366 255.2458 L271.971 255.2458 L272.4054 255.2458 L272.8398 255.2458 L273.2743 255.2458 L273.7087 255.2458 L274.1431 255.2458 L274.5776 255.2458 L275.012 255.2458 L275.4464 255.2458 L275.8809 255.2458 L276.3153 255.2458 L276.7498 255.2458 L277.1842 255.2458 L277.6186 255.2458 L278.0531 255.2458 L278.4875 255.2458 L278.9219 255.2458 L279.3564 255.2458 L279.7908 255.2458 L280.2252 255.2458 L280.6597 255.2458 L281.0941 255.2458 L281.5285 255.2458 L281.963 255.2458 L282.3974 255.2458 L282.8318 255.2458 L283.2663 255.2458 L283.7007 255.2458 L284.1351 255.2458 L284.5696 255.2458 L285.004 255.2458 L285.4384 255.2458 L285.8729 255.2458 L286.3073 255.2458 L286.7417 255.2458 L287.1762 255.2458 L287.6106 255.2458 L288.045 255.2458 L288.4795 255.2458 L288.9139 255.2458 L289.3483 255.2458 L289.7828 255.2458 L290.2172 255.2458 L290.6517 255.2458 L291.0861 255.2458 L291.5205 255.2458 L291.955 255.2458 L292.3894 255.2458 L292.8238 255.2458 L293.2583 255.2458 L293.6927 255.2458 L294.1271 255.2458 L294.5616 255.2458 L294.996 255.2458 L295.4304 255.2458 L295.8649 255.2458 L296.2993 255.2458 L296.7337 255.2458 L297.1682 255.2458 L297.6026 255.2458 L298.037 255.2458 L298.4715 255.2458 L298.9059 255.2458 L299.3403 255.2458 L299.7748 255.2458 L300.2092 255.2458 L300.6436 255.2458 L301.0781 255.2458 L301.5125 255.2458 L301.9469 255.2458 L302.3814 255.2458 L302.8158 255.2458 L303.2502 255.2458 L303.6847 255.2458 L304.1191 255.2458 L304.5536 255.2458 L304.988 255.2458 L305.4224 255.2458 L305.8569 255.2458 L306.2913 255.2458 L306.7257 255.2458 L307.1602 255.2458 L307.5946 255.2458 L308.029 255.2458 L308.4634 255.2458 L308.8979 255.2458 L309.3323 255.2458 L309.7668 255.2458 L310.2012 255.2458 L310.6357 255.2458 L311.0701 255.2458 L311.5045 255.2458 L311.9389 255.2458 L312.3734 255.2458 L312.8078 255.2458 L313.2422 255.2458 L313.6767 255.2458 L314.1111 255.2458 L314.5455 255.2458 L314.98 255.2458 L315.4144 255.2458 L315.8488 255.2458 L316.2833 255.2458 L316.7177 255.2458 L317.1522 255.2458 L317.5866 255.2458 L318.021 255.2458 L318.4554 255.2458 L318.8899 255.2458 L319.3243 255.2458 L319.7588 255.2458 L320.1932 255.2458 L320.6276 255.2458 L321.062 255.2458 L321.4965 255.2458 L321.9309 255.2458 L322.3654 255.2458 L322.7998 255.2458 L323.2343 255.2458 L323.6687 255.2458 L324.1031 255.2458 L324.5375 255.2458 L324.972 255.2458 L325.4064 255.2458 L325.8409 255.2458 L326.2753 255.2458 L326.7097 255.2458 L327.1441 255.2458 L327.5786 255.2458 L328.013 255.2458 L328.4474 255.2458 L328.8819 255.2458 L329.3163 255.2458 L329.7508 255.2458 L330.1852 255.2458 L330.6196 255.2458 L331.054 255.2458 L331.4885 255.2458 L331.9229 255.2458 L332.3574 255.2458 L332.7918 255.2458 L333.2262 255.2458 L333.6606 255.2458 L334.0951 255.2458 L334.5295 255.2458 L334.964 255.2458 L335.3984 255.2458 L335.8328 255.2458 L336.2673 255.2458 L336.7017 255.2458 L337.1361 255.2458 L337.5706 255.2458 L338.005 255.2458 L338.4395 255.2458 L338.8739 255.2458 L339.3083 255.2458 L339.7427 255.2458 L340.1772 255.2458 L340.6116 255.2458 L341.0461 255.2458 L341.4805 255.2458 L341.9149 255.2458 L342.3494 255.2458 L342.7838 255.2458 L343.2182 255.2458 L343.6526 255.2458 L344.0871 255.2458 L344.5215 255.2458 L344.956 255.2458 L345.3904 255.2458 L345.8248 255.2458 L346.2592 255.2458 L346.6937 255.2458 L347.1281 255.2458 L347.5626 255.2458 L347.997 255.2458 L348.4314 255.2458 L348.8659 255.2458 L349.3003 255.2458 L349.7347 255.2458 L350.1692 255.2458 L350.6036 255.2458 L351.0381 255.2458 L351.4725 255.2458 L351.9069 255.2458 L352.3413 255.2458 L352.7758 255.2458 L353.2102 255.2458 L353.6446 255.2458 L354.0791 255.2458 L354.5135 255.2458 L354.9479 255.2458 L355.3824 255.2458 L355.8168 255.2458 L356.2513 255.2458 L356.6857 255.2458 L357.1201 255.2458 L357.5546 255.2458 L357.989 255.2458 L358.4234 255.2458 L358.8578 255.2458 L359.2923 255.2458 L359.7267 255.2458 L360.1612 255.2458 L360.5956 255.2458 L361.03 255.2458 L361.4645 255.2458 L361.8989 255.2458 L362.3333 255.2458 L362.7678 255.2458 L363.2022 255.2458 L363.6366 255.2458 L364.0711 255.2458 L364.5055 255.2458 L364.9399 255.2458 L365.3744 255.2458 L365.8088 255.2458 L366.2432 255.2458 L366.6777 255.2458 L367.1121 255.2458 L367.5465 255.2458 L367.981 255.2458 L368.4154 255.2458 L368.8499 255.2458 L369.2843 255.2458 L369.7187 255.2458 L370.1532 255.2458 L370.5876 255.2458 L371.022 255.2458 L371.4565 255.2458 L371.8909 255.2458 L372.3253 255.2458 L372.7598 255.2458 L373.1942 255.2458 L373.6286 255.2458 L374.063 255.2458 L374.4975 255.2458 L374.9319 255.2458 L375.3664 255.2458 L375.8008 255.2458 L376.2352 255.2458 L376.6697 255.2458 L377.1041 255.2458 L377.5385 255.2458 L377.973 255.2458 L378.4074 255.2458 L378.8418 255.2458 L379.2763 255.2458 L379.7107 255.2458 L380.1451 255.2458 L380.5796 255.2458 L381.014 255.2458 L381.4485 255.2458 L381.8829 255.2458 L382.3173 255.2458 L382.7518 255.2458 L383.1862 255.2458 L383.6206 255.2458 L384.0551 255.2458 L384.4895 255.2458 L384.9239 255.2458 L385.3583 255.2458 L385.7928 255.2458 L386.2272 255.2458 L386.6617 255.2458 L387.0961 255.2458 L387.5305 255.2458 L387.965 255.2458 L388.3994 255.2458 L388.8338 255.2458 L389.2683 255.2458 L389.7027 255.2458 L390.1371 255.2458 L390.5716 255.2458 L391.006 255.2458 L391.4404 255.2458 L391.8749 255.2458 L392.3093 255.2458 L392.7437 255.2458 L393.1782 255.2458 L393.6126 255.2458 L394.0471 255.2458 L394.4815 255.2458 L394.9159 255.2458 L395.3504 255.2458 L395.7848 255.2458 L396.2192 255.2458 L396.6537 255.2458 L397.0881 255.2458 L397.5225 255.2458 L397.9569 255.2458 L398.3914 255.2458 L398.8258 255.2458 L399.2603 255.2458 L399.6947 255.2458 L400.1291 255.2458 L400.5636 255.2458 L400.998 255.2458 L401.4324 255.2458 L401.8669 255.2458 L402.3013 255.2458 L402.7357 255.2458 L403.1702 255.2458 L403.6046 255.2458 L404.039 255.2458 L404.4735 255.2458 L404.9079 255.2458 L405.3423 255.2458 L405.7768 255.2458 L406.2112 255.2458 L406.6457 255.2458 L407.0801 255.2458 L407.5145 255.2458 L407.9489 255.2458 L408.3834 255.2458 L408.8178 255.2458 L409.2523 255.2458 L409.6867 255.2458 L410.1211 255.2458 L410.5555 255.2458 L410.99 255.2458 L411.4244 255.2458 L411.8589 255.2458 L412.2933 255.2458 L412.7277 255.2458 L413.1622 255.2458 L413.5966 255.2458 L414.031 255.2458 L414.4655 255.2458 L414.8999 255.2458 L415.3344 255.2458 L415.7688 255.2458 L416.2032 255.2458 L416.6376 255.2458 L417.0721 255.2458 L417.5065 255.2458 L417.9409 255.2458 L418.3754 255.2458 L418.8098 255.2458 L419.2442 255.2458 L419.6787 255.2458 L420.1131 255.2458 L420.5475 255.2458 L420.982 255.2458 L421.4164 255.2458 L421.8509 255.2458 L422.2853 255.2458 L422.7197 255.2458 L423.1541 255.2458 L423.5886 255.2458 L424.023 255.2458 L424.4575 255.2458 L424.8919 255.2458 L425.3263 255.2458 L425.7607 255.2458 L426.1952 255.2458 L426.6296 255.2458 L427.0641 255.2458 L427.4985 255.2458 L427.933 255.2458 L428.3674 255.2458 L428.8018 255.2458 L429.2362 255.2458 L429.6707 255.2458 L430.1051 255.2458 L430.5395 255.2458 L430.974 255.2458 L431.4084 255.2458 L431.8428 255.2458 L432.2773 255.2458 L432.7117 255.2458 L433.1461 255.2458 L433.5806 255.2458 L434.015 255.2458 L434.4495 255.2458 L434.8839 255.2458 L435.3183 255.2458 L435.7527 255.2458 L436.1872 255.2458 L436.6216 255.2458 L437.0561 255.2458 L437.4905 255.2458 L437.9249 255.2458 L438.3593 255.2458 L438.7938 255.2458 L439.2282 255.2458 L439.6627 255.2458 L440.0971 255.2458 L440.5315 255.2458 L440.966 255.2458 L441.4004 255.2458 L441.8348 255.2458 L442.2693 255.2458 L442.7037 255.2458 L443.1381 255.2458 L443.5726 255.2458 L444.007 255.2458 L444.4414 255.2458 L444.8759 255.2458 L445.3103 255.2458 L445.7448 255.2458 L446.1792 255.2458 L446.6136 255.2458 L447.0481 255.2458 L447.4825 255.2458 L447.9169 255.2458 L448.3514 255.2458 L448.7858 255.2458 L449.2202 255.2458 L449.6546 255.2458 L450.0891 255.2458 L450.5235 255.2458 L450.9579 255.2458 L451.3924 255.2458 L451.8268 255.2458 L452.2613 255.2458 L452.6957 255.2458 L453.1301 255.2458 L453.5645 255.2458 L453.999 255.2458 L454.4334 255.2458 L454.8679 255.2458 L455.3023 255.2458 L455.7368 255.2458 L456.1712 255.2458 L456.6056 255.2458 L457.04 255.2458 L457.4745 255.2458 L457.9089 255.2458 L458.3434 255.2458 L458.7778 255.2458 L459.2122 255.2458 L459.6467 255.2458 L460.0811 255.2458 L460.5155 255.2458 L460.95 255.2458 L461.3844 255.2458 L461.8188 255.2458 L462.2532 255.2458 L462.6877 255.2458 L463.1221 255.2458 L463.5565 255.2458 L463.991 255.2458 L464.4254 255.2458 L464.8599 255.2458 L465.2943 255.2458 L465.7287 255.2458 L466.1631 255.2458 L466.5976 255.2458 L467.032 255.2458 L467.4665 255.2458 L467.9009 255.2458 L468.3354 255.2458 L468.7698 255.2458 L469.2042 255.2458 L469.6386 255.2458 L470.0731 255.2458 L470.5075 255.2458 L470.9419 255.2458 L471.3764 255.2458 L471.8108 255.2458 L472.2453 255.2458 L472.6797 255.2458 L473.1141 255.2458 L473.5486 255.2458 L473.983 255.2458 L474.4174 255.2458 L474.8518 255.2458 L475.2863 255.2458 L475.7207 255.2458 L476.1552 255.2458 L476.5896 255.2458 L477.024 255.2458 L477.4585 255.2458 L477.8929 255.2458 L478.3273 255.2458 L478.7617 255.2458 L479.1962 255.2458 L479.6306 255.2458 L480.0651 255.2458 L480.4995 255.2458 L480.934 255.2458 L481.3684 255.2458 L481.8028 255.2458 L482.2372 255.2458 L482.6717 255.2458 L483.1061 255.2458 L483.5405 255.2458 L483.975 255.2458 L484.4094 255.2458 L484.8438 255.2458 L485.2783 255.2458 L485.7127 255.2458 L486.1471 255.2458 L486.5816 255.2458 L487.016 255.2458 L487.4504 255.2458 L487.8849 255.2458 L488.3193 255.2458 L488.7538 255.2458 L489.1882 255.2458 L489.6226 255.2458 L490.0571 255.2458 L490.4915 255.2458 L490.9259 255.2458 L491.3604 255.2458 L491.7948 255.2458 L492.2292 255.2458 L492.6637 255.2458 L493.0981 255.2458 L493.5326 255.2458 L493.967 255.2458 L494.4014 255.2458 L494.8358 255.2458 L495.2703 255.2458 L495.7047 255.2458 L496.1391 255.2458 L496.5736 255.2458 L497.008 255.2458 L497.4424 255.2458 L497.8769 255.2458 L498.3113 255.2458 L498.7457 255.2458 L499.1802 255.2458 L499.6146 255.2458 L500.049 255.2458 L500.4835 255.2458 L500.9179 255.2458 L501.3524 255.2458 L501.7868 255.2458 L502.2212 255.2458 L502.6557 255.2458 L503.0901 255.2458 L503.5245 255.2458 L503.959 255.2458 L504.3934 255.2458 L504.8279 255.2458 L505.2623 255.2458 L505.6967 255.2458 L506.1312 255.2458 L506.5656 255.2458 L507 255.2458" style="fill:none; fill-rule:evenodd;"
    /></g
  ></g
></svg
>
