<?xml version="1.0"?>
<!DOCTYPE svg PUBLIC '-//W3C//DTD SVG 1.0//EN'
          'http://www.w3.org/TR/2001/REC-SVG-20010904/DTD/svg10.dtd'>
<svg xmlns:xlink="http://www.w3.org/1999/xlink" style="fill-opacity:1; color-rendering:auto; color-interpolation:auto; text-rendering:auto; stroke:black; stroke-linecap:square; stroke-miterlimit:10; shape-rendering:auto; stroke-opacity:1; fill:black; stroke-dasharray:none; font-weight:normal; stroke-width:1; font-family:'Dialog'; font-style:normal; stroke-linejoin:miter; font-size:12px; stroke-dashoffset:0; image-rendering:auto;" width="560" height="420" xmlns="http://www.w3.org/2000/svg"
><!--Generated by the Batik Graphics2D SVG Generator--><defs id="genericDefs"
  /><g
  ><defs id="defs1"
    ><clipPath clipPathUnits="userSpaceOnUse" id="clipPath1"
      ><path d="M0 0 L560 0 L560 420 L0 420 L0 0 Z"
      /></clipPath
      ><font horiz-adv-x="75.0" id="font1"
      ><font-face ascent="100.53711" descent="21.972656" units-per-em="100" style="font-style:normal; font-family:SansSerif; font-weight:normal;"
        /><missing-glyph horiz-adv-x="75.0" d="M12.5 0 L12.5 62.5 L62.5 62.5 L62.5 0 L12.5 0 ZM14.0625 1.5625 L60.9375 1.5625 L60.9375 60.9375 L14.0625 60.9375 L14.0625 1.5625 Z"
        /><glyph unicode="0" horiz-adv-x="55.615234" d="M4.1562 35.2969 Q4.1562 48 6.7656 55.7422 Q9.375 63.4844 14.5234 67.6797 Q19.6719 71.875 27.4844 71.875 Q33.25 71.875 37.5938 69.5547 Q41.9375 67.2344 44.7734 62.8672 Q47.6094 58.5 49.2188 52.2266 Q50.8281 45.9531 50.8281 35.2969 Q50.8281 22.7031 48.2422 14.9688 Q45.6562 7.2344 40.5078 3.0078 Q35.3594 -1.2188 27.4844 -1.2188 Q17.1406 -1.2188 11.2344 6.2031 Q4.1562 15.1406 4.1562 35.2969 ZM13.1875 35.2969 Q13.1875 17.6719 17.3125 11.8359 Q21.4375 6 27.4844 6 Q33.5469 6 37.6719 11.8594 Q41.7969 17.7188 41.7969 35.2969 Q41.7969 52.9844 37.6719 58.7891 Q33.5469 64.5938 27.3906 64.5938 Q21.3438 64.5938 17.7188 59.4688 Q13.1875 52.9375 13.1875 35.2969 Z"
        /><glyph unicode="5" horiz-adv-x="55.615234" d="M4.1562 18.75 L13.375 19.5312 Q14.4062 12.7969 18.1406 9.3984 Q21.875 6 27.1562 6 Q33.5 6 37.8906 10.7891 Q42.2812 15.5781 42.2812 23.4844 Q42.2812 31 38.0625 35.3516 Q33.8438 39.7031 27 39.7031 Q22.75 39.7031 19.3359 37.7734 Q15.9219 35.8438 13.9688 32.7656 L5.7188 33.8438 L12.6406 70.6094 L48.25 70.6094 L48.25 62.2031 L19.6719 62.2031 L15.8281 42.9688 Q22.2656 47.4688 29.3438 47.4688 Q38.7188 47.4688 45.1641 40.9688 Q51.6094 34.4688 51.6094 24.2656 Q51.6094 14.5469 45.9531 7.4688 Q39.0625 -1.2188 27.1562 -1.2188 Q17.3906 -1.2188 11.2109 4.25 Q5.0312 9.7188 4.1562 18.75 Z"
        /><glyph unicode="1" horiz-adv-x="55.615234" d="M37.25 0 L28.4688 0 L28.4688 56 Q25.2969 52.9844 20.1406 49.9531 Q14.9844 46.9219 10.8906 45.4062 L10.8906 53.9062 Q18.2656 57.375 23.7812 62.3047 Q29.2969 67.2344 31.5938 71.875 L37.25 71.875 L37.25 0 Z"
        /><glyph unicode="2" horiz-adv-x="55.615234" d="M50.3438 8.4531 L50.3438 0 L3.0312 0 Q2.9375 3.1719 4.0469 6.1094 Q5.8594 10.9375 9.8359 15.625 Q13.8125 20.3125 21.3438 26.4688 Q33.0156 36.0312 37.1172 41.625 Q41.2188 47.2188 41.2188 52.2031 Q41.2188 57.4219 37.4766 61.0078 Q33.7344 64.5938 27.7344 64.5938 Q21.3906 64.5938 17.5781 60.7891 Q13.7656 56.9844 13.7188 50.25 L4.6875 51.1719 Q5.6094 61.2812 11.6641 66.5781 Q17.7188 71.875 27.9375 71.875 Q38.2344 71.875 44.2422 66.1641 Q50.25 60.4531 50.25 52 Q50.25 47.7031 48.4922 43.5547 Q46.7344 39.4062 42.6562 34.8125 Q38.5781 30.2188 29.1094 22.2188 Q21.1875 15.5781 18.9453 13.2109 Q16.7031 10.8438 15.2344 8.4531 L50.3438 8.4531 Z"
        /><glyph unicode="3" horiz-adv-x="55.615234" d="M4.2031 18.8906 L12.9844 20.0625 Q14.5 12.5938 18.1406 9.2969 Q21.7812 6 27 6 Q33.2031 6 37.4766 10.2969 Q41.75 14.5938 41.75 20.9531 Q41.75 27 37.7969 30.9297 Q33.8438 34.8594 27.7344 34.8594 Q25.25 34.8594 21.5312 33.8906 L22.5156 41.6094 Q23.3906 41.5 23.9219 41.5 Q29.5469 41.5 34.0391 44.4297 Q38.5312 47.3594 38.5312 53.4688 Q38.5312 58.2969 35.2578 61.4766 Q31.9844 64.6562 26.8125 64.6562 Q21.6875 64.6562 18.2656 61.4297 Q14.8438 58.2031 13.875 51.7656 L5.0781 53.3281 Q6.6875 62.1562 12.3984 67.0156 Q18.1094 71.875 26.6094 71.875 Q32.4688 71.875 37.3984 69.3594 Q42.3281 66.8438 44.9453 62.5 Q47.5625 58.1562 47.5625 53.2656 Q47.5625 48.6406 45.0703 44.8281 Q42.5781 41.0156 37.7031 38.7656 Q44.0469 37.3125 47.5625 32.6953 Q51.0781 28.0781 51.0781 21.1406 Q51.0781 11.7656 44.2422 5.25 Q37.4062 -1.2656 26.9531 -1.2656 Q17.5312 -1.2656 11.3047 4.3516 Q5.0781 9.9688 4.2031 18.8906 Z"
        /><glyph unicode="]" horiz-adv-x="27.783203" d="M21.2969 -19.875 L1.9062 -19.875 L1.9062 -12.5938 L12.5 -12.5938 L12.5 64.3125 L1.9062 64.3125 L1.9062 71.5781 L21.2969 71.5781 L21.2969 -19.875 Z"
        /><glyph unicode="K" horiz-adv-x="66.69922" d="M7.3281 0 L7.3281 71.5781 L16.7969 71.5781 L16.7969 36.0781 L52.3438 71.5781 L65.1875 71.5781 L35.1562 42.5781 L66.5 0 L54 0 L28.5156 36.2344 L16.7969 24.8125 L16.7969 0 L7.3281 0 Z"
        /><glyph unicode="[" horiz-adv-x="27.783203" d="M6.7812 -19.875 L6.7812 71.5781 L26.1719 71.5781 L26.1719 64.3125 L15.5781 64.3125 L15.5781 -12.5938 L26.1719 -12.5938 L26.1719 -19.875 L6.7812 -19.875 Z"
        /><glyph unicode=" " horiz-adv-x="27.783203" d=""
        /><glyph unicode="T" horiz-adv-x="61.083984" d="M25.9219 0 L25.9219 63.1406 L2.3438 63.1406 L2.3438 71.5781 L59.0781 71.5781 L59.0781 63.1406 L35.4062 63.1406 L35.4062 0 L25.9219 0 Z"
        /><glyph unicode="-" horiz-adv-x="33.30078" d="M3.1719 21.4844 L3.1719 30.3281 L30.1719 30.3281 L30.1719 21.4844 L3.1719 21.4844 Z"
        /><glyph unicode="4" horiz-adv-x="55.615234" d="M32.3281 0 L32.3281 17.1406 L1.2656 17.1406 L1.2656 25.2031 L33.9375 71.5781 L41.1094 71.5781 L41.1094 25.2031 L50.7812 25.2031 L50.7812 17.1406 L41.1094 17.1406 L41.1094 0 L32.3281 0 ZM32.3281 25.2031 L32.3281 57.4688 L9.9062 25.2031 L32.3281 25.2031 Z"
        /><glyph unicode="6" horiz-adv-x="55.615234" d="M49.75 54.0469 L41.0156 53.375 Q39.8438 58.5469 37.7031 60.8906 Q34.125 64.6562 28.9062 64.6562 Q24.7031 64.6562 21.5312 62.3125 Q17.3906 59.2812 14.9922 53.4688 Q12.5938 47.6562 12.5 36.9219 Q15.6719 41.75 20.2656 44.0938 Q24.8594 46.4375 29.8906 46.4375 Q38.6719 46.4375 44.8516 39.9688 Q51.0312 33.5 51.0312 23.25 Q51.0312 16.5 48.125 10.7188 Q45.2188 4.9375 40.1406 1.8594 Q35.0625 -1.2188 28.6094 -1.2188 Q17.625 -1.2188 10.6953 6.8594 Q3.7656 14.9375 3.7656 33.5 Q3.7656 54.25 11.4219 63.6719 Q18.1094 71.875 29.4375 71.875 Q37.8906 71.875 43.2891 67.1406 Q48.6875 62.4062 49.75 54.0469 ZM13.875 23.1875 Q13.875 18.6562 15.7969 14.5078 Q17.7188 10.3594 21.1875 8.1797 Q24.6562 6 28.4688 6 Q34.0312 6 38.0391 10.4922 Q42.0469 14.9844 42.0469 22.7031 Q42.0469 30.125 38.0859 34.3984 Q34.125 38.6719 28.125 38.6719 Q22.1719 38.6719 18.0234 34.3984 Q13.875 30.125 13.875 23.1875 Z"
        /><glyph unicode="8" horiz-adv-x="55.615234" d="M17.6719 38.8125 Q12.2031 40.8281 9.5703 44.5391 Q6.9375 48.25 6.9375 53.4219 Q6.9375 61.2344 12.5547 66.5547 Q18.1719 71.875 27.4844 71.875 Q36.8594 71.875 42.5781 66.4297 Q48.2969 60.9844 48.2969 53.1719 Q48.2969 48.1875 45.6797 44.5078 Q43.0625 40.8281 37.75 38.8125 Q44.3438 36.6719 47.7812 31.8828 Q51.2188 27.0938 51.2188 20.4531 Q51.2188 11.2812 44.7266 5.0312 Q38.2344 -1.2188 27.6406 -1.2188 Q17.0469 -1.2188 10.5469 5.0547 Q4.0469 11.3281 4.0469 20.7031 Q4.0469 27.6875 7.5938 32.3984 Q11.1406 37.1094 17.6719 38.8125 ZM15.9219 53.7188 Q15.9219 48.6406 19.1953 45.4141 Q22.4688 42.1875 27.6875 42.1875 Q32.7656 42.1875 36.0156 45.3828 Q39.2656 48.5781 39.2656 53.2188 Q39.2656 58.0625 35.9141 61.3594 Q32.5625 64.6562 27.5938 64.6562 Q22.5625 64.6562 19.2422 61.4297 Q15.9219 58.2031 15.9219 53.7188 ZM13.0938 20.6562 Q13.0938 16.8906 14.875 13.375 Q16.6562 9.8594 20.1719 7.9297 Q23.6875 6 27.7344 6 Q34.0312 6 38.1328 10.0547 Q42.2344 14.1094 42.2344 20.3594 Q42.2344 26.7031 38.0156 30.8594 Q33.7969 35.0156 27.4375 35.0156 Q21.2344 35.0156 17.1641 30.9141 Q13.0938 26.8125 13.0938 20.6562 Z"
        /><glyph unicode=")" horiz-adv-x="33.30078" d="M12.3594 -21.0469 L6.0625 -21.0469 Q20.6562 2.3906 20.6562 25.875 Q20.6562 35.0625 18.5625 44.0938 Q16.8906 51.4219 13.9219 58.1562 Q12.0156 62.5469 6.0625 72.7969 L12.3594 72.7969 Q21.5312 60.5469 25.9219 48.1875 Q29.6875 37.5469 29.6875 25.9219 Q29.6875 12.75 24.6328 0.4453 Q19.5781 -11.8594 12.3594 -21.0469 Z"
        /><glyph unicode="m" horiz-adv-x="83.30078" d="M6.5938 0 L6.5938 51.8594 L14.4531 51.8594 L14.4531 44.5781 Q16.8906 48.3906 20.9453 50.7109 Q25 53.0312 30.1719 53.0312 Q35.9375 53.0312 39.625 50.6406 Q43.3125 48.25 44.8281 43.9531 Q50.9844 53.0312 60.8438 53.0312 Q68.5625 53.0312 72.7109 48.7578 Q76.8594 44.4844 76.8594 35.5938 L76.8594 0 L68.1094 0 L68.1094 32.6719 Q68.1094 37.9375 67.2578 40.2578 Q66.4062 42.5781 64.1641 43.9922 Q61.9219 45.4062 58.8906 45.4062 Q53.4219 45.4062 49.8047 41.7734 Q46.1875 38.1406 46.1875 30.125 L46.1875 0 L37.4062 0 L37.4062 33.6875 Q37.4062 39.5469 35.2578 42.4766 Q33.1094 45.4062 28.2188 45.4062 Q24.5156 45.4062 21.3672 43.4531 Q18.2188 41.5 16.7969 37.7422 Q15.375 33.9844 15.375 26.9062 L15.375 0 L6.5938 0 Z"
        /><glyph unicode="*" horiz-adv-x="38.916016" d="M3.125 58.4531 L5.375 65.375 Q13.1406 62.6406 16.6562 60.6406 Q15.7188 69.4844 15.6719 72.7969 L22.75 72.7969 Q22.6094 67.9688 21.625 60.6875 Q26.6562 63.2344 33.1562 65.375 L35.4062 58.4531 Q29.2031 56.3906 23.25 55.7188 Q26.2188 53.125 31.6406 46.4844 L25.7812 42.3281 Q22.9531 46.1875 19.0938 52.8281 Q15.4844 45.9531 12.75 42.3281 L6.9844 46.4844 Q12.6406 53.4688 15.0938 55.7188 Q8.7969 56.9375 3.125 58.4531 Z"
        /><glyph unicode="(" horiz-adv-x="33.30078" d="M23.3906 -21.0469 Q16.1094 -11.8594 11.0859 0.4453 Q6.0625 12.75 6.0625 25.9219 Q6.0625 37.5469 9.8125 48.1875 Q14.2031 60.5469 23.3906 72.7969 L29.6875 72.7969 Q23.7812 62.6406 21.875 58.2969 Q18.8906 51.5625 17.1875 44.2344 Q15.0938 35.1094 15.0938 25.875 Q15.0938 2.3906 29.6875 -21.0469 L23.3906 -21.0469 Z"
        /><glyph unicode="/" horiz-adv-x="27.783203" d="M0 -1.2188 L20.75 72.7969 L27.7812 72.7969 L7.0781 -1.2188 L0 -1.2188 Z"
        /><glyph unicode="W" horiz-adv-x="94.384766" d="M20.2188 0 L1.2188 71.5781 L10.9375 71.5781 L21.8281 24.6562 Q23.5781 17.2812 24.8594 10.0156 Q27.5938 21.4844 28.0781 23.25 L41.7031 71.5781 L53.125 71.5781 L63.375 35.3594 Q67.2344 21.875 68.9531 10.0156 Q70.3125 16.7969 72.5156 25.5938 L83.7344 71.5781 L93.2656 71.5781 L73.6406 0 L64.5 0 L49.4219 54.5469 Q47.5156 61.375 47.1719 62.9375 Q46.0469 58.0156 45.0625 54.5469 L29.8906 0 L20.2188 0 Z"
        /><glyph unicode="k" horiz-adv-x="50.0" d="M6.6406 0 L6.6406 71.5781 L15.4375 71.5781 L15.4375 30.7656 L36.2344 51.8594 L47.6094 51.8594 L27.7812 32.625 L49.6094 0 L38.7656 0 L21.625 26.5156 L15.4375 20.5625 L15.4375 0 L6.6406 0 Z"
      /></font
      ><font horiz-adv-x="75.0" id="font2"
      ><font-face ascent="100.53711" descent="21.972656" units-per-em="100" style="font-style:normal; font-family:SansSerif; font-weight:bold;"
        /><missing-glyph horiz-adv-x="75.0" d="M12.5 0 L12.5 62.5 L62.5 62.5 L62.5 0 L12.5 0 ZM14.0625 1.5625 L60.9375 1.5625 L60.9375 60.9375 L14.0625 60.9375 L14.0625 1.5625 Z"
        /><glyph unicode="3" horiz-adv-x="55.615234" d="M3.7656 19 L17.0469 20.6094 Q17.6719 15.5312 20.4609 12.8438 Q23.25 10.1562 27.2031 10.1562 Q31.4531 10.1562 34.3516 13.3828 Q37.25 16.6094 37.25 22.0781 Q37.25 27.25 34.4688 30.2734 Q31.6875 33.2969 27.6875 33.2969 Q25.0469 33.2969 21.3906 32.2812 L22.9062 43.4531 Q28.4688 43.3125 31.3984 45.875 Q34.3281 48.4375 34.3281 52.6875 Q34.3281 56.2969 32.1797 58.4453 Q30.0312 60.5938 26.4688 60.5938 Q22.9531 60.5938 20.4609 58.1562 Q17.9688 55.7188 17.4375 51.0312 L4.7812 53.1719 Q6.1094 59.6719 8.7656 63.5547 Q11.4219 67.4375 16.1875 69.6562 Q20.9531 71.875 26.8594 71.875 Q36.9688 71.875 43.0625 65.4375 Q48.0938 60.1562 48.0938 53.5156 Q48.0938 44.0938 37.7969 38.4844 Q43.9531 37.1562 47.6328 32.5703 Q51.3125 27.9844 51.3125 21.4844 Q51.3125 12.0625 44.4297 5.4219 Q37.5469 -1.2188 27.2969 -1.2188 Q17.5781 -1.2188 11.1797 4.375 Q4.7812 9.9688 3.7656 19 Z"
        /><glyph unicode="8" horiz-adv-x="55.615234" d="M16.0156 38.625 Q10.6875 40.875 8.2734 44.8047 Q5.8594 48.7344 5.8594 53.4219 Q5.8594 61.4219 11.4531 66.6484 Q17.0469 71.875 27.3438 71.875 Q37.5469 71.875 43.1875 66.6484 Q48.8281 61.4219 48.8281 53.4219 Q48.8281 48.4375 46.2422 44.5547 Q43.6562 40.6719 38.9688 38.625 Q44.9219 36.2344 48.0234 31.6406 Q51.125 27.0469 51.125 21.0469 Q51.125 11.1406 44.8047 4.9375 Q38.4844 -1.2656 27.9844 -1.2656 Q18.2188 -1.2656 11.7188 3.8594 Q4.0469 9.9062 4.0469 20.4531 Q4.0469 26.2656 6.9297 31.125 Q9.8125 35.9844 16.0156 38.625 ZM18.8438 52.4375 Q18.8438 48.3438 21.1641 46.0469 Q23.4844 43.75 27.3438 43.75 Q31.25 43.75 33.5938 46.0703 Q35.9375 48.3906 35.9375 52.4844 Q35.9375 56.3438 33.6172 58.6641 Q31.2969 60.9844 27.4844 60.9844 Q23.5312 60.9844 21.1875 58.6406 Q18.8438 56.2969 18.8438 52.4375 ZM17.5781 21.7812 Q17.5781 16.1094 20.4844 12.9375 Q23.3906 9.7656 27.7344 9.7656 Q31.9844 9.7656 34.7656 12.8203 Q37.5469 15.875 37.5469 21.625 Q37.5469 26.6562 34.7188 29.7109 Q31.8906 32.7656 27.5469 32.7656 Q22.5156 32.7656 20.0469 29.2969 Q17.5781 25.8281 17.5781 21.7812 Z"
        /><glyph unicode="0" horiz-adv-x="55.615234" d="M27.4375 71.875 Q37.8438 71.875 43.7031 64.4531 Q50.6875 55.6719 50.6875 35.2969 Q50.6875 14.9844 43.6562 6.1094 Q37.8438 -1.2188 27.4375 -1.2188 Q17 -1.2188 10.6016 6.8125 Q4.2031 14.8438 4.2031 35.4531 Q4.2031 55.6719 11.2344 64.5469 Q17.0469 71.875 27.4375 71.875 ZM27.4375 60.5 Q24.9531 60.5 23 58.9141 Q21.0469 57.3281 19.9688 53.2188 Q18.5625 47.9062 18.5625 35.2969 Q18.5625 22.7031 19.8281 17.9922 Q21.0938 13.2812 23.0234 11.7188 Q24.9531 10.1562 27.4375 10.1562 Q29.9375 10.1562 31.8906 11.7422 Q33.8438 13.3281 34.9062 17.4375 Q36.3281 22.7031 36.3281 35.2969 Q36.3281 47.9062 35.0625 52.6172 Q33.7969 57.3281 31.8672 58.9141 Q29.9375 60.5 27.4375 60.5 Z"
        /><glyph unicode="5" horiz-adv-x="55.615234" d="M4.4375 18.4062 L18.1094 19.8281 Q18.7031 15.1875 21.5859 12.4766 Q24.4688 9.7656 28.2188 9.7656 Q32.5156 9.7656 35.5 13.2578 Q38.4844 16.75 38.4844 23.7812 Q38.4844 30.375 35.5234 33.6719 Q32.5625 36.9688 27.8281 36.9688 Q21.9219 36.9688 17.2344 31.7344 L6.1094 33.3438 L13.1406 70.6094 L49.4219 70.6094 L49.4219 57.7656 L23.5312 57.7656 L21.3906 45.6094 Q25.9844 47.9062 30.7656 47.9062 Q39.8906 47.9062 46.2422 41.2656 Q52.5938 34.625 52.5938 24.0312 Q52.5938 15.1875 47.4688 8.25 Q40.4844 -1.2188 28.0781 -1.2188 Q18.1719 -1.2188 11.9219 4.1016 Q5.6719 9.4219 4.4375 18.4062 Z"
        /><glyph unicode="A" horiz-adv-x="72.2168" d="M71.8281 0 L56.1094 0 L49.8594 16.2656 L21.2344 16.2656 L15.3281 0 L0 0 L27.875 71.5781 L43.1719 71.5781 L71.8281 0 ZM45.2188 28.3281 L35.3594 54.8906 L25.6875 28.3281 L45.2188 28.3281 Z"
        /><glyph unicode="k" horiz-adv-x="55.615234" d="M6.6875 0 L6.6875 71.5781 L20.4062 71.5781 L20.4062 33.5938 L36.4688 51.8594 L53.375 51.8594 L35.6406 32.9062 L54.6406 0 L39.8438 0 L26.8125 23.2969 L20.4062 16.6094 L20.4062 0 L6.6875 0 Z"
        /><glyph unicode="f" horiz-adv-x="33.30078" d="M1.1719 51.8594 L8.7969 51.8594 L8.7969 55.7656 Q8.7969 62.3125 10.1875 65.5312 Q11.5781 68.75 15.3125 70.7734 Q19.0469 72.7969 24.75 72.7969 Q30.6094 72.7969 36.2344 71.0469 L34.375 61.4688 Q31.1094 62.25 28.0781 62.25 Q25.0938 62.25 23.8047 60.8594 Q22.5156 59.4688 22.5156 55.5156 L22.5156 51.8594 L32.7656 51.8594 L32.7656 41.0625 L22.5156 41.0625 L22.5156 0 L8.7969 0 L8.7969 41.0625 L1.1719 41.0625 L1.1719 51.8594 Z"
        /><glyph unicode="o" horiz-adv-x="61.083984" d="M4 26.6562 Q4 33.5 7.375 39.8984 Q10.75 46.2969 16.9219 49.6641 Q23.0938 53.0312 30.7188 53.0312 Q42.4844 53.0312 50 45.3906 Q57.5156 37.75 57.5156 26.0781 Q57.5156 14.3125 49.9219 6.5703 Q42.3281 -1.1719 30.8125 -1.1719 Q23.6875 -1.1719 17.2188 2.0547 Q10.75 5.2812 7.375 11.5 Q4 17.7188 4 26.6562 ZM18.0625 25.9219 Q18.0625 18.2188 21.7266 14.1172 Q25.3906 10.0156 30.7656 10.0156 Q36.1406 10.0156 39.7734 14.1172 Q43.4062 18.2188 43.4062 26.0312 Q43.4062 33.6406 39.7734 37.7422 Q36.1406 41.8438 30.7656 41.8438 Q25.3906 41.8438 21.7266 37.7422 Q18.0625 33.6406 18.0625 25.9219 Z"
        /><glyph unicode="l" horiz-adv-x="27.783203" d="M7.1719 0 L7.1719 71.5781 L20.9062 71.5781 L20.9062 0 L7.1719 0 Z"
        /><glyph unicode="p" horiz-adv-x="61.083984" d="M6.7812 51.8594 L19.5781 51.8594 L19.5781 44.2344 Q22.0781 48.1406 26.3203 50.5859 Q30.5625 53.0312 35.75 53.0312 Q44.7812 53.0312 51.0781 45.9531 Q57.375 38.875 57.375 26.2188 Q57.375 13.2344 51.0234 6.0312 Q44.6719 -1.1719 35.6406 -1.1719 Q31.3438 -1.1719 27.8516 0.5391 Q24.3594 2.25 20.5156 6.3906 L20.5156 -19.7344 L6.7812 -19.7344 L6.7812 51.8594 ZM20.3594 26.8125 Q20.3594 18.0625 23.8281 13.8906 Q27.2969 9.7188 32.2812 9.7188 Q37.0625 9.7188 40.2344 13.5547 Q43.4062 17.3906 43.4062 26.125 Q43.4062 34.2812 40.1328 38.2344 Q36.8594 42.1875 32.0312 42.1875 Q27 42.1875 23.6797 38.3047 Q20.3594 34.4219 20.3594 26.8125 Z"
        /><glyph unicode=" " horiz-adv-x="27.783203" d=""
        /><glyph unicode="b" horiz-adv-x="61.083984" d="M6.5938 0 L6.5938 71.5781 L20.3125 71.5781 L20.3125 45.7969 Q26.6562 53.0312 35.3594 53.0312 Q44.8281 53.0312 51.0312 46.1719 Q57.2344 39.3125 57.2344 26.4688 Q57.2344 13.1875 50.9062 6.0078 Q44.5781 -1.1719 35.5469 -1.1719 Q31.1094 -1.1719 26.7891 1.0469 Q22.4688 3.2656 19.3438 7.625 L19.3438 0 L6.5938 0 ZM20.2188 27.0469 Q20.2188 19 22.75 15.1406 Q26.3125 9.6719 32.2344 9.6719 Q36.7656 9.6719 39.9688 13.5547 Q43.1719 17.4375 43.1719 25.7812 Q43.1719 34.6719 39.9453 38.6016 Q36.7188 42.5312 31.6875 42.5312 Q26.7656 42.5312 23.4922 38.6953 Q20.2188 34.8594 20.2188 27.0469 Z"
        /><glyph unicode="L" horiz-adv-x="61.083984" d="M7.6719 0 L7.6719 71 L22.125 71 L22.125 12.0625 L58.0625 12.0625 L58.0625 0 L7.6719 0 Z"
        /><glyph unicode="t" horiz-adv-x="33.30078" d="M30.9531 51.8594 L30.9531 40.9219 L21.5781 40.9219 L21.5781 20.0156 Q21.5781 13.6719 21.8516 12.625 Q22.125 11.5781 23.0781 10.8906 Q24.0312 10.2031 25.3906 10.2031 Q27.2969 10.2031 30.9062 11.5312 L32.0781 0.875 Q27.2969 -1.1719 21.2344 -1.1719 Q17.5312 -1.1719 14.5547 0.0703 Q11.5781 1.3125 10.1875 3.2969 Q8.7969 5.2812 8.25 8.6406 Q7.8125 11.0312 7.8125 18.3125 L7.8125 40.9219 L1.5156 40.9219 L1.5156 51.8594 L7.8125 51.8594 L7.8125 62.1562 L21.5781 70.1719 L21.5781 51.8594 L30.9531 51.8594 Z"
        /><glyph unicode="a" horiz-adv-x="55.615234" d="M17.4375 36.0312 L4.9844 38.2812 Q7.0781 45.7969 12.2031 49.4141 Q17.3281 53.0312 27.4375 53.0312 Q36.625 53.0312 41.1172 50.8594 Q45.6094 48.6875 47.4375 45.3438 Q49.2656 42 49.2656 33.0625 L49.125 17.0469 Q49.125 10.2031 49.7812 6.9609 Q50.4375 3.7188 52.25 0 L38.6719 0 Q38.1406 1.375 37.3594 4.0469 Q37.0156 5.2812 36.8594 5.6719 Q33.3438 2.25 29.3438 0.5391 Q25.3438 -1.1719 20.7969 -1.1719 Q12.7969 -1.1719 8.1797 3.1719 Q3.5625 7.5156 3.5625 14.1562 Q3.5625 18.5625 5.6641 22 Q7.7656 25.4375 11.5469 27.2734 Q15.3281 29.1094 22.4688 30.4688 Q32.0781 32.2812 35.7969 33.8438 L35.7969 35.2031 Q35.7969 39.1562 33.8438 40.8438 Q31.8906 42.5312 26.4688 42.5312 Q22.7969 42.5312 20.75 41.0938 Q18.7031 39.6562 17.4375 36.0312 ZM35.7969 24.9062 Q33.1562 24.0312 27.4453 22.8047 Q21.7344 21.5781 19.9688 20.4062 Q17.2812 18.5 17.2812 15.5781 Q17.2812 12.7031 19.4297 10.6016 Q21.5781 8.5 24.9062 8.5 Q28.6094 8.5 31.9844 10.9375 Q34.4688 12.7969 35.25 15.4844 Q35.7969 17.2344 35.7969 22.1719 L35.7969 24.9062 Z"
        /><glyph unicode="M" horiz-adv-x="83.30078" d="M7.0781 0 L7.0781 71.5781 L28.7188 71.5781 L41.7031 22.75 L54.5469 71.5781 L76.2188 71.5781 L76.2188 0 L62.7969 0 L62.7969 56.3438 L48.5781 0 L34.6719 0 L20.5156 56.3438 L20.5156 0 L7.0781 0 Z"
      /></font
    ></defs
    ><g style="fill:white; stroke:white;"
    ><rect x="0" y="0" width="560" style="clip-path:url(#clipPath1); stroke:none;" height="420"
    /></g
    ><g style="fill:white; text-rendering:optimizeSpeed; color-rendering:optimizeSpeed; image-rendering:optimizeSpeed; shape-rendering:crispEdges; stroke:white; color-interpolation:sRGB;"
    ><rect x="0" width="560" height="420" y="0" style="stroke:none;"
      /><path style="stroke:none;" d="M73 374 L507 374 L507 31 L73 31 Z"
    /></g
    ><g style="fill:rgb(38,38,38); text-rendering:geometricPrecision; image-rendering:optimizeQuality; color-rendering:optimizeQuality; stroke-linejoin:round; stroke:rgb(38,38,38); color-interpolation:linearRGB; stroke-width:0.6667;"
    ><line y2="374" style="fill:none;" x1="73" x2="507" y1="374"
      /><line y2="31" style="fill:none;" x1="73" x2="507" y1="31"
      /><line y2="369.66" style="fill:none;" x1="73" x2="73" y1="374"
      /><line y2="369.66" style="fill:none;" x1="145.3333" x2="145.3333" y1="374"
      /><line y2="369.66" style="fill:none;" x1="217.6667" x2="217.6667" y1="374"
      /><line y2="369.66" style="fill:none;" x1="290" x2="290" y1="374"
      /><line y2="369.66" style="fill:none;" x1="362.3333" x2="362.3333" y1="374"
      /><line y2="369.66" style="fill:none;" x1="434.6667" x2="434.6667" y1="374"
      /><line y2="369.66" style="fill:none;" x1="507" x2="507" y1="374"
      /><line y2="35.34" style="fill:none;" x1="73" x2="73" y1="31"
      /><line y2="35.34" style="fill:none;" x1="145.3333" x2="145.3333" y1="31"
      /><line y2="35.34" style="fill:none;" x1="217.6667" x2="217.6667" y1="31"
      /><line y2="35.34" style="fill:none;" x1="290" x2="290" y1="31"
      /><line y2="35.34" style="fill:none;" x1="362.3333" x2="362.3333" y1="31"
      /><line y2="35.34" style="fill:none;" x1="434.6667" x2="434.6667" y1="31"
      /><line y2="35.34" style="fill:none;" x1="507" x2="507" y1="31"
    /></g
    ><g transform="translate(73,379.3333)" style="font-size:13.3333px; fill:rgb(38,38,38); text-rendering:geometricPrecision; image-rendering:optimizeQuality; color-rendering:optimizeQuality; font-family:'SansSerif'; stroke:rgb(38,38,38); color-interpolation:linearRGB;"
    ><text x="-4" xml:space="preserve" y="14" style="stroke:none;"
      >0</text
    ></g
    ><g transform="translate(145.3333,379.3333)" style="font-size:13.3333px; fill:rgb(38,38,38); text-rendering:geometricPrecision; image-rendering:optimizeQuality; color-rendering:optimizeQuality; font-family:'SansSerif'; stroke:rgb(38,38,38); color-interpolation:linearRGB;"
    ><text x="-7.5" xml:space="preserve" y="14" style="stroke:none;"
      >50</text
    ></g
    ><g transform="translate(217.6667,379.3333)" style="font-size:13.3333px; fill:rgb(38,38,38); text-rendering:geometricPrecision; image-rendering:optimizeQuality; color-rendering:optimizeQuality; font-family:'SansSerif'; stroke:rgb(38,38,38); color-interpolation:linearRGB;"
    ><text x="-11.5" xml:space="preserve" y="14" style="stroke:none;"
      >100</text
    ></g
    ><g transform="translate(290,379.3333)" style="font-size:13.3333px; fill:rgb(38,38,38); text-rendering:geometricPrecision; image-rendering:optimizeQuality; color-rendering:optimizeQuality; font-family:'SansSerif'; stroke:rgb(38,38,38); color-interpolation:linearRGB;"
    ><text x="-11.5" xml:space="preserve" y="14" style="stroke:none;"
      >150</text
    ></g
    ><g transform="translate(362.3333,379.3333)" style="font-size:13.3333px; fill:rgb(38,38,38); text-rendering:geometricPrecision; image-rendering:optimizeQuality; color-rendering:optimizeQuality; font-family:'SansSerif'; stroke:rgb(38,38,38); color-interpolation:linearRGB;"
    ><text x="-11.5" xml:space="preserve" y="14" style="stroke:none;"
      >200</text
    ></g
    ><g transform="translate(434.6667,379.3333)" style="font-size:13.3333px; fill:rgb(38,38,38); text-rendering:geometricPrecision; image-rendering:optimizeQuality; color-rendering:optimizeQuality; font-family:'SansSerif'; stroke:rgb(38,38,38); color-interpolation:linearRGB;"
    ><text x="-11.5" xml:space="preserve" y="14" style="stroke:none;"
      >250</text
    ></g
    ><g transform="translate(507,379.3333)" style="font-size:13.3333px; fill:rgb(38,38,38); text-rendering:geometricPrecision; image-rendering:optimizeQuality; color-rendering:optimizeQuality; font-family:'SansSerif'; stroke:rgb(38,38,38); color-interpolation:linearRGB;"
    ><text x="-11.5" xml:space="preserve" y="14" style="stroke:none;"
      >300</text
    ></g
    ><g transform="translate(290.0002,397.6667)" style="font-size:14.6667px; fill:rgb(38,38,38); text-rendering:geometricPrecision; image-rendering:optimizeQuality; color-rendering:optimizeQuality; font-family:'SansSerif'; stroke:rgb(38,38,38); color-interpolation:linearRGB;"
    ><text x="-15.5" xml:space="preserve" y="15" style="stroke:none;"
      >T [K]</text
    ></g
    ><g style="fill:rgb(38,38,38); text-rendering:geometricPrecision; image-rendering:optimizeQuality; color-rendering:optimizeQuality; stroke-linejoin:round; stroke:rgb(38,38,38); color-interpolation:linearRGB; stroke-width:0.6667;"
    ><line y2="31" style="fill:none;" x1="73" x2="73" y1="374"
      /><line y2="31" style="fill:none;" x1="507" x2="507" y1="374"
      /><line y2="374" style="fill:none;" x1="73" x2="77.34" y1="374"
      /><line y2="325" style="fill:none;" x1="73" x2="77.34" y1="325"
      /><line y2="276" style="fill:none;" x1="73" x2="77.34" y1="276"
      /><line y2="227" style="fill:none;" x1="73" x2="77.34" y1="227"
      /><line y2="178" style="fill:none;" x1="73" x2="77.34" y1="178"
      /><line y2="129" style="fill:none;" x1="73" x2="77.34" y1="129"
      /><line y2="80" style="fill:none;" x1="73" x2="77.34" y1="80"
      /><line y2="31" style="fill:none;" x1="73" x2="77.34" y1="31"
      /><line y2="374" style="fill:none;" x1="507" x2="502.66" y1="374"
      /><line y2="325" style="fill:none;" x1="507" x2="502.66" y1="325"
      /><line y2="276" style="fill:none;" x1="507" x2="502.66" y1="276"
      /><line y2="227" style="fill:none;" x1="507" x2="502.66" y1="227"
      /><line y2="178" style="fill:none;" x1="507" x2="502.66" y1="178"
      /><line y2="129" style="fill:none;" x1="507" x2="502.66" y1="129"
      /><line y2="80" style="fill:none;" x1="507" x2="502.66" y1="80"
      /><line y2="31" style="fill:none;" x1="507" x2="502.66" y1="31"
    /></g
    ><g transform="translate(67.6667,374)" style="font-size:13.3333px; fill:rgb(38,38,38); text-rendering:geometricPrecision; image-rendering:optimizeQuality; color-rendering:optimizeQuality; font-family:'SansSerif'; stroke:rgb(38,38,38); color-interpolation:linearRGB;"
    ><text x="-20" xml:space="preserve" y="5.5" style="stroke:none;"
      >-20</text
    ></g
    ><g transform="translate(67.6667,325)" style="font-size:13.3333px; fill:rgb(38,38,38); text-rendering:geometricPrecision; image-rendering:optimizeQuality; color-rendering:optimizeQuality; font-family:'SansSerif'; stroke:rgb(38,38,38); color-interpolation:linearRGB;"
    ><text x="-8" xml:space="preserve" y="5.5" style="stroke:none;"
      >0</text
    ></g
    ><g transform="translate(67.6667,276)" style="font-size:13.3333px; fill:rgb(38,38,38); text-rendering:geometricPrecision; image-rendering:optimizeQuality; color-rendering:optimizeQuality; font-family:'SansSerif'; stroke:rgb(38,38,38); color-interpolation:linearRGB;"
    ><text x="-15" xml:space="preserve" y="5.5" style="stroke:none;"
      >20</text
    ></g
    ><g transform="translate(67.6667,227)" style="font-size:13.3333px; fill:rgb(38,38,38); text-rendering:geometricPrecision; image-rendering:optimizeQuality; color-rendering:optimizeQuality; font-family:'SansSerif'; stroke:rgb(38,38,38); color-interpolation:linearRGB;"
    ><text x="-15" xml:space="preserve" y="5.5" style="stroke:none;"
      >40</text
    ></g
    ><g transform="translate(67.6667,178)" style="font-size:13.3333px; fill:rgb(38,38,38); text-rendering:geometricPrecision; image-rendering:optimizeQuality; color-rendering:optimizeQuality; font-family:'SansSerif'; stroke:rgb(38,38,38); color-interpolation:linearRGB;"
    ><text x="-15" xml:space="preserve" y="5.5" style="stroke:none;"
      >60</text
    ></g
    ><g transform="translate(67.6667,129)" style="font-size:13.3333px; fill:rgb(38,38,38); text-rendering:geometricPrecision; image-rendering:optimizeQuality; color-rendering:optimizeQuality; font-family:'SansSerif'; stroke:rgb(38,38,38); color-interpolation:linearRGB;"
    ><text x="-15" xml:space="preserve" y="5.5" style="stroke:none;"
      >80</text
    ></g
    ><g transform="translate(67.6667,80)" style="font-size:13.3333px; fill:rgb(38,38,38); text-rendering:geometricPrecision; image-rendering:optimizeQuality; color-rendering:optimizeQuality; font-family:'SansSerif'; stroke:rgb(38,38,38); color-interpolation:linearRGB;"
    ><text x="-23" xml:space="preserve" y="5.5" style="stroke:none;"
      >100</text
    ></g
    ><g transform="translate(67.6667,31)" style="font-size:13.3333px; fill:rgb(38,38,38); text-rendering:geometricPrecision; image-rendering:optimizeQuality; color-rendering:optimizeQuality; font-family:'SansSerif'; stroke:rgb(38,38,38); color-interpolation:linearRGB;"
    ><text x="-23" xml:space="preserve" y="5.5" style="stroke:none;"
      >120</text
    ></g
    ><g transform="translate(40.6667,202.4998) rotate(-90)" style="font-size:14.6667px; fill:rgb(38,38,38); text-rendering:geometricPrecision; image-rendering:optimizeQuality; color-rendering:optimizeQuality; font-family:'SansSerif'; stroke:rgb(38,38,38); color-interpolation:linearRGB;"
    ><text x="-35.5" xml:space="preserve" y="-4" style="stroke:none;"
      >k [W/(K*m)</text
    ></g
    ><g transform="translate(290.0003,28.25)" style="font-size:14.6667px; text-rendering:geometricPrecision; image-rendering:optimizeQuality; color-rendering:optimizeQuality; font-family:'SansSerif'; color-interpolation:linearRGB; font-weight:bold;"
    ><text x="-80" xml:space="preserve" y="-4" style="stroke:none;"
      >MatLab plot of kAl5083</text
    ></g
    ><g style="stroke-linecap:butt; fill:rgb(0,114,189); text-rendering:geometricPrecision; image-rendering:optimizeQuality; color-rendering:optimizeQuality; stroke-linejoin:round; stroke:rgb(0,114,189); color-interpolation:linearRGB; stroke-width:0.6667;"
    ><path d="M73 325.2012 L73.4344 324.5758 L73.8689 323.9505 L74.3033 323.3251 L74.7377 322.6997 L75.1722 322.0743 L75.6066 321.449 L76.041 320.8236 L76.4755 320.1982 L76.9099 319.5728 L77.3443 318.9474 L77.7788 318.3221 L78.2132 317.6967 L78.6476 317.0714 L79.0821 316.5119 L79.5165 315.9697 L79.951 315.4132 L80.3854 314.8442 L80.8198 314.2642 L81.2543 313.6744 L81.6887 313.0761 L82.1231 312.4702 L82.5576 311.8574 L82.992 311.2386 L83.4264 310.6143 L83.8609 309.9851 L84.2953 309.3517 L84.7297 308.7144 L85.1642 308.0737 L85.5986 307.43 L86.033 306.7836 L86.4675 306.1349 L86.9019 305.4841 L87.3363 304.8316 L87.7708 304.1776 L88.2052 303.5223 L88.6396 302.866 L89.0741 302.2089 L89.5085 301.5511 L89.9429 300.8929 L90.3774 300.2343 L90.8118 299.5756 L91.2462 298.9168 L91.6807 298.2582 L92.1151 297.5998 L92.5496 296.9417 L92.984 296.2841 L93.4184 295.627 L93.8529 294.9706 L94.2873 294.3149 L94.7217 293.66 L95.1562 293.006 L95.5906 292.3529 L96.025 291.7008 L96.4595 291.0498 L96.8939 290.3999 L97.3283 289.7512 L97.7628 289.1037 L98.1972 288.4576 L98.6316 287.8127 L99.0661 287.1691 L99.5005 286.527 L99.9349 285.8863 L100.3694 285.247 L100.8038 284.6092 L101.2382 283.9729 L101.6727 283.3382 L102.1071 282.705 L102.5415 282.0734 L102.976 281.4435 L103.4104 280.8151 L103.8448 280.1884 L104.2793 279.5633 L104.7137 278.9398 L105.1481 278.3181 L105.5826 277.698 L106.017 277.0797 L106.4515 276.463 L106.8859 275.8481 L107.3203 275.2349 L107.7548 274.6234 L108.1892 274.0137 L108.6236 273.4057 L109.0581 272.7994 L109.4925 272.1949 L109.9269 271.5922 L110.3614 270.9911 L110.7958 270.3919 L111.2302 269.7944 L111.6647 269.1987 L112.0991 268.6047 L112.5335 268.0125 L112.968 267.422 L113.4024 266.8333 L113.8368 266.2464 L114.2713 265.6612 L114.7057 265.0777 L115.1401 264.496 L115.5746 263.916 L116.009 263.3378 L116.4434 262.7613 L116.8779 262.1865 L117.3123 261.6135 L117.7467 261.0422 L118.1812 260.4726 L118.6156 259.9047 L119.05 259.3385 L119.4845 258.774 L119.9189 258.2113 L120.3533 257.6502 L120.7878 257.0908 L121.2222 256.5331 L121.6567 255.9771 L122.0911 255.4227 L122.5255 254.87 L122.96 254.319 L123.3944 253.7696 L123.8288 253.2219 L124.2633 252.6758 L124.6977 252.1313 L125.1321 251.5884 L125.5666 251.0472 L126.001 250.5076 L126.4354 249.9696 L126.8699 249.4332 L127.3043 248.8984 L127.7387 248.3651 L128.1732 247.8335 L128.6076 247.3034 L129.042 246.7749 L129.4765 246.2479 L129.9109 245.7225 L130.3454 245.1987 L130.7798 244.6763 L131.2142 244.1555 L131.6487 243.6363 L132.0831 243.1185 L132.5175 242.6023 L132.952 242.0875 L133.3864 241.5743 L133.8208 241.0625 L134.2552 240.5522 L134.6897 240.0434 L135.1241 239.5361 L135.5586 239.0302 L135.993 238.5257 L136.4274 238.0228 L136.8619 237.5212 L137.2963 237.0211 L137.7307 236.5224 L138.1652 236.0251 L138.5996 235.5293 L139.034 235.0348 L139.4685 234.5417 L139.9029 234.0501 L140.3373 233.5598 L140.7718 233.0709 L141.2062 232.5833 L141.6406 232.0971 L142.0751 231.6123 L142.5095 231.1288 L142.9439 230.6467 L143.3784 230.1659 L143.8128 229.6864 L144.2473 229.2083 L144.6817 228.7315 L145.1161 228.256 L145.5506 227.7818 L145.985 227.3089 L146.4194 226.8373 L146.8539 226.3669 L147.2883 225.8979 L147.7227 225.4301 L148.1572 224.9636 L148.5916 224.4983 L149.026 224.0343 L149.4605 223.5716 L149.8949 223.1101 L150.3293 222.6498 L150.7638 222.1908 L151.1982 221.733 L151.6326 221.2764 L152.0671 220.821 L152.5015 220.3668 L152.9359 219.9138 L153.3704 219.462 L153.8048 219.0114 L154.2392 218.562 L154.6737 218.1138 L155.1081 217.6667 L155.5425 217.2208 L155.977 216.7761 L156.4114 216.3325 L156.8458 215.89 L157.2803 215.4487 L157.7147 215.0086 L158.1492 214.5696 L158.5836 214.1317 L159.018 213.6949 L159.4525 213.2593 L159.8869 212.8247 L160.3213 212.3913 L160.7558 211.9589 L161.1902 211.5277 L161.6246 211.0975 L162.0591 210.6685 L162.4935 210.2405 L162.9279 209.8136 L163.3624 209.3878 L163.7968 208.963 L164.2312 208.5393 L164.6657 208.1166 L165.1001 207.695 L165.5345 207.2745 L165.969 206.8549 L166.4034 206.4365 L166.8378 206.019 L167.2723 205.6026 L167.7067 205.1872 L168.1411 204.7728 L168.5756 204.3595 L169.01 203.9471 L169.4444 203.5357 L169.8789 203.1254 L170.3133 202.716 L170.7477 202.3076 L171.1822 201.9003 L171.6166 201.4939 L172.0511 201.0884 L172.4855 200.684 L172.9199 200.2805 L173.3544 199.8779 L173.7888 199.4764 L174.2232 199.0758 L174.6577 198.6761 L175.0921 198.2774 L175.5265 197.8796 L175.961 197.4828 L176.3954 197.0869 L176.8298 196.6919 L177.2643 196.2979 L177.6987 195.9048 L178.1331 195.5126 L178.5676 195.1213 L179.002 194.7309 L179.4364 194.3415 L179.8709 193.9529 L180.3053 193.5652 L180.7397 193.1785 L181.1742 192.7926 L181.6086 192.4076 L182.043 192.0235 L182.4775 191.6402 L182.9119 191.2579 L183.3463 190.8764 L183.7808 190.4958 L184.2152 190.1161 L184.6496 189.7372 L185.0841 189.3591 L185.5185 188.982 L185.953 188.6057 L186.3874 188.2302 L186.8218 187.8556 L187.2563 187.4818 L187.6907 187.1088 L188.1251 186.7367 L188.5596 186.3654 L188.994 185.9949 L189.4284 185.6253 L189.8629 185.2565 L190.2973 184.8885 L190.7317 184.5213 L191.1662 184.1549 L191.6006 183.7893 L192.035 183.4246 L192.4695 183.0606 L192.9039 182.6974 L193.3383 182.335 L193.7728 181.9734 L194.2072 181.6126 L194.6416 181.2526 L195.0761 180.8934 L195.5105 180.5349 L195.9449 180.1773 L196.3794 179.8203 L196.8138 179.4642 L197.2482 179.1088 L197.6827 178.7542 L198.1171 178.4004 L198.5516 178.0473 L198.986 177.6949 L199.4204 177.3434 L199.8549 176.9925 L200.2893 176.6424 L200.7237 176.2931 L201.1582 175.9445 L201.5926 175.5966 L202.027 175.2495 L202.4615 174.903 L202.8959 174.5574 L203.3303 174.2124 L203.7648 173.8682 L204.1992 173.5247 L204.6336 173.1819 L205.0681 172.8398 L205.5025 172.4985 L205.9369 172.1578 L206.3714 171.8179 L206.8058 171.4786 L207.2402 171.1401 L207.6747 170.8022 L208.1091 170.4651 L208.5435 170.1287 L208.978 169.7929 L209.4124 169.4578 L209.8468 169.1235 L210.2813 168.7898 L210.7157 168.4568 L211.1502 168.1244 L211.5846 167.7928 L212.019 167.4618 L212.4534 167.1315 L212.8879 166.8018 L213.3223 166.4729 L213.7568 166.1445 L214.1912 165.8169 L214.6256 165.4899 L215.0601 165.1636 L215.4945 164.8379 L215.9289 164.5129 L216.3634 164.1885 L216.7978 163.8648 L217.2322 163.5418 L217.6667 163.2193 L218.1011 162.8975 L218.5355 162.5764 L218.97 162.2559 L219.4044 161.936 L219.8388 161.6168 L220.2733 161.2982 L220.7077 160.9802 L221.1422 160.6628 L221.5766 160.3461 L222.011 160.03 L222.4454 159.7145 L222.8799 159.3997 L223.3143 159.0854 L223.7487 158.7718 L224.1832 158.4588 L224.6176 158.1463 L225.052 157.8345 L225.4865 157.5233 L225.9209 157.2127 L226.3553 156.9027 L226.7898 156.5933 L227.2242 156.2845 L227.6587 155.9763 L228.0931 155.6687 L228.5275 155.3617 L228.962 155.0553 L229.3964 154.7495 L229.8308 154.4442 L230.2653 154.1395 L230.6997 153.8354 L231.1341 153.532 L231.5686 153.229 L232.003 152.9267 L232.4374 152.6249 L232.8719 152.3237 L233.3063 152.0231 L233.7408 151.723 L234.1752 151.4235 L234.6096 151.1246 L235.044 150.8262 L235.4785 150.5284 L235.9129 150.2312 L236.3474 149.9345 L236.7818 149.6384 L237.2162 149.3428 L237.6507 149.0478 L238.0851 148.7533 L238.5195 148.4594 L238.9539 148.166 L239.3884 147.8732 L239.8228 147.581 L240.2573 147.2892 L240.6917 146.998 L241.1261 146.7074 L241.5606 146.4173 L241.995 146.1277 L242.4294 145.8387 L242.8639 145.5502 L243.2983 145.2622 L243.7327 144.9747 L244.1672 144.6878 L244.6016 144.4014 L245.036 144.1156 L245.4705 143.8302 L245.9049 143.5454 L246.3393 143.2611 L246.7738 142.9773 L247.2082 142.6941 L247.6426 142.4113 L248.0771 142.1291 L248.5115 141.8474 L248.9459 141.5662 L249.3804 141.2855 L249.8148 141.0053 L250.2493 140.7256 L250.6837 140.4464 L251.1181 140.1678 L251.5526 139.8896 L251.987 139.6119 L252.4214 139.3347 L252.8559 139.0581 L253.2903 138.7819 L253.7247 138.5062 L254.1592 138.231 L254.5936 137.9563 L255.028 137.6821 L255.4625 137.4084 L255.8969 137.1352 L256.3313 136.8624 L256.7657 136.5902 L257.2002 136.3184 L257.6346 136.0471 L258.0691 135.7763 L258.5035 135.506 L258.938 135.2361 L259.3724 134.9668 L259.8068 134.6979 L260.2412 134.4295 L260.6757 134.1615 L261.1101 133.894 L261.5446 133.627 L261.979 133.3605 L262.4134 133.0944 L262.8478 132.8288 L263.2823 132.5637 L263.7167 132.299 L264.1512 132.0348 L264.5856 131.7711 L265.02 131.5078 L265.4545 131.2449 L265.8889 130.9826 L266.3233 130.7207 L266.7578 130.4592 L267.1922 130.1982 L267.6266 129.9377 L268.0611 129.6776 L268.4955 129.4179 L268.9299 129.1587 L269.3643 128.9 L269.7988 128.6417 L270.2332 128.3838 L270.6677 128.1264 L271.1021 127.8694 L271.5366 127.6129 L271.971 127.3568 L272.4054 127.1011 L272.8398 126.8459 L273.2743 126.5912 L273.7087 126.3368 L274.1431 126.0829 L274.5776 125.8294 L275.012 125.5764 L275.4464 125.3238 L275.8809 125.0716 L276.3153 124.8199 L276.7498 124.5686 L277.1842 124.3177 L277.6186 124.0672 L278.0531 123.8172 L278.4875 123.5676 L278.9219 123.3184 L279.3564 123.0696 L279.7908 122.8213 L280.2252 122.5733 L280.6597 122.3258 L281.0941 122.0788 L281.5285 121.8321 L281.963 121.5858 L282.3974 121.34 L282.8318 121.0946 L283.2663 120.8495 L283.7007 120.6049 L284.1351 120.3607 L284.5696 120.1169 L285.004 119.8736 L285.4384 119.6306 L285.8729 119.388 L286.3073 119.1459 L286.7417 118.9041 L287.1762 118.6627 L287.6106 118.4218 L288.045 118.1812 L288.4795 117.9411 L288.9139 117.7013 L289.3483 117.462 L289.7828 117.223 L290.2172 116.9845 L290.6517 116.7463 L291.0861 116.5085 L291.5205 116.2712 L291.955 116.0342 L292.3894 115.7976 L292.8238 115.5614 L293.2583 115.3256 L293.6927 115.0901 L294.1271 114.8551 L294.5616 114.6205 L294.996 114.3862 L295.4304 114.1523 L295.8649 113.9188 L296.2993 113.6857 L296.7337 113.453 L297.1682 113.2206 L297.6026 112.9887 L298.037 112.7571 L298.4715 112.5259 L298.9059 112.295 L299.3403 112.0646 L299.7748 111.8345 L300.2092 111.6048 L300.6436 111.3755 L301.0781 111.1465 L301.5125 110.9179 L301.9469 110.6897 L302.3814 110.4619 L302.8158 110.2344 L303.2502 110.0073 L303.6847 109.7806 L304.1191 109.5542 L304.5536 109.3282 L304.988 109.1026 L305.4224 108.8773 L305.8569 108.6524 L306.2913 108.4279 L306.7257 108.2037 L307.1602 107.9799 L307.5946 107.7564 L308.029 107.5333 L308.4634 107.3106 L308.8979 107.0882 L309.3323 106.8662 L309.7668 106.6445 L310.2012 106.4232 L310.6357 106.2022 L311.0701 105.9816 L311.5045 105.7614 L311.9389 105.5415 L312.3734 105.322 L312.8078 105.1028 L313.2422 104.8839 L313.6767 104.6654 L314.1111 104.4473 L314.5455 104.2295 L314.98 104.012 L315.4144 103.7949 L315.8488 103.5782 L316.2833 103.3618 L316.7177 103.1457 L317.1522 102.93 L317.5866 102.7146 L318.021 102.4996 L318.4554 102.2849 L318.8899 102.0705 L319.3243 101.8565 L319.7588 101.6428 L320.1932 101.4295 L320.6276 101.2165 L321.062 101.0038 L321.4965 100.7915 L321.9309 100.5795 L322.3654 100.3678 L322.7998 100.1565 L323.2343 99.9455 L323.6687 99.7349 L324.1031 99.5245 L324.5375 99.3145 L324.972 99.1049 L325.4064 98.8955 L325.8409 98.6865 L326.2753 98.4779 L326.7097 98.2695 L327.1441 98.0615 L327.5786 97.8538 L328.013 97.6464 L328.4474 97.4394 L328.8819 97.2326 L329.3163 97.0262 L329.7508 96.8202 L330.1852 96.6144 L330.6196 96.409 L331.054 96.2039 L331.4885 95.9991 L331.9229 95.7946 L332.3574 95.5905 L332.7918 95.3866 L333.2262 95.1831 L333.6606 94.9799 L334.0951 94.777 L334.5295 94.5744 L334.964 94.3722 L335.3984 94.1702 L335.8328 93.9686 L336.2673 93.7673 L336.7017 93.5663 L337.1361 93.3656 L337.5706 93.1653 L338.005 92.9652 L338.4395 92.7654 L338.8739 92.566 L339.3083 92.3668 L339.7427 92.168 L340.1772 91.9695 L340.6116 91.7713 L341.0461 91.5734 L341.4805 91.3758 L341.9149 91.1785 L342.3494 90.9815 L342.7838 90.7848 L343.2182 90.5884 L343.6526 90.3923 L344.0871 90.1965 L344.5215 90.001 L344.956 89.8058 L345.3904 89.611 L345.8248 89.4164 L346.2592 89.2221 L346.6937 89.0281 L347.1281 88.8344 L347.5626 88.641 L347.997 88.448 L348.4314 88.2552 L348.8659 88.0627 L349.3003 87.8704 L349.7347 87.6785 L350.1692 87.4869 L350.6036 87.2956 L351.0381 87.1046 L351.4725 86.9138 L351.9069 86.7234 L352.3413 86.5332 L352.7758 86.3434 L353.2102 86.1538 L353.6446 85.9645 L354.0791 85.7755 L354.5135 85.5868 L354.9479 85.3983 L355.3824 85.2102 L355.8168 85.0224 L356.2513 84.8348 L356.6857 84.6475 L357.1201 84.4605 L357.5546 84.2738 L357.989 84.0874 L358.4234 83.9013 L358.8578 83.7154 L359.2923 83.5298 L359.7267 83.3445 L360.1612 83.1595 L360.5956 82.9748 L361.03 82.7903 L361.4645 82.6062 L361.8989 82.4223 L362.3333 82.2387 L362.7678 82.0553 L363.2022 81.8723 L363.6366 81.6895 L364.0711 81.507 L364.5055 81.3247 L364.9399 81.1428 L365.3744 80.9611 L365.8088 80.7797 L366.2432 80.5986 L366.6777 80.4177 L367.1121 80.2371 L367.5465 80.0568 L367.981 79.8768 L368.4154 79.697 L368.8499 79.5175 L369.2843 79.3383 L369.7187 79.1593 L370.1532 78.9807 L370.5876 78.8022 L371.022 78.6241 L371.4565 78.4462 L371.8909 78.2686 L372.3253 78.0912 L372.7598 77.9142 L373.1942 77.7374 L373.6286 77.5608 L374.063 77.3845 L374.4975 77.2085 L374.9319 77.0328 L375.3664 76.8573 L375.8008 76.6821 L376.2352 76.5071 L376.6697 76.3324 L377.1041 76.158 L377.5385 75.9838 L377.973 75.8098 L378.4074 75.6362 L378.8418 75.4628 L379.2763 75.2897 L379.7107 75.1168 L380.1451 74.9442 L380.5796 74.7718 L381.014 74.5997 L381.4485 74.4279 L381.8829 74.2563 L382.3173 74.0849 L382.7518 73.9139 L383.1862 73.743 L383.6206 73.5725 L384.0551 73.4022 L384.4895 73.2321 L384.9239 73.0623 L385.3583 72.8928 L385.7928 72.7235 L386.2272 72.5544 L386.6617 72.3856 L387.0961 72.2171 L387.5305 72.0488 L387.965 71.8808 L388.3994 71.713 L388.8338 71.5454 L389.2683 71.3782 L389.7027 71.2111 L390.1371 71.0443 L390.5716 70.8778 L391.006 70.7115 L391.4404 70.5454 L391.8749 70.3796 L392.3093 70.2141 L392.7437 70.0488 L393.1782 69.8837 L393.6126 69.7189 L394.0471 69.5543 L394.4815 69.39 L394.9159 69.2259 L395.3504 69.0621 L395.7848 68.8985 L396.2192 68.7351 L396.6537 68.572 L397.0881 68.4092 L397.5225 68.2465 L397.9569 68.0841 L398.3914 67.922 L398.8258 67.7601 L399.2603 67.5984 L399.6947 67.437 L400.1291 67.2758 L400.5636 67.1149 L400.998 66.9542 L401.4324 66.7937 L401.8669 66.6335 L402.3013 66.4735 L402.7357 66.3137 L403.1702 66.1542 L403.6046 65.9949 L404.039 65.8358 L404.4735 65.677 L404.9079 65.5184 L405.3423 65.3601 L405.7768 65.202 L406.2112 65.0441 L406.6457 64.8865 L407.0801 64.729 L407.5145 64.5719 L407.9489 64.4149 L408.3834 64.2582 L408.8178 64.1017 L409.2523 63.9455 L409.6867 63.7894 L410.1211 63.6336 L410.5555 63.4781 L410.99 63.3227 L411.4244 63.1677 L411.8589 63.0128 L412.2933 62.8581 L412.7277 62.7037 L413.1622 62.5495 L413.5966 62.3955 L414.031 62.2418 L414.4655 62.0883 L414.8999 61.935 L415.3344 61.782 L415.7688 61.6291 L416.2032 61.4765 L416.6376 61.3242 L417.0721 61.172 L417.5065 61.0201 L417.9409 60.8683 L418.3754 60.7169 L418.8098 60.5656 L419.2442 60.4146 L419.6787 60.2637 L420.1131 60.1132 L420.5475 59.9628 L420.982 59.8126 L421.4164 59.6627 L421.8509 59.513 L422.2853 59.3635 L422.7197 59.2142 L423.1541 59.0652 L423.5886 58.9163 L424.023 58.7677 L424.4575 58.6193 L424.8919 58.4712 L425.3263 58.3232 L425.7607 58.1755 L426.1952 58.0279 L426.6296 57.8806 L427.0641 57.7335 L427.4985 57.5867 L427.933 57.44 L428.3674 57.2936 L428.8018 57.1473 L429.2362 57.0013 L429.6707 56.8555 L430.1051 56.71 L430.5395 56.5646 L430.974 56.4194 L431.4084 56.2745 L431.8428 56.1298 L432.2773 55.9852 L432.7117 55.8409 L433.1461 55.6968 L433.5806 55.553 L434.015 55.4093 L434.4495 55.2658 L434.8839 55.1226 L435.3183 54.9796 L435.7527 54.8367 L436.1872 54.6941 L436.6216 54.5517 L437.0561 54.4095 L437.4905 54.2675 L437.9249 54.1257 L438.3593 53.9842 L438.7938 53.8428 L439.2282 53.7016 L439.6627 53.5607 L440.0971 53.42 L440.5315 53.2794 L440.966 53.1391 L441.4004 52.999 L441.8348 52.859 L442.2693 52.7193 L442.7037 52.5798 L443.1381 52.4405 L443.5726 52.3014 L444.007 52.1625 L444.4414 52.0238 L444.8759 51.8853 L445.3103 51.7471 L445.7448 51.609 L446.1792 51.4711 L446.6136 51.3334 L447.0481 51.196 L447.4825 51.0587 L447.9169 50.9216 L448.3514 50.7847 L448.7858 50.6481 L449.2202 50.5116 L449.6546 50.3753 L450.0891 50.2393 L450.5235 50.1034 L450.9579 49.9677 L451.3924 49.8323 L451.8268 49.697 L452.2613 49.5619 L452.6957 49.427 L453.1301 49.2924 L453.5645 49.1579 L453.999 49.0236 L454.4334 48.8895 L454.8679 48.7556 L455.3023 48.622 L455.7368 48.4885 L456.1712 48.3552 L456.6056 48.2221 L457.04 48.0892 L457.4745 47.9564 L457.9089 47.8239 L458.3434 47.6916 L458.7778 47.5595 L459.2122 47.4275 L459.6467 47.2958 L460.0811 47.1643 L460.5155 47.0329 L460.95 46.9017 L461.3844 46.7708 L461.8188 46.64 L462.2532 46.5094 L462.6877 46.379 L463.1221 46.2488 L463.5565 46.1188 L463.991 45.989 L464.4254 45.8594 L464.8599 45.7299 L465.2943 45.6007 L465.7287 45.4716 L466.1631 45.3428 L466.5976 45.2141 L467.032 45.0856 L467.4665 44.9573 L467.9009 44.8292 L468.3354 44.7012 L468.7698 44.5735 L469.2042 44.446 L469.6386 44.3186 L470.0731 44.1914 L470.5075 44.0644 L470.9419 43.9377 L471.3764 43.811 L471.8108 43.6846 L472.2453 43.5584 L472.6797 43.4323 L473.1141 43.3064 L473.5486 43.1808 L473.983 43.0553 L474.4174 42.93 L474.8518 42.8048 L475.2863 42.6799 L475.7207 42.5551 L476.1552 42.4305 L476.5896 42.3061 L477.024 42.1819 L477.4585 42.0579 L477.8929 41.9341 L478.3273 41.8104 L478.7617 41.6869 L479.1962 41.5636 L479.6306 41.4405 L480.0651 41.3176 L480.4995 41.1948 L480.934 41.0723 L481.3684 40.9499 L481.8028 40.8276 L482.2372 40.7056 L482.6717 40.5838 L483.1061 40.4621 L483.5405 40.3406 L483.975 40.2193 L484.4094 40.0981 L484.8438 39.9772 L485.2783 39.8564 L485.7127 39.7358 L486.1471 39.6154 L486.5816 39.4951 L487.016 39.3751 L487.4504 39.2552 L487.8849 39.1355 L488.3193 39.0159 L488.7538 38.8966 L489.1882 38.7774 L489.6226 38.6584 L490.0571 38.5395 L490.4915 38.4209 L490.9259 38.3024 L491.3604 38.1841 L491.7948 38.066 L492.2292 37.948 L492.6637 37.8302 L493.0981 37.7126 L493.5326 37.5952 L493.967 37.4779 L494.4014 37.3608 L494.8358 37.2439 L495.2703 37.1272 L495.7047 37.0106 L496.1391 36.8942 L496.5736 36.778 L497.008 36.6619 L497.4424 36.5461 L497.8769 36.4303 L498.3113 36.3148 L498.7457 36.1994 L499.1802 36.0843 L499.6146 35.9692 L500.049 35.8544 L500.4835 35.7397 L500.9179 35.6252 L501.3524 35.5109 L501.7868 35.3967 L502.2212 35.2827 L502.6557 35.1688 L503.0901 35.0552 L503.5245 34.9417 L503.959 34.8284 L504.3934 34.7152 L504.8279 34.6022 L505.2623 34.4894 L505.6967 34.3767 L506.1312 34.2642 L506.5656 34.1519 L507 34.0398" style="fill:none; fill-rule:evenodd;"
    /></g
  ></g
></svg
>
