<?xml version="1.0"?>
<!DOCTYPE svg PUBLIC '-//W3C//DTD SVG 1.0//EN'
          'http://www.w3.org/TR/2001/REC-SVG-20010904/DTD/svg10.dtd'>
<svg xmlns:xlink="http://www.w3.org/1999/xlink" style="fill-opacity:1; color-rendering:auto; color-interpolation:auto; text-rendering:auto; stroke:black; stroke-linecap:square; stroke-miterlimit:10; shape-rendering:auto; stroke-opacity:1; fill:black; stroke-dasharray:none; font-weight:normal; stroke-width:1; font-family:'Dialog'; font-style:normal; stroke-linejoin:miter; font-size:12px; stroke-dashoffset:0; image-rendering:auto;" width="560" height="420" xmlns="http://www.w3.org/2000/svg"
><!--Generated by the Batik Graphics2D SVG Generator--><defs id="genericDefs"
  /><g
  ><defs id="defs1"
    ><clipPath clipPathUnits="userSpaceOnUse" id="clipPath1"
      ><path d="M0 0 L560 0 L560 420 L0 420 L0 0 Z"
      /></clipPath
      ><font horiz-adv-x="75.0" id="font1"
      ><font-face ascent="100.53711" descent="21.972656" units-per-em="100" style="font-style:normal; font-family:SansSerif; font-weight:normal;"
        /><missing-glyph horiz-adv-x="75.0" d="M12.5 0 L12.5 62.5 L62.5 62.5 L62.5 0 L12.5 0 ZM14.0625 1.5625 L60.9375 1.5625 L60.9375 60.9375 L14.0625 60.9375 L14.0625 1.5625 Z"
        /><glyph unicode="0" horiz-adv-x="55.615234" d="M4.1562 35.2969 Q4.1562 48 6.7656 55.7422 Q9.375 63.4844 14.5234 67.6797 Q19.6719 71.875 27.4844 71.875 Q33.25 71.875 37.5938 69.5547 Q41.9375 67.2344 44.7734 62.8672 Q47.6094 58.5 49.2188 52.2266 Q50.8281 45.9531 50.8281 35.2969 Q50.8281 22.7031 48.2422 14.9688 Q45.6562 7.2344 40.5078 3.0078 Q35.3594 -1.2188 27.4844 -1.2188 Q17.1406 -1.2188 11.2344 6.2031 Q4.1562 15.1406 4.1562 35.2969 ZM13.1875 35.2969 Q13.1875 17.6719 17.3125 11.8359 Q21.4375 6 27.4844 6 Q33.5469 6 37.6719 11.8594 Q41.7969 17.7188 41.7969 35.2969 Q41.7969 52.9844 37.6719 58.7891 Q33.5469 64.5938 27.3906 64.5938 Q21.3438 64.5938 17.7188 59.4688 Q13.1875 52.9375 13.1875 35.2969 Z"
        /><glyph unicode="5" horiz-adv-x="55.615234" d="M4.1562 18.75 L13.375 19.5312 Q14.4062 12.7969 18.1406 9.3984 Q21.875 6 27.1562 6 Q33.5 6 37.8906 10.7891 Q42.2812 15.5781 42.2812 23.4844 Q42.2812 31 38.0625 35.3516 Q33.8438 39.7031 27 39.7031 Q22.75 39.7031 19.3359 37.7734 Q15.9219 35.8438 13.9688 32.7656 L5.7188 33.8438 L12.6406 70.6094 L48.25 70.6094 L48.25 62.2031 L19.6719 62.2031 L15.8281 42.9688 Q22.2656 47.4688 29.3438 47.4688 Q38.7188 47.4688 45.1641 40.9688 Q51.6094 34.4688 51.6094 24.2656 Q51.6094 14.5469 45.9531 7.4688 Q39.0625 -1.2188 27.1562 -1.2188 Q17.3906 -1.2188 11.2109 4.25 Q5.0312 9.7188 4.1562 18.75 Z"
        /><glyph unicode="1" horiz-adv-x="55.615234" d="M37.25 0 L28.4688 0 L28.4688 56 Q25.2969 52.9844 20.1406 49.9531 Q14.9844 46.9219 10.8906 45.4062 L10.8906 53.9062 Q18.2656 57.375 23.7812 62.3047 Q29.2969 67.2344 31.5938 71.875 L37.25 71.875 L37.25 0 Z"
        /><glyph unicode="2" horiz-adv-x="55.615234" d="M50.3438 8.4531 L50.3438 0 L3.0312 0 Q2.9375 3.1719 4.0469 6.1094 Q5.8594 10.9375 9.8359 15.625 Q13.8125 20.3125 21.3438 26.4688 Q33.0156 36.0312 37.1172 41.625 Q41.2188 47.2188 41.2188 52.2031 Q41.2188 57.4219 37.4766 61.0078 Q33.7344 64.5938 27.7344 64.5938 Q21.3906 64.5938 17.5781 60.7891 Q13.7656 56.9844 13.7188 50.25 L4.6875 51.1719 Q5.6094 61.2812 11.6641 66.5781 Q17.7188 71.875 27.9375 71.875 Q38.2344 71.875 44.2422 66.1641 Q50.25 60.4531 50.25 52 Q50.25 47.7031 48.4922 43.5547 Q46.7344 39.4062 42.6562 34.8125 Q38.5781 30.2188 29.1094 22.2188 Q21.1875 15.5781 18.9453 13.2109 Q16.7031 10.8438 15.2344 8.4531 L50.3438 8.4531 Z"
        /><glyph unicode="3" horiz-adv-x="55.615234" d="M4.2031 18.8906 L12.9844 20.0625 Q14.5 12.5938 18.1406 9.2969 Q21.7812 6 27 6 Q33.2031 6 37.4766 10.2969 Q41.75 14.5938 41.75 20.9531 Q41.75 27 37.7969 30.9297 Q33.8438 34.8594 27.7344 34.8594 Q25.25 34.8594 21.5312 33.8906 L22.5156 41.6094 Q23.3906 41.5 23.9219 41.5 Q29.5469 41.5 34.0391 44.4297 Q38.5312 47.3594 38.5312 53.4688 Q38.5312 58.2969 35.2578 61.4766 Q31.9844 64.6562 26.8125 64.6562 Q21.6875 64.6562 18.2656 61.4297 Q14.8438 58.2031 13.875 51.7656 L5.0781 53.3281 Q6.6875 62.1562 12.3984 67.0156 Q18.1094 71.875 26.6094 71.875 Q32.4688 71.875 37.3984 69.3594 Q42.3281 66.8438 44.9453 62.5 Q47.5625 58.1562 47.5625 53.2656 Q47.5625 48.6406 45.0703 44.8281 Q42.5781 41.0156 37.7031 38.7656 Q44.0469 37.3125 47.5625 32.6953 Q51.0781 28.0781 51.0781 21.1406 Q51.0781 11.7656 44.2422 5.25 Q37.4062 -1.2656 26.9531 -1.2656 Q17.5312 -1.2656 11.3047 4.3516 Q5.0781 9.9688 4.2031 18.8906 Z"
        /><glyph unicode="]" horiz-adv-x="27.783203" d="M21.2969 -19.875 L1.9062 -19.875 L1.9062 -12.5938 L12.5 -12.5938 L12.5 64.3125 L1.9062 64.3125 L1.9062 71.5781 L21.2969 71.5781 L21.2969 -19.875 Z"
        /><glyph unicode="K" horiz-adv-x="66.69922" d="M7.3281 0 L7.3281 71.5781 L16.7969 71.5781 L16.7969 36.0781 L52.3438 71.5781 L65.1875 71.5781 L35.1562 42.5781 L66.5 0 L54 0 L28.5156 36.2344 L16.7969 24.8125 L16.7969 0 L7.3281 0 Z"
        /><glyph unicode="[" horiz-adv-x="27.783203" d="M6.7812 -19.875 L6.7812 71.5781 L26.1719 71.5781 L26.1719 64.3125 L15.5781 64.3125 L15.5781 -12.5938 L26.1719 -12.5938 L26.1719 -19.875 L6.7812 -19.875 Z"
        /><glyph unicode=" " horiz-adv-x="27.783203" d=""
        /><glyph unicode="T" horiz-adv-x="61.083984" d="M25.9219 0 L25.9219 63.1406 L2.3438 63.1406 L2.3438 71.5781 L59.0781 71.5781 L59.0781 63.1406 L35.4062 63.1406 L35.4062 0 L25.9219 0 Z"
        /><glyph unicode="-" horiz-adv-x="33.30078" d="M3.1719 21.4844 L3.1719 30.3281 L30.1719 30.3281 L30.1719 21.4844 L3.1719 21.4844 Z"
        /><glyph unicode="4" horiz-adv-x="55.615234" d="M32.3281 0 L32.3281 17.1406 L1.2656 17.1406 L1.2656 25.2031 L33.9375 71.5781 L41.1094 71.5781 L41.1094 25.2031 L50.7812 25.2031 L50.7812 17.1406 L41.1094 17.1406 L41.1094 0 L32.3281 0 ZM32.3281 25.2031 L32.3281 57.4688 L9.9062 25.2031 L32.3281 25.2031 Z"
        /><glyph unicode="6" horiz-adv-x="55.615234" d="M49.75 54.0469 L41.0156 53.375 Q39.8438 58.5469 37.7031 60.8906 Q34.125 64.6562 28.9062 64.6562 Q24.7031 64.6562 21.5312 62.3125 Q17.3906 59.2812 14.9922 53.4688 Q12.5938 47.6562 12.5 36.9219 Q15.6719 41.75 20.2656 44.0938 Q24.8594 46.4375 29.8906 46.4375 Q38.6719 46.4375 44.8516 39.9688 Q51.0312 33.5 51.0312 23.25 Q51.0312 16.5 48.125 10.7188 Q45.2188 4.9375 40.1406 1.8594 Q35.0625 -1.2188 28.6094 -1.2188 Q17.625 -1.2188 10.6953 6.8594 Q3.7656 14.9375 3.7656 33.5 Q3.7656 54.25 11.4219 63.6719 Q18.1094 71.875 29.4375 71.875 Q37.8906 71.875 43.2891 67.1406 Q48.6875 62.4062 49.75 54.0469 ZM13.875 23.1875 Q13.875 18.6562 15.7969 14.5078 Q17.7188 10.3594 21.1875 8.1797 Q24.6562 6 28.4688 6 Q34.0312 6 38.0391 10.4922 Q42.0469 14.9844 42.0469 22.7031 Q42.0469 30.125 38.0859 34.3984 Q34.125 38.6719 28.125 38.6719 Q22.1719 38.6719 18.0234 34.3984 Q13.875 30.125 13.875 23.1875 Z"
        /><glyph unicode="8" horiz-adv-x="55.615234" d="M17.6719 38.8125 Q12.2031 40.8281 9.5703 44.5391 Q6.9375 48.25 6.9375 53.4219 Q6.9375 61.2344 12.5547 66.5547 Q18.1719 71.875 27.4844 71.875 Q36.8594 71.875 42.5781 66.4297 Q48.2969 60.9844 48.2969 53.1719 Q48.2969 48.1875 45.6797 44.5078 Q43.0625 40.8281 37.75 38.8125 Q44.3438 36.6719 47.7812 31.8828 Q51.2188 27.0938 51.2188 20.4531 Q51.2188 11.2812 44.7266 5.0312 Q38.2344 -1.2188 27.6406 -1.2188 Q17.0469 -1.2188 10.5469 5.0547 Q4.0469 11.3281 4.0469 20.7031 Q4.0469 27.6875 7.5938 32.3984 Q11.1406 37.1094 17.6719 38.8125 ZM15.9219 53.7188 Q15.9219 48.6406 19.1953 45.4141 Q22.4688 42.1875 27.6875 42.1875 Q32.7656 42.1875 36.0156 45.3828 Q39.2656 48.5781 39.2656 53.2188 Q39.2656 58.0625 35.9141 61.3594 Q32.5625 64.6562 27.5938 64.6562 Q22.5625 64.6562 19.2422 61.4297 Q15.9219 58.2031 15.9219 53.7188 ZM13.0938 20.6562 Q13.0938 16.8906 14.875 13.375 Q16.6562 9.8594 20.1719 7.9297 Q23.6875 6 27.7344 6 Q34.0312 6 38.1328 10.0547 Q42.2344 14.1094 42.2344 20.3594 Q42.2344 26.7031 38.0156 30.8594 Q33.7969 35.0156 27.4375 35.0156 Q21.2344 35.0156 17.1641 30.9141 Q13.0938 26.8125 13.0938 20.6562 Z"
        /><glyph unicode=")" horiz-adv-x="33.30078" d="M12.3594 -21.0469 L6.0625 -21.0469 Q20.6562 2.3906 20.6562 25.875 Q20.6562 35.0625 18.5625 44.0938 Q16.8906 51.4219 13.9219 58.1562 Q12.0156 62.5469 6.0625 72.7969 L12.3594 72.7969 Q21.5312 60.5469 25.9219 48.1875 Q29.6875 37.5469 29.6875 25.9219 Q29.6875 12.75 24.6328 0.4453 Q19.5781 -11.8594 12.3594 -21.0469 Z"
        /><glyph unicode="m" horiz-adv-x="83.30078" d="M6.5938 0 L6.5938 51.8594 L14.4531 51.8594 L14.4531 44.5781 Q16.8906 48.3906 20.9453 50.7109 Q25 53.0312 30.1719 53.0312 Q35.9375 53.0312 39.625 50.6406 Q43.3125 48.25 44.8281 43.9531 Q50.9844 53.0312 60.8438 53.0312 Q68.5625 53.0312 72.7109 48.7578 Q76.8594 44.4844 76.8594 35.5938 L76.8594 0 L68.1094 0 L68.1094 32.6719 Q68.1094 37.9375 67.2578 40.2578 Q66.4062 42.5781 64.1641 43.9922 Q61.9219 45.4062 58.8906 45.4062 Q53.4219 45.4062 49.8047 41.7734 Q46.1875 38.1406 46.1875 30.125 L46.1875 0 L37.4062 0 L37.4062 33.6875 Q37.4062 39.5469 35.2578 42.4766 Q33.1094 45.4062 28.2188 45.4062 Q24.5156 45.4062 21.3672 43.4531 Q18.2188 41.5 16.7969 37.7422 Q15.375 33.9844 15.375 26.9062 L15.375 0 L6.5938 0 Z"
        /><glyph unicode="*" horiz-adv-x="38.916016" d="M3.125 58.4531 L5.375 65.375 Q13.1406 62.6406 16.6562 60.6406 Q15.7188 69.4844 15.6719 72.7969 L22.75 72.7969 Q22.6094 67.9688 21.625 60.6875 Q26.6562 63.2344 33.1562 65.375 L35.4062 58.4531 Q29.2031 56.3906 23.25 55.7188 Q26.2188 53.125 31.6406 46.4844 L25.7812 42.3281 Q22.9531 46.1875 19.0938 52.8281 Q15.4844 45.9531 12.75 42.3281 L6.9844 46.4844 Q12.6406 53.4688 15.0938 55.7188 Q8.7969 56.9375 3.125 58.4531 Z"
        /><glyph unicode="(" horiz-adv-x="33.30078" d="M23.3906 -21.0469 Q16.1094 -11.8594 11.0859 0.4453 Q6.0625 12.75 6.0625 25.9219 Q6.0625 37.5469 9.8125 48.1875 Q14.2031 60.5469 23.3906 72.7969 L29.6875 72.7969 Q23.7812 62.6406 21.875 58.2969 Q18.8906 51.5625 17.1875 44.2344 Q15.0938 35.1094 15.0938 25.875 Q15.0938 2.3906 29.6875 -21.0469 L23.3906 -21.0469 Z"
        /><glyph unicode="/" horiz-adv-x="27.783203" d="M0 -1.2188 L20.75 72.7969 L27.7812 72.7969 L7.0781 -1.2188 L0 -1.2188 Z"
        /><glyph unicode="W" horiz-adv-x="94.384766" d="M20.2188 0 L1.2188 71.5781 L10.9375 71.5781 L21.8281 24.6562 Q23.5781 17.2812 24.8594 10.0156 Q27.5938 21.4844 28.0781 23.25 L41.7031 71.5781 L53.125 71.5781 L63.375 35.3594 Q67.2344 21.875 68.9531 10.0156 Q70.3125 16.7969 72.5156 25.5938 L83.7344 71.5781 L93.2656 71.5781 L73.6406 0 L64.5 0 L49.4219 54.5469 Q47.5156 61.375 47.1719 62.9375 Q46.0469 58.0156 45.0625 54.5469 L29.8906 0 L20.2188 0 Z"
        /><glyph unicode="k" horiz-adv-x="50.0" d="M6.6406 0 L6.6406 71.5781 L15.4375 71.5781 L15.4375 30.7656 L36.2344 51.8594 L47.6094 51.8594 L27.7812 32.625 L49.6094 0 L38.7656 0 L21.625 26.5156 L15.4375 20.5625 L15.4375 0 L6.6406 0 Z"
      /></font
      ><font horiz-adv-x="75.0" id="font2"
      ><font-face ascent="100.53711" descent="21.972656" units-per-em="100" style="font-style:normal; font-family:SansSerif; font-weight:bold;"
        /><missing-glyph horiz-adv-x="75.0" d="M12.5 0 L12.5 62.5 L62.5 62.5 L62.5 0 L12.5 0 ZM14.0625 1.5625 L60.9375 1.5625 L60.9375 60.9375 L14.0625 60.9375 L14.0625 1.5625 Z"
        /><glyph unicode="s" horiz-adv-x="55.615234" d="M2.3438 14.7969 L16.1094 16.8906 Q17 12.8906 19.6797 10.8125 Q22.3594 8.7344 27.2031 8.7344 Q32.5156 8.7344 35.2031 10.6875 Q37.0156 12.0625 37.0156 14.3594 Q37.0156 15.9219 36.0312 16.9375 Q35.0156 17.9219 31.4531 18.75 Q14.8438 22.4062 10.4062 25.4375 Q4.25 29.6406 4.25 37.1094 Q4.25 43.8438 9.5703 48.4375 Q14.8906 53.0312 26.0781 53.0312 Q36.7188 53.0312 41.8984 49.5625 Q47.0781 46.0938 49.0312 39.3125 L36.0781 36.9219 Q35.25 39.9375 32.9297 41.5547 Q30.6094 43.1719 26.3125 43.1719 Q20.9062 43.1719 18.5625 41.6562 Q17 40.5781 17 38.875 Q17 37.4062 18.3594 36.375 Q20.2188 35.0156 31.1797 32.5234 Q42.1406 30.0312 46.4844 26.4219 Q50.7812 22.75 50.7812 16.2188 Q50.7812 9.0781 44.8281 3.9531 Q38.875 -1.1719 27.2031 -1.1719 Q16.6094 -1.1719 10.4297 3.125 Q4.25 7.4219 2.3438 14.7969 Z"
        /><glyph unicode="H" horiz-adv-x="72.2168" d="M7.3281 0 L7.3281 71.5781 L21.7812 71.5781 L21.7812 43.4062 L50.0938 43.4062 L50.0938 71.5781 L64.5469 71.5781 L64.5469 0 L50.0938 0 L50.0938 31.2969 L21.7812 31.2969 L21.7812 0 L7.3281 0 Z"
        /><glyph unicode="k" horiz-adv-x="55.615234" d="M6.6875 0 L6.6875 71.5781 L20.4062 71.5781 L20.4062 33.5938 L36.4688 51.8594 L53.375 51.8594 L35.6406 32.9062 L54.6406 0 L39.8438 0 L26.8125 23.2969 L20.4062 16.6094 L20.4062 0 L6.6875 0 Z"
        /><glyph unicode="f" horiz-adv-x="33.30078" d="M1.1719 51.8594 L8.7969 51.8594 L8.7969 55.7656 Q8.7969 62.3125 10.1875 65.5312 Q11.5781 68.75 15.3125 70.7734 Q19.0469 72.7969 24.75 72.7969 Q30.6094 72.7969 36.2344 71.0469 L34.375 61.4688 Q31.1094 62.25 28.0781 62.25 Q25.0938 62.25 23.8047 60.8594 Q22.5156 59.4688 22.5156 55.5156 L22.5156 51.8594 L32.7656 51.8594 L32.7656 41.0625 L22.5156 41.0625 L22.5156 0 L8.7969 0 L8.7969 41.0625 L1.1719 41.0625 L1.1719 51.8594 Z"
        /><glyph unicode="o" horiz-adv-x="61.083984" d="M4 26.6562 Q4 33.5 7.375 39.8984 Q10.75 46.2969 16.9219 49.6641 Q23.0938 53.0312 30.7188 53.0312 Q42.4844 53.0312 50 45.3906 Q57.5156 37.75 57.5156 26.0781 Q57.5156 14.3125 49.9219 6.5703 Q42.3281 -1.1719 30.8125 -1.1719 Q23.6875 -1.1719 17.2188 2.0547 Q10.75 5.2812 7.375 11.5 Q4 17.7188 4 26.6562 ZM18.0625 25.9219 Q18.0625 18.2188 21.7266 14.1172 Q25.3906 10.0156 30.7656 10.0156 Q36.1406 10.0156 39.7734 14.1172 Q43.4062 18.2188 43.4062 26.0312 Q43.4062 33.6406 39.7734 37.7422 Q36.1406 41.8438 30.7656 41.8438 Q25.3906 41.8438 21.7266 37.7422 Q18.0625 33.6406 18.0625 25.9219 Z"
        /><glyph unicode="l" horiz-adv-x="27.783203" d="M7.1719 0 L7.1719 71.5781 L20.9062 71.5781 L20.9062 0 L7.1719 0 Z"
        /><glyph unicode="p" horiz-adv-x="61.083984" d="M6.7812 51.8594 L19.5781 51.8594 L19.5781 44.2344 Q22.0781 48.1406 26.3203 50.5859 Q30.5625 53.0312 35.75 53.0312 Q44.7812 53.0312 51.0781 45.9531 Q57.375 38.875 57.375 26.2188 Q57.375 13.2344 51.0234 6.0312 Q44.6719 -1.1719 35.6406 -1.1719 Q31.3438 -1.1719 27.8516 0.5391 Q24.3594 2.25 20.5156 6.3906 L20.5156 -19.7344 L6.7812 -19.7344 L6.7812 51.8594 ZM20.3594 26.8125 Q20.3594 18.0625 23.8281 13.8906 Q27.2969 9.7188 32.2812 9.7188 Q37.0625 9.7188 40.2344 13.5547 Q43.4062 17.3906 43.4062 26.125 Q43.4062 34.2812 40.1328 38.2344 Q36.8594 42.1875 32.0312 42.1875 Q27 42.1875 23.6797 38.3047 Q20.3594 34.4219 20.3594 26.8125 Z"
        /><glyph unicode=" " horiz-adv-x="27.783203" d=""
        /><glyph unicode="b" horiz-adv-x="61.083984" d="M6.5938 0 L6.5938 71.5781 L20.3125 71.5781 L20.3125 45.7969 Q26.6562 53.0312 35.3594 53.0312 Q44.8281 53.0312 51.0312 46.1719 Q57.2344 39.3125 57.2344 26.4688 Q57.2344 13.1875 50.9062 6.0078 Q44.5781 -1.1719 35.5469 -1.1719 Q31.1094 -1.1719 26.7891 1.0469 Q22.4688 3.2656 19.3438 7.625 L19.3438 0 L6.5938 0 ZM20.2188 27.0469 Q20.2188 19 22.75 15.1406 Q26.3125 9.6719 32.2344 9.6719 Q36.7656 9.6719 39.9688 13.5547 Q43.1719 17.4375 43.1719 25.7812 Q43.1719 34.6719 39.9453 38.6016 Q36.7188 42.5312 31.6875 42.5312 Q26.7656 42.5312 23.4922 38.6953 Q20.2188 34.8594 20.2188 27.0469 Z"
        /><glyph unicode="L" horiz-adv-x="61.083984" d="M7.6719 0 L7.6719 71 L22.125 71 L22.125 12.0625 L58.0625 12.0625 L58.0625 0 L7.6719 0 Z"
        /><glyph unicode="t" horiz-adv-x="33.30078" d="M30.9531 51.8594 L30.9531 40.9219 L21.5781 40.9219 L21.5781 20.0156 Q21.5781 13.6719 21.8516 12.625 Q22.125 11.5781 23.0781 10.8906 Q24.0312 10.2031 25.3906 10.2031 Q27.2969 10.2031 30.9062 11.5312 L32.0781 0.875 Q27.2969 -1.1719 21.2344 -1.1719 Q17.5312 -1.1719 14.5547 0.0703 Q11.5781 1.3125 10.1875 3.2969 Q8.7969 5.2812 8.25 8.6406 Q7.8125 11.0312 7.8125 18.3125 L7.8125 40.9219 L1.5156 40.9219 L1.5156 51.8594 L7.8125 51.8594 L7.8125 62.1562 L21.5781 70.1719 L21.5781 51.8594 L30.9531 51.8594 Z"
        /><glyph unicode="a" horiz-adv-x="55.615234" d="M17.4375 36.0312 L4.9844 38.2812 Q7.0781 45.7969 12.2031 49.4141 Q17.3281 53.0312 27.4375 53.0312 Q36.625 53.0312 41.1172 50.8594 Q45.6094 48.6875 47.4375 45.3438 Q49.2656 42 49.2656 33.0625 L49.125 17.0469 Q49.125 10.2031 49.7812 6.9609 Q50.4375 3.7188 52.25 0 L38.6719 0 Q38.1406 1.375 37.3594 4.0469 Q37.0156 5.2812 36.8594 5.6719 Q33.3438 2.25 29.3438 0.5391 Q25.3438 -1.1719 20.7969 -1.1719 Q12.7969 -1.1719 8.1797 3.1719 Q3.5625 7.5156 3.5625 14.1562 Q3.5625 18.5625 5.6641 22 Q7.7656 25.4375 11.5469 27.2734 Q15.3281 29.1094 22.4688 30.4688 Q32.0781 32.2812 35.7969 33.8438 L35.7969 35.2031 Q35.7969 39.1562 33.8438 40.8438 Q31.8906 42.5312 26.4688 42.5312 Q22.7969 42.5312 20.75 41.0938 Q18.7031 39.6562 17.4375 36.0312 ZM35.7969 24.9062 Q33.1562 24.0312 27.4453 22.8047 Q21.7344 21.5781 19.9688 20.4062 Q17.2812 18.5 17.2812 15.5781 Q17.2812 12.7031 19.4297 10.6016 Q21.5781 8.5 24.9062 8.5 Q28.6094 8.5 31.9844 10.9375 Q34.4688 12.7969 35.25 15.4844 Q35.7969 17.2344 35.7969 22.1719 L35.7969 24.9062 Z"
        /><glyph unicode="M" horiz-adv-x="83.30078" d="M7.0781 0 L7.0781 71.5781 L28.7188 71.5781 L41.7031 22.75 L54.5469 71.5781 L76.2188 71.5781 L76.2188 0 L62.7969 0 L62.7969 56.3438 L48.5781 0 L34.6719 0 L20.5156 56.3438 L20.5156 0 L7.0781 0 Z"
      /></font
    ></defs
    ><g style="fill:white; stroke:white;"
    ><rect x="0" y="0" width="560" style="clip-path:url(#clipPath1); stroke:none;" height="420"
    /></g
    ><g style="fill:white; text-rendering:optimizeSpeed; color-rendering:optimizeSpeed; image-rendering:optimizeSpeed; shape-rendering:crispEdges; stroke:white; color-interpolation:sRGB;"
    ><rect x="0" width="560" height="420" y="0" style="stroke:none;"
      /><path style="stroke:none;" d="M73 374 L507 374 L507 31 L73 31 Z"
    /></g
    ><g style="fill:rgb(38,38,38); text-rendering:geometricPrecision; image-rendering:optimizeQuality; color-rendering:optimizeQuality; stroke-linejoin:round; stroke:rgb(38,38,38); color-interpolation:linearRGB; stroke-width:0.6667;"
    ><line y2="374" style="fill:none;" x1="73" x2="507" y1="374"
      /><line y2="31" style="fill:none;" x1="73" x2="507" y1="31"
      /><line y2="369.66" style="fill:none;" x1="73" x2="73" y1="374"
      /><line y2="369.66" style="fill:none;" x1="145.3333" x2="145.3333" y1="374"
      /><line y2="369.66" style="fill:none;" x1="217.6667" x2="217.6667" y1="374"
      /><line y2="369.66" style="fill:none;" x1="290" x2="290" y1="374"
      /><line y2="369.66" style="fill:none;" x1="362.3333" x2="362.3333" y1="374"
      /><line y2="369.66" style="fill:none;" x1="434.6667" x2="434.6667" y1="374"
      /><line y2="369.66" style="fill:none;" x1="507" x2="507" y1="374"
      /><line y2="35.34" style="fill:none;" x1="73" x2="73" y1="31"
      /><line y2="35.34" style="fill:none;" x1="145.3333" x2="145.3333" y1="31"
      /><line y2="35.34" style="fill:none;" x1="217.6667" x2="217.6667" y1="31"
      /><line y2="35.34" style="fill:none;" x1="290" x2="290" y1="31"
      /><line y2="35.34" style="fill:none;" x1="362.3333" x2="362.3333" y1="31"
      /><line y2="35.34" style="fill:none;" x1="434.6667" x2="434.6667" y1="31"
      /><line y2="35.34" style="fill:none;" x1="507" x2="507" y1="31"
    /></g
    ><g transform="translate(73,379.3333)" style="font-size:13.3333px; fill:rgb(38,38,38); text-rendering:geometricPrecision; image-rendering:optimizeQuality; color-rendering:optimizeQuality; font-family:'SansSerif'; stroke:rgb(38,38,38); color-interpolation:linearRGB;"
    ><text x="-4" xml:space="preserve" y="14" style="stroke:none;"
      >0</text
    ></g
    ><g transform="translate(145.3333,379.3333)" style="font-size:13.3333px; fill:rgb(38,38,38); text-rendering:geometricPrecision; image-rendering:optimizeQuality; color-rendering:optimizeQuality; font-family:'SansSerif'; stroke:rgb(38,38,38); color-interpolation:linearRGB;"
    ><text x="-7.5" xml:space="preserve" y="14" style="stroke:none;"
      >50</text
    ></g
    ><g transform="translate(217.6667,379.3333)" style="font-size:13.3333px; fill:rgb(38,38,38); text-rendering:geometricPrecision; image-rendering:optimizeQuality; color-rendering:optimizeQuality; font-family:'SansSerif'; stroke:rgb(38,38,38); color-interpolation:linearRGB;"
    ><text x="-11.5" xml:space="preserve" y="14" style="stroke:none;"
      >100</text
    ></g
    ><g transform="translate(290,379.3333)" style="font-size:13.3333px; fill:rgb(38,38,38); text-rendering:geometricPrecision; image-rendering:optimizeQuality; color-rendering:optimizeQuality; font-family:'SansSerif'; stroke:rgb(38,38,38); color-interpolation:linearRGB;"
    ><text x="-11.5" xml:space="preserve" y="14" style="stroke:none;"
      >150</text
    ></g
    ><g transform="translate(362.3333,379.3333)" style="font-size:13.3333px; fill:rgb(38,38,38); text-rendering:geometricPrecision; image-rendering:optimizeQuality; color-rendering:optimizeQuality; font-family:'SansSerif'; stroke:rgb(38,38,38); color-interpolation:linearRGB;"
    ><text x="-11.5" xml:space="preserve" y="14" style="stroke:none;"
      >200</text
    ></g
    ><g transform="translate(434.6667,379.3333)" style="font-size:13.3333px; fill:rgb(38,38,38); text-rendering:geometricPrecision; image-rendering:optimizeQuality; color-rendering:optimizeQuality; font-family:'SansSerif'; stroke:rgb(38,38,38); color-interpolation:linearRGB;"
    ><text x="-11.5" xml:space="preserve" y="14" style="stroke:none;"
      >250</text
    ></g
    ><g transform="translate(507,379.3333)" style="font-size:13.3333px; fill:rgb(38,38,38); text-rendering:geometricPrecision; image-rendering:optimizeQuality; color-rendering:optimizeQuality; font-family:'SansSerif'; stroke:rgb(38,38,38); color-interpolation:linearRGB;"
    ><text x="-11.5" xml:space="preserve" y="14" style="stroke:none;"
      >300</text
    ></g
    ><g transform="translate(290.0002,397.6667)" style="font-size:14.6667px; fill:rgb(38,38,38); text-rendering:geometricPrecision; image-rendering:optimizeQuality; color-rendering:optimizeQuality; font-family:'SansSerif'; stroke:rgb(38,38,38); color-interpolation:linearRGB;"
    ><text x="-15.5" xml:space="preserve" y="15" style="stroke:none;"
      >T [K]</text
    ></g
    ><g style="fill:rgb(38,38,38); text-rendering:geometricPrecision; image-rendering:optimizeQuality; color-rendering:optimizeQuality; stroke-linejoin:round; stroke:rgb(38,38,38); color-interpolation:linearRGB; stroke-width:0.6667;"
    ><line y2="31" style="fill:none;" x1="73" x2="73" y1="374"
      /><line y2="31" style="fill:none;" x1="507" x2="507" y1="374"
      /><line y2="374" style="fill:none;" x1="73" x2="77.34" y1="374"
      /><line y2="331.125" style="fill:none;" x1="73" x2="77.34" y1="331.125"
      /><line y2="288.25" style="fill:none;" x1="73" x2="77.34" y1="288.25"
      /><line y2="245.375" style="fill:none;" x1="73" x2="77.34" y1="245.375"
      /><line y2="202.5" style="fill:none;" x1="73" x2="77.34" y1="202.5"
      /><line y2="159.625" style="fill:none;" x1="73" x2="77.34" y1="159.625"
      /><line y2="116.75" style="fill:none;" x1="73" x2="77.34" y1="116.75"
      /><line y2="73.875" style="fill:none;" x1="73" x2="77.34" y1="73.875"
      /><line y2="31" style="fill:none;" x1="73" x2="77.34" y1="31"
      /><line y2="374" style="fill:none;" x1="507" x2="502.66" y1="374"
      /><line y2="331.125" style="fill:none;" x1="507" x2="502.66" y1="331.125"
      /><line y2="288.25" style="fill:none;" x1="507" x2="502.66" y1="288.25"
      /><line y2="245.375" style="fill:none;" x1="507" x2="502.66" y1="245.375"
      /><line y2="202.5" style="fill:none;" x1="507" x2="502.66" y1="202.5"
      /><line y2="159.625" style="fill:none;" x1="507" x2="502.66" y1="159.625"
      /><line y2="116.75" style="fill:none;" x1="507" x2="502.66" y1="116.75"
      /><line y2="73.875" style="fill:none;" x1="507" x2="502.66" y1="73.875"
      /><line y2="31" style="fill:none;" x1="507" x2="502.66" y1="31"
    /></g
    ><g transform="translate(67.6667,374)" style="font-size:13.3333px; fill:rgb(38,38,38); text-rendering:geometricPrecision; image-rendering:optimizeQuality; color-rendering:optimizeQuality; font-family:'SansSerif'; stroke:rgb(38,38,38); color-interpolation:linearRGB;"
    ><text x="-12" xml:space="preserve" y="5.5" style="stroke:none;"
      >-2</text
    ></g
    ><g transform="translate(67.6667,331.125)" style="font-size:13.3333px; fill:rgb(38,38,38); text-rendering:geometricPrecision; image-rendering:optimizeQuality; color-rendering:optimizeQuality; font-family:'SansSerif'; stroke:rgb(38,38,38); color-interpolation:linearRGB;"
    ><text x="-8" xml:space="preserve" y="5.5" style="stroke:none;"
      >0</text
    ></g
    ><g transform="translate(67.6667,288.25)" style="font-size:13.3333px; fill:rgb(38,38,38); text-rendering:geometricPrecision; image-rendering:optimizeQuality; color-rendering:optimizeQuality; font-family:'SansSerif'; stroke:rgb(38,38,38); color-interpolation:linearRGB;"
    ><text x="-8" xml:space="preserve" y="5.5" style="stroke:none;"
      >2</text
    ></g
    ><g transform="translate(67.6667,245.375)" style="font-size:13.3333px; fill:rgb(38,38,38); text-rendering:geometricPrecision; image-rendering:optimizeQuality; color-rendering:optimizeQuality; font-family:'SansSerif'; stroke:rgb(38,38,38); color-interpolation:linearRGB;"
    ><text x="-8" xml:space="preserve" y="5.5" style="stroke:none;"
      >4</text
    ></g
    ><g transform="translate(67.6667,202.5)" style="font-size:13.3333px; fill:rgb(38,38,38); text-rendering:geometricPrecision; image-rendering:optimizeQuality; color-rendering:optimizeQuality; font-family:'SansSerif'; stroke:rgb(38,38,38); color-interpolation:linearRGB;"
    ><text x="-8" xml:space="preserve" y="5.5" style="stroke:none;"
      >6</text
    ></g
    ><g transform="translate(67.6667,159.625)" style="font-size:13.3333px; fill:rgb(38,38,38); text-rendering:geometricPrecision; image-rendering:optimizeQuality; color-rendering:optimizeQuality; font-family:'SansSerif'; stroke:rgb(38,38,38); color-interpolation:linearRGB;"
    ><text x="-8" xml:space="preserve" y="5.5" style="stroke:none;"
      >8</text
    ></g
    ><g transform="translate(67.6667,116.75)" style="font-size:13.3333px; fill:rgb(38,38,38); text-rendering:geometricPrecision; image-rendering:optimizeQuality; color-rendering:optimizeQuality; font-family:'SansSerif'; stroke:rgb(38,38,38); color-interpolation:linearRGB;"
    ><text x="-15" xml:space="preserve" y="5.5" style="stroke:none;"
      >10</text
    ></g
    ><g transform="translate(67.6667,73.875)" style="font-size:13.3333px; fill:rgb(38,38,38); text-rendering:geometricPrecision; image-rendering:optimizeQuality; color-rendering:optimizeQuality; font-family:'SansSerif'; stroke:rgb(38,38,38); color-interpolation:linearRGB;"
    ><text x="-15" xml:space="preserve" y="5.5" style="stroke:none;"
      >12</text
    ></g
    ><g transform="translate(67.6667,31)" style="font-size:13.3333px; fill:rgb(38,38,38); text-rendering:geometricPrecision; image-rendering:optimizeQuality; color-rendering:optimizeQuality; font-family:'SansSerif'; stroke:rgb(38,38,38); color-interpolation:linearRGB;"
    ><text x="-15" xml:space="preserve" y="5.5" style="stroke:none;"
      >14</text
    ></g
    ><g transform="translate(48.6667,202.4998) rotate(-90)" style="font-size:14.6667px; fill:rgb(38,38,38); text-rendering:geometricPrecision; image-rendering:optimizeQuality; color-rendering:optimizeQuality; font-family:'SansSerif'; stroke:rgb(38,38,38); color-interpolation:linearRGB;"
    ><text x="-35.5" xml:space="preserve" y="-4" style="stroke:none;"
      >k [W/(K*m)</text
    ></g
    ><g transform="translate(290.0003,28.25)" style="font-size:14.6667px; text-rendering:geometricPrecision; image-rendering:optimizeQuality; color-rendering:optimizeQuality; font-family:'SansSerif'; color-interpolation:linearRGB; font-weight:bold;"
    ><text x="-72.5" xml:space="preserve" y="-4" style="stroke:none;"
      >MatLab plot of kHast</text
    ></g
    ><g style="stroke-linecap:butt; fill:rgb(0,114,189); text-rendering:geometricPrecision; image-rendering:optimizeQuality; color-rendering:optimizeQuality; stroke-linejoin:round; stroke:rgb(0,114,189); color-interpolation:linearRGB; stroke-width:0.6667;"
    ><path d="M73 332.5935 L73.4344 330.8776 L73.8689 329.1617 L74.3033 327.4458 L74.7377 325.7299 L75.1722 324.0139 L75.6066 322.298 L76.041 320.5821 L76.4755 318.8662 L76.9099 317.1203 L77.3443 315.2313 L77.7788 313.2054 L78.2132 311.1086 L78.6476 308.9854 L79.0821 306.8667 L79.5165 304.7729 L79.951 302.7178 L80.3854 300.7097 L80.8198 298.7531 L81.2543 296.8503 L81.6887 295.0015 L82.1231 293.2056 L82.5576 291.4608 L82.992 289.7649 L83.4264 288.1154 L83.8609 286.5094 L84.2953 284.9445 L84.7297 283.418 L85.1642 281.9274 L85.5986 280.4703 L86.033 279.0446 L86.4675 277.6481 L86.9019 276.2791 L87.3363 274.9358 L87.7708 273.6166 L88.2052 272.32 L88.6396 271.0448 L89.0741 269.7898 L89.5085 268.5538 L89.9429 267.3359 L90.3774 266.1353 L90.8118 264.951 L91.2462 263.7823 L91.6807 262.6288 L92.1151 261.4895 L92.5496 260.3642 L92.984 259.2522 L93.4184 258.1531 L93.8529 257.0666 L94.2873 255.9922 L94.7217 254.9297 L95.1562 253.8787 L95.5906 252.8389 L96.025 251.8101 L96.4595 250.7921 L96.8939 249.7847 L97.3283 248.7876 L97.7628 247.8006 L98.1972 246.8237 L98.6316 245.8567 L99.0661 244.8995 L99.5005 243.9518 L99.9349 243.0136 L100.3694 242.0848 L100.8038 241.1652 L101.2382 240.2548 L101.6727 239.3535 L102.1071 238.4612 L102.5415 237.5777 L102.976 236.7031 L103.4104 235.8373 L103.8448 234.9801 L104.2793 234.1315 L104.7137 233.2914 L105.1481 232.4598 L105.5826 231.6366 L106.017 230.8217 L106.4515 230.0151 L106.8859 229.2167 L107.3203 228.4264 L107.7548 227.6442 L108.1892 226.87 L108.6236 226.1038 L109.0581 225.3455 L109.4925 224.595 L109.9269 223.8524 L110.3614 223.1174 L110.7958 222.3901 L111.2302 221.6704 L111.6647 220.9583 L112.0991 220.2536 L112.5335 219.5564 L112.968 218.8665 L113.4024 218.184 L113.8368 217.5087 L114.2713 216.8406 L114.7057 216.1796 L115.1401 215.5257 L115.5746 214.8788 L116.009 214.2389 L116.4434 213.6059 L116.8779 212.9796 L117.3123 212.3602 L117.7467 211.7474 L118.1812 211.1413 L118.6156 210.5418 L119.05 209.9489 L119.4845 209.3623 L119.9189 208.7822 L120.3533 208.2085 L120.7878 207.641 L121.2222 207.0797 L121.6567 206.5246 L122.0911 205.9755 L122.5255 205.4326 L122.96 204.8956 L123.3944 204.3645 L123.8288 203.8392 L124.2633 203.3198 L124.6977 202.806 L125.1321 202.298 L125.5666 201.7955 L126.001 201.2986 L126.4354 200.8072 L126.8699 200.3213 L127.3043 199.8407 L127.7387 199.3654 L128.1732 198.8953 L128.6076 198.4304 L129.042 197.9707 L129.4765 197.5161 L129.9109 197.0664 L130.3454 196.6217 L130.7798 196.182 L131.2142 195.747 L131.6487 195.3169 L132.0831 194.8914 L132.5175 194.4707 L132.952 194.0546 L133.3864 193.643 L133.8208 193.2359 L134.2552 192.8333 L134.6897 192.4351 L135.1241 192.0412 L135.5586 191.6516 L135.993 191.2662 L136.4274 190.885 L136.8619 190.508 L137.2963 190.135 L137.7307 189.766 L138.1652 189.401 L138.5996 189.0399 L139.034 188.6828 L139.4685 188.3294 L139.9029 187.9798 L140.3373 187.6339 L140.7718 187.2917 L141.2062 186.953 L141.6406 186.618 L142.0751 186.2865 L142.5095 185.9585 L142.9439 185.6339 L143.3784 185.3127 L143.8128 184.9949 L144.2473 184.6803 L144.6817 184.369 L145.1161 184.0609 L145.5506 183.7559 L145.985 183.4541 L146.4194 183.1553 L146.8539 182.8596 L147.2883 182.5669 L147.7227 182.2771 L148.1572 181.9902 L148.5916 181.7061 L149.026 181.4249 L149.4605 181.1465 L149.8949 180.8708 L150.3293 180.5979 L150.7638 180.3275 L151.1982 180.0598 L151.6326 179.7947 L152.0671 179.5322 L152.5015 179.2721 L152.9359 179.0146 L153.3704 178.7594 L153.8048 178.5067 L154.2392 178.2563 L154.6737 178.0083 L155.1081 177.7626 L155.5425 177.5191 L155.977 177.2778 L156.4114 177.0388 L156.8458 176.8019 L157.2803 176.5671 L157.7147 176.3345 L158.1492 176.1039 L158.5836 175.8753 L159.018 175.6487 L159.4525 175.4241 L159.8869 175.2014 L160.3213 174.9806 L160.7558 174.7617 L161.1902 174.5447 L161.6246 174.3295 L162.0591 174.116 L162.4935 173.9043 L162.9279 173.6944 L163.3624 173.4861 L163.7968 173.2796 L164.2312 173.0746 L164.6657 172.8714 L165.1001 172.6696 L165.5345 172.4695 L165.969 172.2709 L166.4034 172.0739 L166.8378 171.8783 L167.2723 171.6842 L167.7067 171.4915 L168.1411 171.3003 L168.5756 171.1105 L169.01 170.922 L169.4444 170.7348 L169.8789 170.5491 L170.3133 170.3646 L170.7477 170.1814 L171.1822 169.9994 L171.6166 169.8187 L172.0511 169.6392 L172.4855 169.4609 L172.9199 169.2837 L173.3544 169.1077 L173.7888 168.9329 L174.2232 168.7591 L174.6577 168.5865 L175.0921 168.4149 L175.5265 168.2443 L175.961 168.0748 L176.3954 167.9064 L176.8298 167.7389 L177.2643 167.5723 L177.6987 167.4068 L178.1331 167.2422 L178.5676 167.0785 L179.002 166.9157 L179.4364 166.7538 L179.8709 166.5928 L180.3053 166.4326 L180.7397 166.2732 L181.1742 166.1147 L181.6086 165.957 L182.043 165.8001 L182.4775 165.6439 L182.9119 165.4885 L183.3463 165.3339 L183.7808 165.1799 L184.2152 165.0267 L184.6496 164.8742 L185.0841 164.7224 L185.5185 164.5712 L185.953 164.4207 L186.3874 164.2708 L186.8218 164.1216 L187.2563 163.9729 L187.6907 163.8249 L188.1251 163.6775 L188.5596 163.5306 L188.994 163.3843 L189.4284 163.2385 L189.8629 163.0933 L190.2973 162.9486 L190.7317 162.8044 L191.1662 162.6608 L191.6006 162.5176 L192.035 162.3748 L192.4695 162.2326 L192.9039 162.0908 L193.3383 161.9494 L193.7728 161.8085 L194.2072 161.668 L194.6416 161.5279 L195.0761 161.3882 L195.5105 161.2489 L195.9449 161.11 L196.3794 160.9715 L196.8138 160.8333 L197.2482 160.6954 L197.6827 160.5579 L198.1171 160.4208 L198.5516 160.2839 L198.986 160.1474 L199.4204 160.0111 L199.8549 159.8752 L200.2893 159.7395 L200.7237 159.6042 L201.1582 159.4691 L201.5926 159.3342 L202.027 159.1996 L202.4615 159.0653 L202.8959 158.9312 L203.3303 158.7973 L203.7648 158.6636 L204.1992 158.5301 L204.6336 158.3969 L205.0681 158.2638 L205.5025 158.131 L205.9369 157.9983 L206.3714 157.8657 L206.8058 157.7334 L207.2402 157.6012 L207.6747 157.4692 L208.1091 157.3373 L208.5435 157.2056 L208.978 157.0739 L209.4124 156.9424 L209.8468 156.8111 L210.2813 156.6798 L210.7157 156.5487 L211.1502 156.4177 L211.5846 156.2867 L212.019 156.1559 L212.4534 156.0251 L212.8879 155.8944 L213.3223 155.7638 L213.7568 155.6333 L214.1912 155.5028 L214.6256 155.3723 L215.0601 155.242 L215.4945 155.1116 L215.9289 154.9813 L216.3634 154.8511 L216.7978 154.7209 L217.2322 154.5907 L217.6667 154.4605 L218.1011 154.3304 L218.5355 154.2002 L218.97 154.0701 L219.4044 153.9399 L219.8388 153.8098 L220.2733 153.6797 L220.7077 153.5495 L221.1422 153.4194 L221.5766 153.2892 L222.011 153.159 L222.4454 153.0287 L222.8799 152.8985 L223.3143 152.7682 L223.7487 152.6378 L224.1832 152.5075 L224.6176 152.3771 L225.052 152.2466 L225.4865 152.1161 L225.9209 151.9855 L226.3553 151.8548 L226.7898 151.7241 L227.2242 151.5934 L227.6587 151.4625 L228.0931 151.3316 L228.5275 151.2006 L228.962 151.0696 L229.3964 150.9384 L229.8308 150.8072 L230.2653 150.6759 L230.6997 150.5444 L231.1341 150.4129 L231.5686 150.2813 L232.003 150.1496 L232.4374 150.0178 L232.8719 149.8859 L233.3063 149.7539 L233.7408 149.6218 L234.1752 149.4895 L234.6096 149.3571 L235.044 149.2247 L235.4785 149.0921 L235.9129 148.9594 L236.3474 148.8265 L236.7818 148.6936 L237.2162 148.5605 L237.6507 148.4272 L238.0851 148.2939 L238.5195 148.1604 L238.9539 148.0267 L239.3884 147.893 L239.8228 147.7591 L240.2573 147.625 L240.6917 147.4908 L241.1261 147.3565 L241.5606 147.222 L241.995 147.0873 L242.4294 146.9525 L242.8639 146.8176 L243.2983 146.6825 L243.7327 146.5472 L244.1672 146.4118 L244.6016 146.2762 L245.036 146.1405 L245.4705 146.0046 L245.9049 145.8685 L246.3393 145.7323 L246.7738 145.5959 L247.2082 145.4593 L247.6426 145.3226 L248.0771 145.1857 L248.5115 145.0486 L248.9459 144.9113 L249.3804 144.7739 L249.8148 144.6363 L250.2493 144.4985 L250.6837 144.3606 L251.1181 144.2225 L251.5526 144.0841 L251.987 143.9456 L252.4214 143.807 L252.8559 143.6681 L253.2903 143.5291 L253.7247 143.3899 L254.1592 143.2505 L254.5936 143.1109 L255.028 142.9711 L255.4625 142.8311 L255.8969 142.691 L256.3313 142.5506 L256.7657 142.4101 L257.2002 142.2694 L257.6346 142.1285 L258.0691 141.9874 L258.5035 141.8461 L258.938 141.7046 L259.3724 141.5629 L259.8068 141.421 L260.2412 141.2789 L260.6757 141.1367 L261.1101 140.9942 L261.5446 140.8516 L261.979 140.7087 L262.4134 140.5657 L262.8478 140.4224 L263.2823 140.279 L263.7167 140.1354 L264.1512 139.9915 L264.5856 139.8475 L265.02 139.7033 L265.4545 139.5589 L265.8889 139.4142 L266.3233 139.2694 L266.7578 139.1244 L267.1922 138.9792 L267.6266 138.8338 L268.0611 138.6882 L268.4955 138.5424 L268.9299 138.3963 L269.3643 138.2501 L269.7988 138.1037 L270.2332 137.9571 L270.6677 137.8103 L271.1021 137.6633 L271.5366 137.5161 L271.971 137.3687 L272.4054 137.2211 L272.8398 137.0733 L273.2743 136.9253 L273.7087 136.7771 L274.1431 136.6287 L274.5776 136.4801 L275.012 136.3313 L275.4464 136.1823 L275.8809 136.0331 L276.3153 135.8837 L276.7498 135.7341 L277.1842 135.5843 L277.6186 135.4343 L278.0531 135.2841 L278.4875 135.1338 L278.9219 134.9832 L279.3564 134.8324 L279.7908 134.6815 L280.2252 134.5303 L280.6597 134.379 L281.0941 134.2274 L281.5285 134.0757 L281.963 133.9237 L282.3974 133.7716 L282.8318 133.6193 L283.2663 133.4668 L283.7007 133.314 L284.1351 133.1611 L284.5696 133.0081 L285.004 132.8548 L285.4384 132.7013 L285.8729 132.5477 L286.3073 132.3938 L286.7417 132.2398 L287.1762 132.0855 L287.6106 131.9311 L288.045 131.7765 L288.4795 131.6217 L288.9139 131.4668 L289.3483 131.3116 L289.7828 131.1562 L290.2172 131.0007 L290.6517 130.845 L291.0861 130.6891 L291.5205 130.533 L291.955 130.3768 L292.3894 130.2204 L292.8238 130.0637 L293.2583 129.9069 L293.6927 129.75 L294.1271 129.5928 L294.5616 129.4355 L294.996 129.278 L295.4304 129.1203 L295.8649 128.9624 L296.2993 128.8044 L296.7337 128.6462 L297.1682 128.4878 L297.6026 128.3293 L298.037 128.1705 L298.4715 128.0117 L298.9059 127.8526 L299.3403 127.6934 L299.7748 127.534 L300.2092 127.3744 L300.6436 127.2147 L301.0781 127.0548 L301.5125 126.8947 L301.9469 126.7345 L302.3814 126.5741 L302.8158 126.4136 L303.2502 126.2528 L303.6847 126.092 L304.1191 125.9309 L304.5536 125.7698 L304.988 125.6084 L305.4224 125.4469 L305.8569 125.2852 L306.2913 125.1235 L306.7257 124.9615 L307.1602 124.7994 L307.5946 124.6371 L308.029 124.4747 L308.4634 124.3121 L308.8979 124.1494 L309.3323 123.9865 L309.7668 123.8235 L310.2012 123.6604 L310.6357 123.4971 L311.0701 123.3336 L311.5045 123.1701 L311.9389 123.0063 L312.3734 122.8425 L312.8078 122.6784 L313.2422 122.5143 L313.6767 122.35 L314.1111 122.1856 L314.5455 122.0211 L314.98 121.8564 L315.4144 121.6916 L315.8488 121.5266 L316.2833 121.3615 L316.7177 121.1963 L317.1522 121.031 L317.5866 120.8655 L318.021 120.6999 L318.4554 120.5342 L318.8899 120.3684 L319.3243 120.2024 L319.7588 120.0363 L320.1932 119.8701 L320.6276 119.7038 L321.062 119.5374 L321.4965 119.3708 L321.9309 119.2041 L322.3654 119.0374 L322.7998 118.8705 L323.2343 118.7034 L323.6687 118.5363 L324.1031 118.3691 L324.5375 118.2018 L324.972 118.0343 L325.4064 117.8668 L325.8409 117.6991 L326.2753 117.5313 L326.7097 117.3635 L327.1441 117.1955 L327.5786 117.0275 L328.013 116.8593 L328.4474 116.6911 L328.8819 116.5227 L329.3163 116.3543 L329.7508 116.1857 L330.1852 116.0171 L330.6196 115.8484 L331.054 115.6796 L331.4885 115.5107 L331.9229 115.3417 L332.3574 115.1726 L332.7918 115.0035 L333.2262 114.8342 L333.6606 114.6649 L334.0951 114.4955 L334.5295 114.326 L334.964 114.1565 L335.3984 113.9869 L335.8328 113.8171 L336.2673 113.6474 L336.7017 113.4775 L337.1361 113.3076 L337.5706 113.1376 L338.005 112.9676 L338.4395 112.7974 L338.8739 112.6272 L339.3083 112.457 L339.7427 112.2867 L340.1772 112.1163 L340.6116 111.9459 L341.0461 111.7754 L341.4805 111.6048 L341.9149 111.4342 L342.3494 111.2636 L342.7838 111.0928 L343.2182 110.9221 L343.6526 110.7513 L344.0871 110.5804 L344.5215 110.4095 L344.956 110.2386 L345.3904 110.0676 L345.8248 109.8965 L346.2592 109.7254 L346.6937 109.5543 L347.1281 109.3832 L347.5626 109.212 L347.997 109.0407 L348.4314 108.8695 L348.8659 108.6982 L349.3003 108.5269 L349.7347 108.3555 L350.1692 108.1841 L350.6036 108.0127 L351.0381 107.8413 L351.4725 107.6698 L351.9069 107.4983 L352.3413 107.3268 L352.7758 107.1553 L353.2102 106.9838 L353.6446 106.8122 L354.0791 106.6406 L354.5135 106.469 L354.9479 106.2974 L355.3824 106.1258 L355.8168 105.9542 L356.2513 105.7826 L356.6857 105.611 L357.1201 105.4393 L357.5546 105.2677 L357.989 105.0961 L358.4234 104.9244 L358.8578 104.7528 L359.2923 104.5812 L359.7267 104.4095 L360.1612 104.2379 L360.5956 104.0663 L361.03 103.8947 L361.4645 103.7231 L361.8989 103.5516 L362.3333 103.4029 L362.7678 103.2559 L363.2022 103.1092 L363.6366 102.9626 L364.0711 102.8163 L364.5055 102.6702 L364.9399 102.5244 L365.3744 102.3787 L365.8088 102.2333 L366.2432 102.088 L366.6777 101.943 L367.1121 101.7982 L367.5465 101.6537 L367.981 101.5093 L368.4154 101.3651 L368.8499 101.2212 L369.2843 101.0775 L369.7187 100.9339 L370.1532 100.7906 L370.5876 100.6475 L371.022 100.5046 L371.4565 100.3619 L371.8909 100.2195 L372.3253 100.0772 L372.7598 99.9351 L373.1942 99.7933 L373.6286 99.6516 L374.063 99.5102 L374.4975 99.3689 L374.9319 99.2279 L375.3664 99.087 L375.8008 98.9464 L376.2352 98.806 L376.6697 98.6657 L377.1041 98.5257 L377.5385 98.3859 L377.973 98.2462 L378.4074 98.1068 L378.8418 97.9676 L379.2763 97.8285 L379.7107 97.6897 L380.1451 97.551 L380.5796 97.4126 L381.014 97.2743 L381.4485 97.1362 L381.8829 96.9984 L382.3173 96.8607 L382.7518 96.7232 L383.1862 96.5859 L383.6206 96.4489 L384.0551 96.3119 L384.4895 96.1752 L384.9239 96.0387 L385.3583 95.9024 L385.7928 95.7662 L386.2272 95.6303 L386.6617 95.4945 L387.0961 95.3589 L387.5305 95.2236 L387.965 95.0883 L388.3994 94.9533 L388.8338 94.8185 L389.2683 94.6839 L389.7027 94.5494 L390.1371 94.4151 L390.5716 94.281 L391.006 94.1471 L391.4404 94.0134 L391.8749 93.8799 L392.3093 93.7465 L392.7437 93.6133 L393.1782 93.4803 L393.6126 93.3475 L394.0471 93.2149 L394.4815 93.0824 L394.9159 92.9501 L395.3504 92.818 L395.7848 92.6861 L396.2192 92.5543 L396.6537 92.4228 L397.0881 92.2914 L397.5225 92.1602 L397.9569 92.0291 L398.3914 91.8983 L398.8258 91.7676 L399.2603 91.637 L399.6947 91.5067 L400.1291 91.3765 L400.5636 91.2465 L400.998 91.1167 L401.4324 90.9871 L401.8669 90.8576 L402.3013 90.7283 L402.7357 90.5991 L403.1702 90.4701 L403.6046 90.3413 L404.039 90.2127 L404.4735 90.0842 L404.9079 89.9559 L405.3423 89.8278 L405.7768 89.6999 L406.2112 89.5721 L406.6457 89.4444 L407.0801 89.317 L407.5145 89.1897 L407.9489 89.0625 L408.3834 88.9356 L408.8178 88.8088 L409.2523 88.6821 L409.6867 88.5557 L410.1211 88.4294 L410.5555 88.3032 L410.99 88.1772 L411.4244 88.0514 L411.8589 87.9257 L412.2933 87.8002 L412.7277 87.6749 L413.1622 87.5497 L413.5966 87.4247 L414.031 87.2998 L414.4655 87.1751 L414.8999 87.0506 L415.3344 86.9262 L415.7688 86.802 L416.2032 86.6779 L416.6376 86.554 L417.0721 86.4302 L417.5065 86.3066 L417.9409 86.1832 L418.3754 86.0599 L418.8098 85.9368 L419.2442 85.8138 L419.6787 85.691 L420.1131 85.5683 L420.5475 85.4458 L420.982 85.3234 L421.4164 85.2012 L421.8509 85.0791 L422.2853 84.9572 L422.7197 84.8354 L423.1541 84.7138 L423.5886 84.5924 L424.023 84.4711 L424.4575 84.3499 L424.8919 84.2289 L425.3263 84.1081 L425.7607 83.9874 L426.1952 83.8668 L426.6296 83.7464 L427.0641 83.6261 L427.4985 83.506 L427.933 83.386 L428.3674 83.2662 L428.8018 83.1466 L429.2362 83.027 L429.6707 82.9076 L430.1051 82.7884 L430.5395 82.6693 L430.974 82.5504 L431.4084 82.4315 L431.8428 82.3129 L432.2773 82.1944 L432.7117 82.076 L433.1461 81.9578 L433.5806 81.8397 L434.015 81.7217 L434.4495 81.6039 L434.8839 81.4863 L435.3183 81.3688 L435.7527 81.2514 L436.1872 81.1341 L436.6216 81.017 L437.0561 80.9001 L437.4905 80.7832 L437.9249 80.6666 L438.3593 80.55 L438.7938 80.4336 L439.2282 80.3174 L439.6627 80.2012 L440.0971 80.0852 L440.5315 79.9694 L440.966 79.8537 L441.4004 79.7381 L441.8348 79.6227 L442.2693 79.5073 L442.7037 79.3922 L443.1381 79.2771 L443.5726 79.1622 L444.007 79.0475 L444.4414 78.9328 L444.8759 78.8183 L445.3103 78.704 L445.7448 78.5897 L446.1792 78.4756 L446.6136 78.3617 L447.0481 78.2478 L447.4825 78.1341 L447.9169 78.0206 L448.3514 77.9071 L448.7858 77.7938 L449.2202 77.6806 L449.6546 77.5676 L450.0891 77.4547 L450.5235 77.3419 L450.9579 77.2292 L451.3924 77.1167 L451.8268 77.0043 L452.2613 76.892 L452.6957 76.7799 L453.1301 76.6679 L453.5645 76.556 L453.999 76.4442 L454.4334 76.3326 L454.8679 76.2211 L455.3023 76.1098 L455.7368 75.9985 L456.1712 75.8874 L456.6056 75.7764 L457.04 75.6655 L457.4745 75.5548 L457.9089 75.4441 L458.3434 75.3336 L458.7778 75.2233 L459.2122 75.113 L459.6467 75.0029 L460.0811 74.8929 L460.5155 74.783 L460.95 74.6733 L461.3844 74.5637 L461.8188 74.4541 L462.2532 74.3448 L462.6877 74.2355 L463.1221 74.1264 L463.5565 74.0173 L463.991 73.9084 L464.4254 73.7997 L464.8599 73.691 L465.2943 73.5825 L465.7287 73.4741 L466.1631 73.3658 L466.5976 73.2576 L467.032 73.1495 L467.4665 73.0416 L467.9009 72.9338 L468.3354 72.8261 L468.7698 72.7185 L469.2042 72.611 L469.6386 72.5037 L470.0731 72.3964 L470.5075 72.2893 L470.9419 72.1824 L471.3764 72.0755 L471.8108 71.9687 L472.2453 71.862 L472.6797 71.7555 L473.1141 71.6491 L473.5486 71.5428 L473.983 71.4366 L474.4174 71.3306 L474.8518 71.2246 L475.2863 71.1188 L475.7207 71.0131 L476.1552 70.9074 L476.5896 70.8019 L477.024 70.6965 L477.4585 70.5913 L477.8929 70.4861 L478.3273 70.3811 L478.7617 70.2762 L479.1962 70.1713 L479.6306 70.0666 L480.0651 69.962 L480.4995 69.8575 L480.934 69.7532 L481.3684 69.6489 L481.8028 69.5448 L482.2372 69.4407 L482.6717 69.3368 L483.1061 69.233 L483.5405 69.1292 L483.975 69.0257 L484.4094 68.9222 L484.8438 68.8188 L485.2783 68.7155 L485.7127 68.6124 L486.1471 68.5093 L486.5816 68.4063 L487.016 68.3035 L487.4504 68.2008 L487.8849 68.0982 L488.3193 67.9956 L488.7538 67.8932 L489.1882 67.7909 L489.6226 67.6887 L490.0571 67.5866 L490.4915 67.4847 L490.9259 67.3828 L491.3604 67.281 L491.7948 67.1793 L492.2292 67.0778 L492.6637 66.9763 L493.0981 66.875 L493.5326 66.7737 L493.967 66.6726 L494.4014 66.5716 L494.8358 66.4706 L495.2703 66.3698 L495.7047 66.2691 L496.1391 66.1685 L496.5736 66.0679 L497.008 65.9675 L497.4424 65.8672 L497.8769 65.767 L498.3113 65.6669 L498.7457 65.5669 L499.1802 65.467 L499.6146 65.3672 L500.049 65.2675 L500.4835 65.1679 L500.9179 65.0684 L501.3524 64.969 L501.7868 64.8697 L502.2212 64.7705 L502.6557 64.6714 L503.0901 64.5724 L503.5245 64.4735 L503.959 64.3747 L504.3934 64.2761 L504.8279 64.1774 L505.2623 64.079 L505.6967 63.9806 L506.1312 63.8823 L506.5656 63.7841 L507 63.686" style="fill:none; fill-rule:evenodd;"
    /></g
  ></g
></svg
>
